h:\agamedev\engine\dragongame\common\x64\debug\vc141.pdb
h:\agamedev\engine\dragongame\common\x64\debug\vc141.idb
h:\agamedev\engine\dragongame\common\x64\debug\cube.obj
h:\agamedev\engine\dragongame\common\x64\debug\flatground.obj
h:\agamedev\engine\dragongame\common\x64\debug\gametimer.obj
h:\agamedev\engine\dragongame\common\x64\debug\matrix3.obj
h:\agamedev\engine\dragongame\common\x64\debug\matrix4.obj
h:\agamedev\engine\dragongame\common\x64\debug\player.obj
h:\agamedev\engine\dragongame\common\x64\debug\quaternion.obj
h:\agamedev\engine\dragongame\common\x64\debug\starship.obj
h:\agamedev\engine\dragongame\common\x64\debug\terrain.obj
h:\agamedev\engine\dragongame\common\x64\debug\common.tlog\cl.command.1.tlog
h:\agamedev\engine\dragongame\common\x64\debug\common.tlog\cl.read.1.tlog
h:\agamedev\engine\dragongame\common\x64\debug\common.tlog\cl.write.1.tlog
