^H:\AGAMEDEV\ENGINE\DRAGONGAME\HUMANINTERFACE\RELEASE\CONTROLLER.OBJ|H:\AGAMEDEV\ENGINE\DRAGONGAME\HUMANINTERFACE\RELEASE\GAMEPADCONTROLLER.OBJ|H:\AGAMEDEV\ENGINE\DRAGONGAME\HUMANINTERFACE\RELEASE\KEYBOARDCONTROLLER.OBJ
H:\AGAMEDEV\ENGINE\DRAGONGAME\RELEASE\HUMANINTERFACE.LIB
^C:\USERS\B4044959\DOCUMENTS\PORTFOLIO\PORTFOLIO\GAME ENGINE\DRAGONGAME\HUMANINTERFACE\RELEASE\CONTROLLER.OBJ|C:\USERS\B4044959\DOCUMENTS\PORTFOLIO\PORTFOLIO\GAME ENGINE\DRAGONGAME\HUMANINTERFACE\RELEASE\GAMEPADCONTROLLER.OBJ|C:\USERS\B4044959\DOCUMENTS\PORTFOLIO\PORTFOLIO\GAME ENGINE\DRAGONGAME\HUMANINTERFACE\RELEASE\KEYBOARDCONTROLLER.OBJ
C:\USERS\B4044959\DOCUMENTS\PORTFOLIO\PORTFOLIO\GAME ENGINE\DRAGONGAME\RELEASE\HUMANINTERFACE.LIB
