^C:\USERS\B4044959\DOCUMENTS\STAGE4\GRAPHICS FOR GAMES\COURSEWORK\GRAPHICSCOURSEWORK\GRAPHICSCOURSEWORK\DEBUG\ASSETS.OBJ|C:\USERS\B4044959\DOCUMENTS\STAGE4\GRAPHICS FOR GAMES\COURSEWORK\GRAPHICSCOURSEWORK\GRAPHICSCOURSEWORK\DEBUG\CUBEMAP.OBJ|C:\USERS\B4044959\DOCUMENTS\STAGE4\GRAPHICS FOR GAMES\COURSEWORK\GRAPHICSCOURSEWORK\GRAPHICSCOURSEWORK\DEBUG\MAIN.OBJ|C:\USERS\B4044959\DOCUMENTS\STAGE4\GRAPHICS FOR GAMES\COURSEWORK\GRAPHICSCOURSEWORK\GRAPHICSCOURSEWORK\DEBUG\PARTICLE.OBJ|C:\USERS\B4044959\DOCUMENTS\STAGE4\GRAPHICS FOR GAMES\COURSEWORK\GRAPHICSCOURSEWORK\GRAPHICSCOURSEWORK\DEBUG\PARTICLEEMITTER.OBJ|C:\USERS\B4044959\DOCUMENTS\STAGE4\GRAPHICS FOR GAMES\COURSEWORK\GRAPHICSCOURSEWORK\GRAPHICSCOURSEWORK\DEBUG\PARTICLEMESH.OBJ|C:\USERS\B4044959\DOCUMENTS\STAGE4\GRAPHICS FOR GAMES\COURSEWORK\GRAPHICSCOURSEWORK\GRAPHICSCOURSEWORK\DEBUG\POSTPROCESSING.OBJ|C:\USERS\B4044959\DOCUMENTS\STAGE4\GRAPHICS FOR GAMES\COURSEWORK\GRAPHICSCOURSEWORK\GRAPHICSCOURSEWORK\DEBUG\RENDERER.OBJ|C:\USERS\B4044959\DOCUMENTS\STAGE4\GRAPHICS FOR GAMES\COURSEWORK\GRAPHICSCOURSEWORK\GRAPHICSCOURSEWORK\DEBUG\RENDEROBJECT.OBJ|C:\USERS\B4044959\DOCUMENTS\STAGE4\GRAPHICS FOR GAMES\COURSEWORK\GRAPHICSCOURSEWORK\GRAPHICSCOURSEWORK\DEBUG\SCENE.OBJ
C:\WINDOWS\GLOBALIZATION\SORTING\SORTDEFAULT.NLS
C:\USERS\B4044959\DOCUMENTS\STAGE4\GRAPHICS FOR GAMES\COURSEWORK\GRAPHICSCOURSEWORK\GLEW\LIB\DEBUG\GLEW32.LIB
C:\PROGRAM FILES (X86)\WINDOWS KITS\10\LIB\10.0.15063.0\UM\X86\KERNEL32.LIB
C:\PROGRAM FILES (X86)\WINDOWS KITS\10\LIB\10.0.15063.0\UM\X86\USER32.LIB
C:\PROGRAM FILES (X86)\WINDOWS KITS\10\LIB\10.0.15063.0\UM\X86\GDI32.LIB
C:\PROGRAM FILES (X86)\WINDOWS KITS\10\LIB\10.0.15063.0\UM\X86\WINSPOOL.LIB
C:\PROGRAM FILES (X86)\WINDOWS KITS\10\LIB\10.0.15063.0\UM\X86\COMDLG32.LIB
C:\PROGRAM FILES (X86)\WINDOWS KITS\10\LIB\10.0.15063.0\UM\X86\ADVAPI32.LIB
C:\PROGRAM FILES (X86)\WINDOWS KITS\10\LIB\10.0.15063.0\UM\X86\SHELL32.LIB
C:\PROGRAM FILES (X86)\WINDOWS KITS\10\LIB\10.0.15063.0\UM\X86\OLE32.LIB
C:\PROGRAM FILES (X86)\WINDOWS KITS\10\LIB\10.0.15063.0\UM\X86\OLEAUT32.LIB
C:\PROGRAM FILES (X86)\WINDOWS KITS\10\LIB\10.0.15063.0\UM\X86\UUID.LIB
C:\PROGRAM FILES (X86)\WINDOWS KITS\10\LIB\10.0.15063.0\UM\X86\ODBC32.LIB
C:\PROGRAM FILES (X86)\WINDOWS KITS\10\LIB\10.0.15063.0\UM\X86\ODBCCP32.LIB
C:\USERS\B4044959\DOCUMENTS\STAGE4\GRAPHICS FOR GAMES\COURSEWORK\GRAPHICSCOURSEWORK\SOIL\DEBUG\SOIL.LIB
C:\USERS\B4044959\DOCUMENTS\STAGE4\GRAPHICS FOR GAMES\COURSEWORK\GRAPHICSCOURSEWORK\DEBUG\NCLGL.LIB
C:\USERS\B4044959\DOCUMENTS\STAGE4\GRAPHICS FOR GAMES\COURSEWORK\GRAPHICSCOURSEWORK\GRAPHICSCOURSEWORK\DEBUG\ASSETS.OBJ
C:\USERS\B4044959\DOCUMENTS\STAGE4\GRAPHICS FOR GAMES\COURSEWORK\GRAPHICSCOURSEWORK\GRAPHICSCOURSEWORK\DEBUG\CUBEMAP.OBJ
C:\USERS\B4044959\DOCUMENTS\STAGE4\GRAPHICS FOR GAMES\COURSEWORK\GRAPHICSCOURSEWORK\GRAPHICSCOURSEWORK\DEBUG\MAIN.OBJ
C:\USERS\B4044959\DOCUMENTS\STAGE4\GRAPHICS FOR GAMES\COURSEWORK\GRAPHICSCOURSEWORK\GRAPHICSCOURSEWORK\DEBUG\PARTICLE.OBJ
C:\USERS\B4044959\DOCUMENTS\STAGE4\GRAPHICS FOR GAMES\COURSEWORK\GRAPHICSCOURSEWORK\GRAPHICSCOURSEWORK\DEBUG\PARTICLEEMITTER.OBJ
C:\USERS\B4044959\DOCUMENTS\STAGE4\GRAPHICS FOR GAMES\COURSEWORK\GRAPHICSCOURSEWORK\GRAPHICSCOURSEWORK\DEBUG\PARTICLEMESH.OBJ
C:\USERS\B4044959\DOCUMENTS\STAGE4\GRAPHICS FOR GAMES\COURSEWORK\GRAPHICSCOURSEWORK\GRAPHICSCOURSEWORK\DEBUG\POSTPROCESSING.OBJ
C:\USERS\B4044959\DOCUMENTS\STAGE4\GRAPHICS FOR GAMES\COURSEWORK\GRAPHICSCOURSEWORK\GRAPHICSCOURSEWORK\DEBUG\RENDERER.OBJ
C:\USERS\B4044959\DOCUMENTS\STAGE4\GRAPHICS FOR GAMES\COURSEWORK\GRAPHICSCOURSEWORK\GRAPHICSCOURSEWORK\DEBUG\RENDEROBJECT.OBJ
C:\USERS\B4044959\DOCUMENTS\STAGE4\GRAPHICS FOR GAMES\COURSEWORK\GRAPHICSCOURSEWORK\GRAPHICSCOURSEWORK\DEBUG\SCENE.OBJ
C:\WINDOWS\SYSTEM32\TZRES.DLL
C:\PROGRAM FILES (X86)\MICROSOFT VISUAL STUDIO\2017\PROFESSIONAL\VC\TOOLS\MSVC\14.10.25017\LIB\X86\MSVCPRTD.LIB
C:\PROGRAM FILES (X86)\WINDOWS KITS\10\LIB\10.0.15063.0\UM\X86\OPENGL32.LIB
C:\PROGRAM FILES (X86)\MICROSOFT VISUAL STUDIO\2017\PROFESSIONAL\VC\TOOLS\MSVC\14.10.25017\LIB\X86\MSVCRTD.LIB
C:\PROGRAM FILES (X86)\MICROSOFT VISUAL STUDIO\2017\PROFESSIONAL\VC\TOOLS\MSVC\14.10.25017\LIB\X86\OLDNAMES.LIB
C:\PROGRAM FILES (X86)\MICROSOFT VISUAL STUDIO\2017\PROFESSIONAL\VC\TOOLS\MSVC\14.10.25017\LIB\X86\VCRUNTIMED.LIB
C:\PROGRAM FILES (X86)\WINDOWS KITS\10\LIB\10.0.15063.0\UCRT\X86\UCRTD.LIB
