^H:\AGAMEDEV\ENGINE\DRAGONGAME\EVENTSYSTEM\DAMAGEPLAYEREVENT.CPP|H:\AGAMEDEV\ENGINE\DRAGONGAME\EVENTSYSTEM\DESTROYEVENT.CPP|H:\AGAMEDEV\ENGINE\DRAGONGAME\EVENTSYSTEM\EVENT.CPP|H:\AGAMEDEV\ENGINE\DRAGONGAME\EVENTSYSTEM\EVENTSYSTEM.CPP|H:\AGAMEDEV\ENGINE\DRAGONGAME\EVENTSYSTEM\GAMEOVEREVENT.CPP|H:\AGAMEDEV\ENGINE\DRAGONGAME\EVENTSYSTEM\GAMEWONEVENT.CPP|H:\AGAMEDEV\ENGINE\DRAGONGAME\EVENTSYSTEM\JUMPEVENT.CPP|H:\AGAMEDEV\ENGINE\DRAGONGAME\EVENTSYSTEM\LOADLEVELEVENT.CPP|H:\AGAMEDEV\ENGINE\DRAGONGAME\EVENTSYSTEM\MOVEEVENT.CPP|H:\AGAMEDEV\ENGINE\DRAGONGAME\EVENTSYSTEM\SCOREINCREASEEVENT.CPP|H:\AGAMEDEV\ENGINE\DRAGONGAME\EVENTSYSTEM\SETHITPOINTSTEXTEVENT.CPP|H:\AGAMEDEV\ENGINE\DRAGONGAME\EVENTSYSTEM\SETSCORETEXTEVENT.CPP|H:\AGAMEDEV\ENGINE\DRAGONGAME\EVENTSYSTEM\SHUTDOWNEVENT.CPP|H:\AGAMEDEV\ENGINE\DRAGONGAME\EVENTSYSTEM\SOUNDEVENT.CPP|H:\AGAMEDEV\ENGINE\DRAGONGAME\EVENTSYSTEM\SPAWNEVENT.CPP|H:\AGAMEDEV\ENGINE\DRAGONGAME\EVENTSYSTEM\SPAWNPLAYER.CPP|H:\AGAMEDEV\ENGINE\DRAGONGAME\EVENTSYSTEM\SUBSYSTEM.CPP|H:\AGAMEDEV\ENGINE\DRAGONGAME\EVENTSYSTEM\TIMEEVENT.CPP|H:\AGAMEDEV\ENGINE\DRAGONGAME\EVENTSYSTEM\TOGGLEPROFILEREVENT.CPP|H:\AGAMEDEV\ENGINE\DRAGONGAME\EVENTSYSTEM\UNLOADLEVELEVENT.CPP
H:\AGAMEDEV\ENGINE\DRAGONGAME\EVENTSYSTEM\RELEASE\EVENTSYSTEM.PDB
H:\AGAMEDEV\ENGINE\DRAGONGAME\EVENTSYSTEM\RELEASE\UNLOADLEVELEVENT.OBJ
H:\AGAMEDEV\ENGINE\DRAGONGAME\EVENTSYSTEM\RELEASE\TOGGLEPROFILEREVENT.OBJ
H:\AGAMEDEV\ENGINE\DRAGONGAME\EVENTSYSTEM\RELEASE\TIMEEVENT.OBJ
H:\AGAMEDEV\ENGINE\DRAGONGAME\EVENTSYSTEM\RELEASE\SUBSYSTEM.OBJ
H:\AGAMEDEV\ENGINE\DRAGONGAME\EVENTSYSTEM\RELEASE\SPAWNEVENT.OBJ
H:\AGAMEDEV\ENGINE\DRAGONGAME\EVENTSYSTEM\RELEASE\SOUNDEVENT.OBJ
H:\AGAMEDEV\ENGINE\DRAGONGAME\EVENTSYSTEM\RELEASE\MOVEEVENT.OBJ
H:\AGAMEDEV\ENGINE\DRAGONGAME\EVENTSYSTEM\RELEASE\JUMPEVENT.OBJ
H:\AGAMEDEV\ENGINE\DRAGONGAME\EVENTSYSTEM\RELEASE\SPAWNPLAYER.OBJ
H:\AGAMEDEV\ENGINE\DRAGONGAME\EVENTSYSTEM\RELEASE\SHUTDOWNEVENT.OBJ
H:\AGAMEDEV\ENGINE\DRAGONGAME\EVENTSYSTEM\RELEASE\SETSCORETEXTEVENT.OBJ
H:\AGAMEDEV\ENGINE\DRAGONGAME\EVENTSYSTEM\RELEASE\SETHITPOINTSTEXTEVENT.OBJ
H:\AGAMEDEV\ENGINE\DRAGONGAME\EVENTSYSTEM\RELEASE\SCOREINCREASEEVENT.OBJ
H:\AGAMEDEV\ENGINE\DRAGONGAME\EVENTSYSTEM\RELEASE\LOADLEVELEVENT.OBJ
H:\AGAMEDEV\ENGINE\DRAGONGAME\EVENTSYSTEM\RELEASE\GAMEWONEVENT.OBJ
H:\AGAMEDEV\ENGINE\DRAGONGAME\EVENTSYSTEM\RELEASE\GAMEOVEREVENT.OBJ
H:\AGAMEDEV\ENGINE\DRAGONGAME\EVENTSYSTEM\RELEASE\EVENTSYSTEM.OBJ
H:\AGAMEDEV\ENGINE\DRAGONGAME\EVENTSYSTEM\RELEASE\EVENT.OBJ
H:\AGAMEDEV\ENGINE\DRAGONGAME\EVENTSYSTEM\RELEASE\DESTROYEVENT.OBJ
H:\AGAMEDEV\ENGINE\DRAGONGAME\EVENTSYSTEM\RELEASE\DAMAGEPLAYEREVENT.OBJ
^H:\AGAMEDEV\ENGINE\DRAGONGAME\EVENTSYSTEM\EVENT.CPP|H:\AGAMEDEV\ENGINE\DRAGONGAME\EVENTSYSTEM\EVENTSYSTEM.CPP|H:\AGAMEDEV\ENGINE\DRAGONGAME\EVENTSYSTEM\SUBSYSTEM.CPP
H:\AGAMEDEV\ENGINE\DRAGONGAME\EVENTSYSTEM\RELEASE\SUBSYSTEM.OBJ
H:\AGAMEDEV\ENGINE\DRAGONGAME\EVENTSYSTEM\RELEASE\EVENTSYSTEM.OBJ
H:\AGAMEDEV\ENGINE\DRAGONGAME\EVENTSYSTEM\RELEASE\EVENT.OBJ
^H:\AGAMEDEV\ENGINE\DRAGONGAME\EVENTSYSTEM\DAMAGEPLAYEREVENT.CPP|H:\AGAMEDEV\ENGINE\DRAGONGAME\EVENTSYSTEM\DESTROYEVENT.CPP|H:\AGAMEDEV\ENGINE\DRAGONGAME\EVENTSYSTEM\EVENT.CPP|H:\AGAMEDEV\ENGINE\DRAGONGAME\EVENTSYSTEM\EVENTSYSTEM.CPP|H:\AGAMEDEV\ENGINE\DRAGONGAME\EVENTSYSTEM\GAMEOVEREVENT.CPP|H:\AGAMEDEV\ENGINE\DRAGONGAME\EVENTSYSTEM\GAMEWONEVENT.CPP|H:\AGAMEDEV\ENGINE\DRAGONGAME\EVENTSYSTEM\JUMPEVENT.CPP|H:\AGAMEDEV\ENGINE\DRAGONGAME\EVENTSYSTEM\LOADGAMEVARIABLESEVENT.CPP|H:\AGAMEDEV\ENGINE\DRAGONGAME\EVENTSYSTEM\LOADLEVELEVENT.CPP|H:\AGAMEDEV\ENGINE\DRAGONGAME\EVENTSYSTEM\MOVEEVENT.CPP|H:\AGAMEDEV\ENGINE\DRAGONGAME\EVENTSYSTEM\RELOADLEVELEVENT.CPP|H:\AGAMEDEV\ENGINE\DRAGONGAME\EVENTSYSTEM\ROTATEEVENT.CPP|H:\AGAMEDEV\ENGINE\DRAGONGAME\EVENTSYSTEM\SCOREINCREASEEVENT.CPP|H:\AGAMEDEV\ENGINE\DRAGONGAME\EVENTSYSTEM\SETHITPOINTSTEXTEVENT.CPP|H:\AGAMEDEV\ENGINE\DRAGONGAME\EVENTSYSTEM\SETSCORETEXTEVENT.CPP|H:\AGAMEDEV\ENGINE\DRAGONGAME\EVENTSYSTEM\SHUTDOWNEVENT.CPP|H:\AGAMEDEV\ENGINE\DRAGONGAME\EVENTSYSTEM\SOUNDEVENT.CPP|H:\AGAMEDEV\ENGINE\DRAGONGAME\EVENTSYSTEM\SPAWNEVENT.CPP|H:\AGAMEDEV\ENGINE\DRAGONGAME\EVENTSYSTEM\SPAWNPLAYER.CPP|H:\AGAMEDEV\ENGINE\DRAGONGAME\EVENTSYSTEM\SUBSYSTEM.CPP|H:\AGAMEDEV\ENGINE\DRAGONGAME\EVENTSYSTEM\TIMEEVENT.CPP|H:\AGAMEDEV\ENGINE\DRAGONGAME\EVENTSYSTEM\TOGGLEPROFILEREVENT.CPP|H:\AGAMEDEV\ENGINE\DRAGONGAME\EVENTSYSTEM\UNLOADLEVELEVENT.CPP
H:\AGAMEDEV\ENGINE\DRAGONGAME\EVENTSYSTEM\RELEASE\EVENTSYSTEM.PDB
H:\AGAMEDEV\ENGINE\DRAGONGAME\EVENTSYSTEM\RELEASE\SUBSYSTEM.OBJ
H:\AGAMEDEV\ENGINE\DRAGONGAME\EVENTSYSTEM\RELEASE\SPAWNEVENT.OBJ
H:\AGAMEDEV\ENGINE\DRAGONGAME\EVENTSYSTEM\RELEASE\SOUNDEVENT.OBJ
H:\AGAMEDEV\ENGINE\DRAGONGAME\EVENTSYSTEM\RELEASE\MOVEEVENT.OBJ
H:\AGAMEDEV\ENGINE\DRAGONGAME\EVENTSYSTEM\RELEASE\JUMPEVENT.OBJ
H:\AGAMEDEV\ENGINE\DRAGONGAME\EVENTSYSTEM\RELEASE\SPAWNPLAYER.OBJ
H:\AGAMEDEV\ENGINE\DRAGONGAME\EVENTSYSTEM\RELEASE\SHUTDOWNEVENT.OBJ
H:\AGAMEDEV\ENGINE\DRAGONGAME\EVENTSYSTEM\RELEASE\SETSCORETEXTEVENT.OBJ
H:\AGAMEDEV\ENGINE\DRAGONGAME\EVENTSYSTEM\RELEASE\SETHITPOINTSTEXTEVENT.OBJ
H:\AGAMEDEV\ENGINE\DRAGONGAME\EVENTSYSTEM\RELEASE\SCOREINCREASEEVENT.OBJ
H:\AGAMEDEV\ENGINE\DRAGONGAME\EVENTSYSTEM\RELEASE\ROTATEEVENT.OBJ
H:\AGAMEDEV\ENGINE\DRAGONGAME\EVENTSYSTEM\RELEASE\RELOADLEVELEVENT.OBJ
H:\AGAMEDEV\ENGINE\DRAGONGAME\EVENTSYSTEM\RELEASE\LOADLEVELEVENT.OBJ
H:\AGAMEDEV\ENGINE\DRAGONGAME\EVENTSYSTEM\RELEASE\LOADGAMEVARIABLESEVENT.OBJ
H:\AGAMEDEV\ENGINE\DRAGONGAME\EVENTSYSTEM\RELEASE\GAMEWONEVENT.OBJ
H:\AGAMEDEV\ENGINE\DRAGONGAME\EVENTSYSTEM\RELEASE\GAMEOVEREVENT.OBJ
H:\AGAMEDEV\ENGINE\DRAGONGAME\EVENTSYSTEM\RELEASE\EVENTSYSTEM.OBJ
H:\AGAMEDEV\ENGINE\DRAGONGAME\EVENTSYSTEM\RELEASE\EVENT.OBJ
H:\AGAMEDEV\ENGINE\DRAGONGAME\EVENTSYSTEM\RELEASE\DESTROYEVENT.OBJ
H:\AGAMEDEV\ENGINE\DRAGONGAME\EVENTSYSTEM\RELEASE\DAMAGEPLAYEREVENT.OBJ
H:\AGAMEDEV\ENGINE\DRAGONGAME\EVENTSYSTEM\RELEASE\UNLOADLEVELEVENT.OBJ
H:\AGAMEDEV\ENGINE\DRAGONGAME\EVENTSYSTEM\RELEASE\TOGGLEPROFILEREVENT.OBJ
H:\AGAMEDEV\ENGINE\DRAGONGAME\EVENTSYSTEM\RELEASE\TIMEEVENT.OBJ
^H:\AGAMEDEV\ENGINE\DRAGONGAME\EVENTSYSTEM\DAMAGEPLAYEREVENT.CPP|H:\AGAMEDEV\ENGINE\DRAGONGAME\EVENTSYSTEM\DESTROYEVENT.CPP|H:\AGAMEDEV\ENGINE\DRAGONGAME\EVENTSYSTEM\EVENT.CPP|H:\AGAMEDEV\ENGINE\DRAGONGAME\EVENTSYSTEM\EVENTSYSTEM.CPP|H:\AGAMEDEV\ENGINE\DRAGONGAME\EVENTSYSTEM\GAMEOVEREVENT.CPP|H:\AGAMEDEV\ENGINE\DRAGONGAME\EVENTSYSTEM\GAMEWONEVENT.CPP|H:\AGAMEDEV\ENGINE\DRAGONGAME\EVENTSYSTEM\JUMPEVENT.CPP|H:\AGAMEDEV\ENGINE\DRAGONGAME\EVENTSYSTEM\LOADGAMEVARIABLESEVENT.CPP|H:\AGAMEDEV\ENGINE\DRAGONGAME\EVENTSYSTEM\LOADLEVELEVENT.CPP|H:\AGAMEDEV\ENGINE\DRAGONGAME\EVENTSYSTEM\MOVEEVENT.CPP|H:\AGAMEDEV\ENGINE\DRAGONGAME\EVENTSYSTEM\RELOADLEVELEVENT.CPP|H:\AGAMEDEV\ENGINE\DRAGONGAME\EVENTSYSTEM\RESTARTGAMEEVENT.CPP|H:\AGAMEDEV\ENGINE\DRAGONGAME\EVENTSYSTEM\ROTATEEVENT.CPP|H:\AGAMEDEV\ENGINE\DRAGONGAME\EVENTSYSTEM\SCOREINCREASEEVENT.CPP|H:\AGAMEDEV\ENGINE\DRAGONGAME\EVENTSYSTEM\SETHITPOINTSTEXTEVENT.CPP|H:\AGAMEDEV\ENGINE\DRAGONGAME\EVENTSYSTEM\SETSCORETEXTEVENT.CPP|H:\AGAMEDEV\ENGINE\DRAGONGAME\EVENTSYSTEM\SHUTDOWNEVENT.CPP|H:\AGAMEDEV\ENGINE\DRAGONGAME\EVENTSYSTEM\SOUNDEVENT.CPP|H:\AGAMEDEV\ENGINE\DRAGONGAME\EVENTSYSTEM\SPAWNEVENT.CPP|H:\AGAMEDEV\ENGINE\DRAGONGAME\EVENTSYSTEM\SPAWNPLAYER.CPP|H:\AGAMEDEV\ENGINE\DRAGONGAME\EVENTSYSTEM\SUBSYSTEM.CPP|H:\AGAMEDEV\ENGINE\DRAGONGAME\EVENTSYSTEM\TIMEEVENT.CPP|H:\AGAMEDEV\ENGINE\DRAGONGAME\EVENTSYSTEM\TOGGLEPROFILEREVENT.CPP|H:\AGAMEDEV\ENGINE\DRAGONGAME\EVENTSYSTEM\UNLOADLEVELEVENT.CPP
H:\AGAMEDEV\ENGINE\DRAGONGAME\EVENTSYSTEM\RELEASE\SPAWNEVENT.OBJ
H:\AGAMEDEV\ENGINE\DRAGONGAME\EVENTSYSTEM\RELEASE\SOUNDEVENT.OBJ
H:\AGAMEDEV\ENGINE\DRAGONGAME\EVENTSYSTEM\RELEASE\MOVEEVENT.OBJ
H:\AGAMEDEV\ENGINE\DRAGONGAME\EVENTSYSTEM\RELEASE\JUMPEVENT.OBJ
H:\AGAMEDEV\ENGINE\DRAGONGAME\EVENTSYSTEM\RELEASE\SPAWNPLAYER.OBJ
H:\AGAMEDEV\ENGINE\DRAGONGAME\EVENTSYSTEM\RELEASE\SHUTDOWNEVENT.OBJ
H:\AGAMEDEV\ENGINE\DRAGONGAME\EVENTSYSTEM\RELEASE\SETSCORETEXTEVENT.OBJ
H:\AGAMEDEV\ENGINE\DRAGONGAME\EVENTSYSTEM\RELEASE\SETHITPOINTSTEXTEVENT.OBJ
H:\AGAMEDEV\ENGINE\DRAGONGAME\EVENTSYSTEM\RELEASE\SCOREINCREASEEVENT.OBJ
H:\AGAMEDEV\ENGINE\DRAGONGAME\EVENTSYSTEM\RELEASE\ROTATEEVENT.OBJ
H:\AGAMEDEV\ENGINE\DRAGONGAME\EVENTSYSTEM\RELEASE\RESTARTGAMEEVENT.OBJ
H:\AGAMEDEV\ENGINE\DRAGONGAME\EVENTSYSTEM\RELEASE\RELOADLEVELEVENT.OBJ
H:\AGAMEDEV\ENGINE\DRAGONGAME\EVENTSYSTEM\RELEASE\LOADLEVELEVENT.OBJ
H:\AGAMEDEV\ENGINE\DRAGONGAME\EVENTSYSTEM\RELEASE\LOADGAMEVARIABLESEVENT.OBJ
H:\AGAMEDEV\ENGINE\DRAGONGAME\EVENTSYSTEM\RELEASE\GAMEWONEVENT.OBJ
H:\AGAMEDEV\ENGINE\DRAGONGAME\EVENTSYSTEM\RELEASE\GAMEOVEREVENT.OBJ
H:\AGAMEDEV\ENGINE\DRAGONGAME\EVENTSYSTEM\RELEASE\EVENTSYSTEM.OBJ
H:\AGAMEDEV\ENGINE\DRAGONGAME\EVENTSYSTEM\RELEASE\EVENT.OBJ
H:\AGAMEDEV\ENGINE\DRAGONGAME\EVENTSYSTEM\RELEASE\DESTROYEVENT.OBJ
H:\AGAMEDEV\ENGINE\DRAGONGAME\EVENTSYSTEM\RELEASE\DAMAGEPLAYEREVENT.OBJ
H:\AGAMEDEV\ENGINE\DRAGONGAME\EVENTSYSTEM\RELEASE\UNLOADLEVELEVENT.OBJ
H:\AGAMEDEV\ENGINE\DRAGONGAME\EVENTSYSTEM\RELEASE\TOGGLEPROFILEREVENT.OBJ
H:\AGAMEDEV\ENGINE\DRAGONGAME\EVENTSYSTEM\RELEASE\TIMEEVENT.OBJ
H:\AGAMEDEV\ENGINE\DRAGONGAME\EVENTSYSTEM\RELEASE\SUBSYSTEM.OBJ
^H:\AGAMEDEV\ENGINE\DRAGONGAME\EVENTSYSTEM\DAMAGEPLAYEREVENT.CPP
H:\AGAMEDEV\ENGINE\DRAGONGAME\EVENTSYSTEM\RELEASE\EVENTSYSTEM.PDB
^H:\AGAMEDEV\ENGINE\DRAGONGAME\EVENTSYSTEM\DESTROYEVENT.CPP
H:\AGAMEDEV\ENGINE\DRAGONGAME\EVENTSYSTEM\RELEASE\EVENTSYSTEM.PDB
^H:\AGAMEDEV\ENGINE\DRAGONGAME\EVENTSYSTEM\EVENT.CPP
H:\AGAMEDEV\ENGINE\DRAGONGAME\EVENTSYSTEM\RELEASE\EVENTSYSTEM.PDB
^H:\AGAMEDEV\ENGINE\DRAGONGAME\EVENTSYSTEM\EVENTSYSTEM.CPP
H:\AGAMEDEV\ENGINE\DRAGONGAME\EVENTSYSTEM\RELEASE\EVENTSYSTEM.PDB
^H:\AGAMEDEV\ENGINE\DRAGONGAME\EVENTSYSTEM\GAMEOVEREVENT.CPP
H:\AGAMEDEV\ENGINE\DRAGONGAME\EVENTSYSTEM\RELEASE\EVENTSYSTEM.PDB
^H:\AGAMEDEV\ENGINE\DRAGONGAME\EVENTSYSTEM\GAMEWONEVENT.CPP
H:\AGAMEDEV\ENGINE\DRAGONGAME\EVENTSYSTEM\RELEASE\EVENTSYSTEM.PDB
^H:\AGAMEDEV\ENGINE\DRAGONGAME\EVENTSYSTEM\LOADGAMEVARIABLESEVENT.CPP
H:\AGAMEDEV\ENGINE\DRAGONGAME\EVENTSYSTEM\RELEASE\EVENTSYSTEM.PDB
^H:\AGAMEDEV\ENGINE\DRAGONGAME\EVENTSYSTEM\LOADLEVELEVENT.CPP
H:\AGAMEDEV\ENGINE\DRAGONGAME\EVENTSYSTEM\RELEASE\EVENTSYSTEM.PDB
^H:\AGAMEDEV\ENGINE\DRAGONGAME\EVENTSYSTEM\RELOADLEVELEVENT.CPP
H:\AGAMEDEV\ENGINE\DRAGONGAME\EVENTSYSTEM\RELEASE\EVENTSYSTEM.PDB
^H:\AGAMEDEV\ENGINE\DRAGONGAME\EVENTSYSTEM\RESTARTGAMEEVENT.CPP
H:\AGAMEDEV\ENGINE\DRAGONGAME\EVENTSYSTEM\RELEASE\EVENTSYSTEM.PDB
^H:\AGAMEDEV\ENGINE\DRAGONGAME\EVENTSYSTEM\ROTATEEVENT.CPP
H:\AGAMEDEV\ENGINE\DRAGONGAME\EVENTSYSTEM\RELEASE\EVENTSYSTEM.PDB
^H:\AGAMEDEV\ENGINE\DRAGONGAME\EVENTSYSTEM\SCOREINCREASEEVENT.CPP
H:\AGAMEDEV\ENGINE\DRAGONGAME\EVENTSYSTEM\RELEASE\EVENTSYSTEM.PDB
^H:\AGAMEDEV\ENGINE\DRAGONGAME\EVENTSYSTEM\SETHITPOINTSTEXTEVENT.CPP
H:\AGAMEDEV\ENGINE\DRAGONGAME\EVENTSYSTEM\RELEASE\EVENTSYSTEM.PDB
^H:\AGAMEDEV\ENGINE\DRAGONGAME\EVENTSYSTEM\SETSCORETEXTEVENT.CPP
H:\AGAMEDEV\ENGINE\DRAGONGAME\EVENTSYSTEM\RELEASE\EVENTSYSTEM.PDB
^H:\AGAMEDEV\ENGINE\DRAGONGAME\EVENTSYSTEM\SHUTDOWNEVENT.CPP
H:\AGAMEDEV\ENGINE\DRAGONGAME\EVENTSYSTEM\RELEASE\EVENTSYSTEM.PDB
^H:\AGAMEDEV\ENGINE\DRAGONGAME\EVENTSYSTEM\SPAWNPLAYER.CPP
H:\AGAMEDEV\ENGINE\DRAGONGAME\EVENTSYSTEM\RELEASE\EVENTSYSTEM.PDB
^H:\AGAMEDEV\ENGINE\DRAGONGAME\EVENTSYSTEM\JUMPEVENT.CPP
H:\AGAMEDEV\ENGINE\DRAGONGAME\EVENTSYSTEM\RELEASE\EVENTSYSTEM.PDB
^H:\AGAMEDEV\ENGINE\DRAGONGAME\EVENTSYSTEM\MOVEEVENT.CPP
H:\AGAMEDEV\ENGINE\DRAGONGAME\EVENTSYSTEM\RELEASE\EVENTSYSTEM.PDB
^H:\AGAMEDEV\ENGINE\DRAGONGAME\EVENTSYSTEM\SOUNDEVENT.CPP
H:\AGAMEDEV\ENGINE\DRAGONGAME\EVENTSYSTEM\RELEASE\EVENTSYSTEM.PDB
^H:\AGAMEDEV\ENGINE\DRAGONGAME\EVENTSYSTEM\SPAWNEVENT.CPP
H:\AGAMEDEV\ENGINE\DRAGONGAME\EVENTSYSTEM\RELEASE\EVENTSYSTEM.PDB
^H:\AGAMEDEV\ENGINE\DRAGONGAME\EVENTSYSTEM\SUBSYSTEM.CPP
H:\AGAMEDEV\ENGINE\DRAGONGAME\EVENTSYSTEM\RELEASE\EVENTSYSTEM.PDB
^H:\AGAMEDEV\ENGINE\DRAGONGAME\EVENTSYSTEM\TIMEEVENT.CPP
H:\AGAMEDEV\ENGINE\DRAGONGAME\EVENTSYSTEM\RELEASE\EVENTSYSTEM.PDB
^H:\AGAMEDEV\ENGINE\DRAGONGAME\EVENTSYSTEM\TOGGLEPROFILEREVENT.CPP
H:\AGAMEDEV\ENGINE\DRAGONGAME\EVENTSYSTEM\RELEASE\EVENTSYSTEM.PDB
^H:\AGAMEDEV\ENGINE\DRAGONGAME\EVENTSYSTEM\UNLOADLEVELEVENT.CPP
H:\AGAMEDEV\ENGINE\DRAGONGAME\EVENTSYSTEM\RELEASE\EVENTSYSTEM.PDB
^C:\USERS\B4044959\DOCUMENTS\PORTFOLIO\PORTFOLIO\GAME ENGINE\DRAGONGAME\EVENTSYSTEM\DAMAGEPLAYEREVENT.CPP|C:\USERS\B4044959\DOCUMENTS\PORTFOLIO\PORTFOLIO\GAME ENGINE\DRAGONGAME\EVENTSYSTEM\DESTROYEVENT.CPP|C:\USERS\B4044959\DOCUMENTS\PORTFOLIO\PORTFOLIO\GAME ENGINE\DRAGONGAME\EVENTSYSTEM\EVENT.CPP|C:\USERS\B4044959\DOCUMENTS\PORTFOLIO\PORTFOLIO\GAME ENGINE\DRAGONGAME\EVENTSYSTEM\EVENTSYSTEM.CPP|C:\USERS\B4044959\DOCUMENTS\PORTFOLIO\PORTFOLIO\GAME ENGINE\DRAGONGAME\EVENTSYSTEM\GAMEOVEREVENT.CPP|C:\USERS\B4044959\DOCUMENTS\PORTFOLIO\PORTFOLIO\GAME ENGINE\DRAGONGAME\EVENTSYSTEM\GAMEWONEVENT.CPP|C:\USERS\B4044959\DOCUMENTS\PORTFOLIO\PORTFOLIO\GAME ENGINE\DRAGONGAME\EVENTSYSTEM\JUMPEVENT.CPP|C:\USERS\B4044959\DOCUMENTS\PORTFOLIO\PORTFOLIO\GAME ENGINE\DRAGONGAME\EVENTSYSTEM\LOADGAMEVARIABLESEVENT.CPP|C:\USERS\B4044959\DOCUMENTS\PORTFOLIO\PORTFOLIO\GAME ENGINE\DRAGONGAME\EVENTSYSTEM\LOADLEVELEVENT.CPP|C:\USERS\B4044959\DOCUMENTS\PORTFOLIO\PORTFOLIO\GAME ENGINE\DRAGONGAME\EVENTSYSTEM\MOVEEVENT.CPP|C:\USERS\B4044959\DOCUMENTS\PORTFOLIO\PORTFOLIO\GAME ENGINE\DRAGONGAME\EVENTSYSTEM\RELOADLEVELEVENT.CPP|C:\USERS\B4044959\DOCUMENTS\PORTFOLIO\PORTFOLIO\GAME ENGINE\DRAGONGAME\EVENTSYSTEM\RESTARTGAMEEVENT.CPP|C:\USERS\B4044959\DOCUMENTS\PORTFOLIO\PORTFOLIO\GAME ENGINE\DRAGONGAME\EVENTSYSTEM\ROTATEEVENT.CPP|C:\USERS\B4044959\DOCUMENTS\PORTFOLIO\PORTFOLIO\GAME ENGINE\DRAGONGAME\EVENTSYSTEM\SCOREINCREASEEVENT.CPP|C:\USERS\B4044959\DOCUMENTS\PORTFOLIO\PORTFOLIO\GAME ENGINE\DRAGONGAME\EVENTSYSTEM\SETHITPOINTSTEXTEVENT.CPP|C:\USERS\B4044959\DOCUMENTS\PORTFOLIO\PORTFOLIO\GAME ENGINE\DRAGONGAME\EVENTSYSTEM\SETSCORETEXTEVENT.CPP|C:\USERS\B4044959\DOCUMENTS\PORTFOLIO\PORTFOLIO\GAME ENGINE\DRAGONGAME\EVENTSYSTEM\SHUTDOWNEVENT.CPP|C:\USERS\B4044959\DOCUMENTS\PORTFOLIO\PORTFOLIO\GAME ENGINE\DRAGONGAME\EVENTSYSTEM\SOUNDEVENT.CPP|C:\USERS\B4044959\DOCUMENTS\PORTFOLIO\PORTFOLIO\GAME ENGINE\DRAGONGAME\EVENTSYSTEM\SPAWNEVENT.CPP|C:\USERS\B4044959\DOCUMENTS\PORTFOLIO\PORTFOLIO\GAME ENGINE\DRAGONGAME\EVENTSYSTEM\SPAWNPLAYER.CPP|C:\USERS\B4044959\DOCUMENTS\PORTFOLIO\PORTFOLIO\GAME ENGINE\DRAGONGAME\EVENTSYSTEM\SUBSYSTEM.CPP|C:\USERS\B4044959\DOCUMENTS\PORTFOLIO\PORTFOLIO\GAME ENGINE\DRAGONGAME\EVENTSYSTEM\TIMEEVENT.CPP|C:\USERS\B4044959\DOCUMENTS\PORTFOLIO\PORTFOLIO\GAME ENGINE\DRAGONGAME\EVENTSYSTEM\TOGGLEPROFILEREVENT.CPP|C:\USERS\B4044959\DOCUMENTS\PORTFOLIO\PORTFOLIO\GAME ENGINE\DRAGONGAME\EVENTSYSTEM\UNLOADLEVELEVENT.CPP
C:\USERS\B4044959\DOCUMENTS\PORTFOLIO\PORTFOLIO\GAME ENGINE\DRAGONGAME\EVENTSYSTEM\RELEASE\EVENTSYSTEM.PDB
C:\USERS\B4044959\DOCUMENTS\PORTFOLIO\PORTFOLIO\GAME ENGINE\DRAGONGAME\EVENTSYSTEM\RELEASE\SPAWNEVENT.OBJ
C:\USERS\B4044959\DOCUMENTS\PORTFOLIO\PORTFOLIO\GAME ENGINE\DRAGONGAME\EVENTSYSTEM\RELEASE\SOUNDEVENT.OBJ
C:\USERS\B4044959\DOCUMENTS\PORTFOLIO\PORTFOLIO\GAME ENGINE\DRAGONGAME\EVENTSYSTEM\RELEASE\MOVEEVENT.OBJ
C:\USERS\B4044959\DOCUMENTS\PORTFOLIO\PORTFOLIO\GAME ENGINE\DRAGONGAME\EVENTSYSTEM\RELEASE\JUMPEVENT.OBJ
C:\USERS\B4044959\DOCUMENTS\PORTFOLIO\PORTFOLIO\GAME ENGINE\DRAGONGAME\EVENTSYSTEM\RELEASE\SPAWNPLAYER.OBJ
C:\USERS\B4044959\DOCUMENTS\PORTFOLIO\PORTFOLIO\GAME ENGINE\DRAGONGAME\EVENTSYSTEM\RELEASE\SHUTDOWNEVENT.OBJ
C:\USERS\B4044959\DOCUMENTS\PORTFOLIO\PORTFOLIO\GAME ENGINE\DRAGONGAME\EVENTSYSTEM\RELEASE\SETSCORETEXTEVENT.OBJ
C:\USERS\B4044959\DOCUMENTS\PORTFOLIO\PORTFOLIO\GAME ENGINE\DRAGONGAME\EVENTSYSTEM\RELEASE\SETHITPOINTSTEXTEVENT.OBJ
C:\USERS\B4044959\DOCUMENTS\PORTFOLIO\PORTFOLIO\GAME ENGINE\DRAGONGAME\EVENTSYSTEM\RELEASE\SCOREINCREASEEVENT.OBJ
C:\USERS\B4044959\DOCUMENTS\PORTFOLIO\PORTFOLIO\GAME ENGINE\DRAGONGAME\EVENTSYSTEM\RELEASE\ROTATEEVENT.OBJ
C:\USERS\B4044959\DOCUMENTS\PORTFOLIO\PORTFOLIO\GAME ENGINE\DRAGONGAME\EVENTSYSTEM\RELEASE\RESTARTGAMEEVENT.OBJ
C:\USERS\B4044959\DOCUMENTS\PORTFOLIO\PORTFOLIO\GAME ENGINE\DRAGONGAME\EVENTSYSTEM\RELEASE\RELOADLEVELEVENT.OBJ
C:\USERS\B4044959\DOCUMENTS\PORTFOLIO\PORTFOLIO\GAME ENGINE\DRAGONGAME\EVENTSYSTEM\RELEASE\LOADLEVELEVENT.OBJ
C:\USERS\B4044959\DOCUMENTS\PORTFOLIO\PORTFOLIO\GAME ENGINE\DRAGONGAME\EVENTSYSTEM\RELEASE\LOADGAMEVARIABLESEVENT.OBJ
C:\USERS\B4044959\DOCUMENTS\PORTFOLIO\PORTFOLIO\GAME ENGINE\DRAGONGAME\EVENTSYSTEM\RELEASE\GAMEWONEVENT.OBJ
C:\USERS\B4044959\DOCUMENTS\PORTFOLIO\PORTFOLIO\GAME ENGINE\DRAGONGAME\EVENTSYSTEM\RELEASE\GAMEOVEREVENT.OBJ
C:\USERS\B4044959\DOCUMENTS\PORTFOLIO\PORTFOLIO\GAME ENGINE\DRAGONGAME\EVENTSYSTEM\RELEASE\EVENTSYSTEM.OBJ
C:\USERS\B4044959\DOCUMENTS\PORTFOLIO\PORTFOLIO\GAME ENGINE\DRAGONGAME\EVENTSYSTEM\RELEASE\EVENT.OBJ
C:\USERS\B4044959\DOCUMENTS\PORTFOLIO\PORTFOLIO\GAME ENGINE\DRAGONGAME\EVENTSYSTEM\RELEASE\DESTROYEVENT.OBJ
C:\USERS\B4044959\DOCUMENTS\PORTFOLIO\PORTFOLIO\GAME ENGINE\DRAGONGAME\EVENTSYSTEM\RELEASE\DAMAGEPLAYEREVENT.OBJ
C:\USERS\B4044959\DOCUMENTS\PORTFOLIO\PORTFOLIO\GAME ENGINE\DRAGONGAME\EVENTSYSTEM\RELEASE\UNLOADLEVELEVENT.OBJ
C:\USERS\B4044959\DOCUMENTS\PORTFOLIO\PORTFOLIO\GAME ENGINE\DRAGONGAME\EVENTSYSTEM\RELEASE\TOGGLEPROFILEREVENT.OBJ
C:\USERS\B4044959\DOCUMENTS\PORTFOLIO\PORTFOLIO\GAME ENGINE\DRAGONGAME\EVENTSYSTEM\RELEASE\TIMEEVENT.OBJ
C:\USERS\B4044959\DOCUMENTS\PORTFOLIO\PORTFOLIO\GAME ENGINE\DRAGONGAME\EVENTSYSTEM\RELEASE\SUBSYSTEM.OBJ
^C:\USERS\B4044959\DOCUMENTS\PORTFOLIO\PORTFOLIO\GAME ENGINE\DRAGONGAME\EVENTSYSTEM\DAMAGEPLAYEREVENT.CPP
C:\USERS\B4044959\DOCUMENTS\PORTFOLIO\PORTFOLIO\GAME ENGINE\DRAGONGAME\EVENTSYSTEM\RELEASE\EVENTSYSTEM.PDB
^C:\USERS\B4044959\DOCUMENTS\PORTFOLIO\PORTFOLIO\GAME ENGINE\DRAGONGAME\EVENTSYSTEM\DESTROYEVENT.CPP
C:\USERS\B4044959\DOCUMENTS\PORTFOLIO\PORTFOLIO\GAME ENGINE\DRAGONGAME\EVENTSYSTEM\RELEASE\EVENTSYSTEM.PDB
^C:\USERS\B4044959\DOCUMENTS\PORTFOLIO\PORTFOLIO\GAME ENGINE\DRAGONGAME\EVENTSYSTEM\EVENT.CPP
C:\USERS\B4044959\DOCUMENTS\PORTFOLIO\PORTFOLIO\GAME ENGINE\DRAGONGAME\EVENTSYSTEM\RELEASE\EVENTSYSTEM.PDB
^C:\USERS\B4044959\DOCUMENTS\PORTFOLIO\PORTFOLIO\GAME ENGINE\DRAGONGAME\EVENTSYSTEM\EVENTSYSTEM.CPP
C:\USERS\B4044959\DOCUMENTS\PORTFOLIO\PORTFOLIO\GAME ENGINE\DRAGONGAME\EVENTSYSTEM\RELEASE\EVENTSYSTEM.PDB
^C:\USERS\B4044959\DOCUMENTS\PORTFOLIO\PORTFOLIO\GAME ENGINE\DRAGONGAME\EVENTSYSTEM\GAMEOVEREVENT.CPP
C:\USERS\B4044959\DOCUMENTS\PORTFOLIO\PORTFOLIO\GAME ENGINE\DRAGONGAME\EVENTSYSTEM\RELEASE\EVENTSYSTEM.PDB
^C:\USERS\B4044959\DOCUMENTS\PORTFOLIO\PORTFOLIO\GAME ENGINE\DRAGONGAME\EVENTSYSTEM\GAMEWONEVENT.CPP
C:\USERS\B4044959\DOCUMENTS\PORTFOLIO\PORTFOLIO\GAME ENGINE\DRAGONGAME\EVENTSYSTEM\RELEASE\EVENTSYSTEM.PDB
^C:\USERS\B4044959\DOCUMENTS\PORTFOLIO\PORTFOLIO\GAME ENGINE\DRAGONGAME\EVENTSYSTEM\LOADGAMEVARIABLESEVENT.CPP
C:\USERS\B4044959\DOCUMENTS\PORTFOLIO\PORTFOLIO\GAME ENGINE\DRAGONGAME\EVENTSYSTEM\RELEASE\EVENTSYSTEM.PDB
^C:\USERS\B4044959\DOCUMENTS\PORTFOLIO\PORTFOLIO\GAME ENGINE\DRAGONGAME\EVENTSYSTEM\LOADLEVELEVENT.CPP
C:\USERS\B4044959\DOCUMENTS\PORTFOLIO\PORTFOLIO\GAME ENGINE\DRAGONGAME\EVENTSYSTEM\RELEASE\EVENTSYSTEM.PDB
^C:\USERS\B4044959\DOCUMENTS\PORTFOLIO\PORTFOLIO\GAME ENGINE\DRAGONGAME\EVENTSYSTEM\RELOADLEVELEVENT.CPP
C:\USERS\B4044959\DOCUMENTS\PORTFOLIO\PORTFOLIO\GAME ENGINE\DRAGONGAME\EVENTSYSTEM\RELEASE\EVENTSYSTEM.PDB
^C:\USERS\B4044959\DOCUMENTS\PORTFOLIO\PORTFOLIO\GAME ENGINE\DRAGONGAME\EVENTSYSTEM\RESTARTGAMEEVENT.CPP
C:\USERS\B4044959\DOCUMENTS\PORTFOLIO\PORTFOLIO\GAME ENGINE\DRAGONGAME\EVENTSYSTEM\RELEASE\EVENTSYSTEM.PDB
^C:\USERS\B4044959\DOCUMENTS\PORTFOLIO\PORTFOLIO\GAME ENGINE\DRAGONGAME\EVENTSYSTEM\ROTATEEVENT.CPP
C:\USERS\B4044959\DOCUMENTS\PORTFOLIO\PORTFOLIO\GAME ENGINE\DRAGONGAME\EVENTSYSTEM\RELEASE\EVENTSYSTEM.PDB
^C:\USERS\B4044959\DOCUMENTS\PORTFOLIO\PORTFOLIO\GAME ENGINE\DRAGONGAME\EVENTSYSTEM\SCOREINCREASEEVENT.CPP
C:\USERS\B4044959\DOCUMENTS\PORTFOLIO\PORTFOLIO\GAME ENGINE\DRAGONGAME\EVENTSYSTEM\RELEASE\EVENTSYSTEM.PDB
^C:\USERS\B4044959\DOCUMENTS\PORTFOLIO\PORTFOLIO\GAME ENGINE\DRAGONGAME\EVENTSYSTEM\SETHITPOINTSTEXTEVENT.CPP
C:\USERS\B4044959\DOCUMENTS\PORTFOLIO\PORTFOLIO\GAME ENGINE\DRAGONGAME\EVENTSYSTEM\RELEASE\EVENTSYSTEM.PDB
^C:\USERS\B4044959\DOCUMENTS\PORTFOLIO\PORTFOLIO\GAME ENGINE\DRAGONGAME\EVENTSYSTEM\SETSCORETEXTEVENT.CPP
C:\USERS\B4044959\DOCUMENTS\PORTFOLIO\PORTFOLIO\GAME ENGINE\DRAGONGAME\EVENTSYSTEM\RELEASE\EVENTSYSTEM.PDB
^C:\USERS\B4044959\DOCUMENTS\PORTFOLIO\PORTFOLIO\GAME ENGINE\DRAGONGAME\EVENTSYSTEM\SHUTDOWNEVENT.CPP
C:\USERS\B4044959\DOCUMENTS\PORTFOLIO\PORTFOLIO\GAME ENGINE\DRAGONGAME\EVENTSYSTEM\RELEASE\EVENTSYSTEM.PDB
^C:\USERS\B4044959\DOCUMENTS\PORTFOLIO\PORTFOLIO\GAME ENGINE\DRAGONGAME\EVENTSYSTEM\SPAWNPLAYER.CPP
C:\USERS\B4044959\DOCUMENTS\PORTFOLIO\PORTFOLIO\GAME ENGINE\DRAGONGAME\EVENTSYSTEM\RELEASE\EVENTSYSTEM.PDB
^C:\USERS\B4044959\DOCUMENTS\PORTFOLIO\PORTFOLIO\GAME ENGINE\DRAGONGAME\EVENTSYSTEM\JUMPEVENT.CPP
C:\USERS\B4044959\DOCUMENTS\PORTFOLIO\PORTFOLIO\GAME ENGINE\DRAGONGAME\EVENTSYSTEM\RELEASE\EVENTSYSTEM.PDB
^C:\USERS\B4044959\DOCUMENTS\PORTFOLIO\PORTFOLIO\GAME ENGINE\DRAGONGAME\EVENTSYSTEM\MOVEEVENT.CPP
C:\USERS\B4044959\DOCUMENTS\PORTFOLIO\PORTFOLIO\GAME ENGINE\DRAGONGAME\EVENTSYSTEM\RELEASE\EVENTSYSTEM.PDB
^C:\USERS\B4044959\DOCUMENTS\PORTFOLIO\PORTFOLIO\GAME ENGINE\DRAGONGAME\EVENTSYSTEM\SOUNDEVENT.CPP
C:\USERS\B4044959\DOCUMENTS\PORTFOLIO\PORTFOLIO\GAME ENGINE\DRAGONGAME\EVENTSYSTEM\RELEASE\EVENTSYSTEM.PDB
^C:\USERS\B4044959\DOCUMENTS\PORTFOLIO\PORTFOLIO\GAME ENGINE\DRAGONGAME\EVENTSYSTEM\SPAWNEVENT.CPP
C:\USERS\B4044959\DOCUMENTS\PORTFOLIO\PORTFOLIO\GAME ENGINE\DRAGONGAME\EVENTSYSTEM\RELEASE\EVENTSYSTEM.PDB
^C:\USERS\B4044959\DOCUMENTS\PORTFOLIO\PORTFOLIO\GAME ENGINE\DRAGONGAME\EVENTSYSTEM\SUBSYSTEM.CPP
C:\USERS\B4044959\DOCUMENTS\PORTFOLIO\PORTFOLIO\GAME ENGINE\DRAGONGAME\EVENTSYSTEM\RELEASE\EVENTSYSTEM.PDB
^C:\USERS\B4044959\DOCUMENTS\PORTFOLIO\PORTFOLIO\GAME ENGINE\DRAGONGAME\EVENTSYSTEM\TIMEEVENT.CPP
C:\USERS\B4044959\DOCUMENTS\PORTFOLIO\PORTFOLIO\GAME ENGINE\DRAGONGAME\EVENTSYSTEM\RELEASE\EVENTSYSTEM.PDB
^C:\USERS\B4044959\DOCUMENTS\PORTFOLIO\PORTFOLIO\GAME ENGINE\DRAGONGAME\EVENTSYSTEM\TOGGLEPROFILEREVENT.CPP
C:\USERS\B4044959\DOCUMENTS\PORTFOLIO\PORTFOLIO\GAME ENGINE\DRAGONGAME\EVENTSYSTEM\RELEASE\EVENTSYSTEM.PDB
^C:\USERS\B4044959\DOCUMENTS\PORTFOLIO\PORTFOLIO\GAME ENGINE\DRAGONGAME\EVENTSYSTEM\UNLOADLEVELEVENT.CPP
C:\USERS\B4044959\DOCUMENTS\PORTFOLIO\PORTFOLIO\GAME ENGINE\DRAGONGAME\EVENTSYSTEM\RELEASE\EVENTSYSTEM.PDB
