^H:\AGAMEDEV\ENGINE\DRAGONGAME\EVENTSYSTEM\RELEASE\DAMAGEPLAYEREVENT.OBJ|H:\AGAMEDEV\ENGINE\DRAGONGAME\EVENTSYSTEM\RELEASE\DESTROYEVENT.OBJ|H:\AGAMEDEV\ENGINE\DRAGONGAME\EVENTSYSTEM\RELEASE\EVENT.OBJ|H:\AGAMEDEV\ENGINE\DRAGONGAME\EVENTSYSTEM\RELEASE\EVENTSYSTEM.OBJ|H:\AGAMEDEV\ENGINE\DRAGONGAME\EVENTSYSTEM\RELEASE\GAMEOVEREVENT.OBJ|H:\AGAMEDEV\ENGINE\DRAGONGAME\EVENTSYSTEM\RELEASE\GAMEWONEVENT.OBJ|H:\AGAMEDEV\ENGINE\DRAGONGAME\EVENTSYSTEM\RELEASE\JUMPEVENT.OBJ|H:\AGAMEDEV\ENGINE\DRAGONGAME\EVENTSYSTEM\RELEASE\LOADGAMEVARIABLESEVENT.OBJ|H:\AGAMEDEV\ENGINE\DRAGONGAME\EVENTSYSTEM\RELEASE\LOADLEVELEVENT.OBJ|H:\AGAMEDEV\ENGINE\DRAGONGAME\EVENTSYSTEM\RELEASE\MOVEEVENT.OBJ|H:\AGAMEDEV\ENGINE\DRAGONGAME\EVENTSYSTEM\RELEASE\RELOADLEVELEVENT.OBJ|H:\AGAMEDEV\ENGINE\DRAGONGAME\EVENTSYSTEM\RELEASE\RESTARTGAMEEVENT.OBJ|H:\AGAMEDEV\ENGINE\DRAGONGAME\EVENTSYSTEM\RELEASE\ROTATEEVENT.OBJ|H:\AGAMEDEV\ENGINE\DRAGONGAME\EVENTSYSTEM\RELEASE\SCOREINCREASEEVENT.OBJ|H:\AGAMEDEV\ENGINE\DRAGONGAME\EVENTSYSTEM\RELEASE\SETHITPOINTSTEXTEVENT.OBJ|H:\AGAMEDEV\ENGINE\DRAGONGAME\EVENTSYSTEM\RELEASE\SETSCORETEXTEVENT.OBJ|H:\AGAMEDEV\ENGINE\DRAGONGAME\EVENTSYSTEM\RELEASE\SHUTDOWNEVENT.OBJ|H:\AGAMEDEV\ENGINE\DRAGONGAME\EVENTSYSTEM\RELEASE\SOUNDEVENT.OBJ|H:\AGAMEDEV\ENGINE\DRAGONGAME\EVENTSYSTEM\RELEASE\SPAWNEVENT.OBJ|H:\AGAMEDEV\ENGINE\DRAGONGAME\EVENTSYSTEM\RELEASE\SPAWNPLAYER.OBJ|H:\AGAMEDEV\ENGINE\DRAGONGAME\EVENTSYSTEM\RELEASE\SUBSYSTEM.OBJ|H:\AGAMEDEV\ENGINE\DRAGONGAME\EVENTSYSTEM\RELEASE\TIMEEVENT.OBJ|H:\AGAMEDEV\ENGINE\DRAGONGAME\EVENTSYSTEM\RELEASE\TOGGLEPROFILEREVENT.OBJ|H:\AGAMEDEV\ENGINE\DRAGONGAME\EVENTSYSTEM\RELEASE\UNLOADLEVELEVENT.OBJ
C:\WINDOWS\GLOBALIZATION\SORTING\SORTDEFAULT.NLS
H:\AGAMEDEV\ENGINE\DRAGONGAME\EVENTSYSTEM\RELEASE\DAMAGEPLAYEREVENT.OBJ
C:\WINDOWS\SYSTEM32\TZRES.DLL
H:\AGAMEDEV\ENGINE\DRAGONGAME\EVENTSYSTEM\RELEASE\DESTROYEVENT.OBJ
H:\AGAMEDEV\ENGINE\DRAGONGAME\EVENTSYSTEM\RELEASE\EVENT.OBJ
H:\AGAMEDEV\ENGINE\DRAGONGAME\EVENTSYSTEM\RELEASE\EVENTSYSTEM.OBJ
H:\AGAMEDEV\ENGINE\DRAGONGAME\EVENTSYSTEM\RELEASE\GAMEOVEREVENT.OBJ
H:\AGAMEDEV\ENGINE\DRAGONGAME\EVENTSYSTEM\RELEASE\GAMEWONEVENT.OBJ
H:\AGAMEDEV\ENGINE\DRAGONGAME\EVENTSYSTEM\RELEASE\LOADGAMEVARIABLESEVENT.OBJ
H:\AGAMEDEV\ENGINE\DRAGONGAME\EVENTSYSTEM\RELEASE\LOADLEVELEVENT.OBJ
H:\AGAMEDEV\ENGINE\DRAGONGAME\EVENTSYSTEM\RELEASE\RELOADLEVELEVENT.OBJ
H:\AGAMEDEV\ENGINE\DRAGONGAME\EVENTSYSTEM\RELEASE\RESTARTGAMEEVENT.OBJ
H:\AGAMEDEV\ENGINE\DRAGONGAME\EVENTSYSTEM\RELEASE\ROTATEEVENT.OBJ
H:\AGAMEDEV\ENGINE\DRAGONGAME\EVENTSYSTEM\RELEASE\SCOREINCREASEEVENT.OBJ
H:\AGAMEDEV\ENGINE\DRAGONGAME\EVENTSYSTEM\RELEASE\SETHITPOINTSTEXTEVENT.OBJ
H:\AGAMEDEV\ENGINE\DRAGONGAME\EVENTSYSTEM\RELEASE\SETSCORETEXTEVENT.OBJ
H:\AGAMEDEV\ENGINE\DRAGONGAME\EVENTSYSTEM\RELEASE\SHUTDOWNEVENT.OBJ
H:\AGAMEDEV\ENGINE\DRAGONGAME\EVENTSYSTEM\RELEASE\SPAWNPLAYER.OBJ
H:\AGAMEDEV\ENGINE\DRAGONGAME\EVENTSYSTEM\RELEASE\JUMPEVENT.OBJ
H:\AGAMEDEV\ENGINE\DRAGONGAME\EVENTSYSTEM\RELEASE\MOVEEVENT.OBJ
H:\AGAMEDEV\ENGINE\DRAGONGAME\EVENTSYSTEM\RELEASE\SOUNDEVENT.OBJ
H:\AGAMEDEV\ENGINE\DRAGONGAME\EVENTSYSTEM\RELEASE\SPAWNEVENT.OBJ
H:\AGAMEDEV\ENGINE\DRAGONGAME\EVENTSYSTEM\RELEASE\SUBSYSTEM.OBJ
H:\AGAMEDEV\ENGINE\DRAGONGAME\EVENTSYSTEM\RELEASE\TIMEEVENT.OBJ
H:\AGAMEDEV\ENGINE\DRAGONGAME\EVENTSYSTEM\RELEASE\TOGGLEPROFILEREVENT.OBJ
H:\AGAMEDEV\ENGINE\DRAGONGAME\EVENTSYSTEM\RELEASE\UNLOADLEVELEVENT.OBJ
^C:\USERS\B4044959\DOCUMENTS\PORTFOLIO\PORTFOLIO\GAME ENGINE\DRAGONGAME\EVENTSYSTEM\RELEASE\DAMAGEPLAYEREVENT.OBJ|C:\USERS\B4044959\DOCUMENTS\PORTFOLIO\PORTFOLIO\GAME ENGINE\DRAGONGAME\EVENTSYSTEM\RELEASE\DESTROYEVENT.OBJ|C:\USERS\B4044959\DOCUMENTS\PORTFOLIO\PORTFOLIO\GAME ENGINE\DRAGONGAME\EVENTSYSTEM\RELEASE\EVENT.OBJ|C:\USERS\B4044959\DOCUMENTS\PORTFOLIO\PORTFOLIO\GAME ENGINE\DRAGONGAME\EVENTSYSTEM\RELEASE\EVENTSYSTEM.OBJ|C:\USERS\B4044959\DOCUMENTS\PORTFOLIO\PORTFOLIO\GAME ENGINE\DRAGONGAME\EVENTSYSTEM\RELEASE\GAMEOVEREVENT.OBJ|C:\USERS\B4044959\DOCUMENTS\PORTFOLIO\PORTFOLIO\GAME ENGINE\DRAGONGAME\EVENTSYSTEM\RELEASE\GAMEWONEVENT.OBJ|C:\USERS\B4044959\DOCUMENTS\PORTFOLIO\PORTFOLIO\GAME ENGINE\DRAGONGAME\EVENTSYSTEM\RELEASE\JUMPEVENT.OBJ|C:\USERS\B4044959\DOCUMENTS\PORTFOLIO\PORTFOLIO\GAME ENGINE\DRAGONGAME\EVENTSYSTEM\RELEASE\LOADGAMEVARIABLESEVENT.OBJ|C:\USERS\B4044959\DOCUMENTS\PORTFOLIO\PORTFOLIO\GAME ENGINE\DRAGONGAME\EVENTSYSTEM\RELEASE\LOADLEVELEVENT.OBJ|C:\USERS\B4044959\DOCUMENTS\PORTFOLIO\PORTFOLIO\GAME ENGINE\DRAGONGAME\EVENTSYSTEM\RELEASE\MOVEEVENT.OBJ|C:\USERS\B4044959\DOCUMENTS\PORTFOLIO\PORTFOLIO\GAME ENGINE\DRAGONGAME\EVENTSYSTEM\RELEASE\RELOADLEVELEVENT.OBJ|C:\USERS\B4044959\DOCUMENTS\PORTFOLIO\PORTFOLIO\GAME ENGINE\DRAGONGAME\EVENTSYSTEM\RELEASE\RESTARTGAMEEVENT.OBJ|C:\USERS\B4044959\DOCUMENTS\PORTFOLIO\PORTFOLIO\GAME ENGINE\DRAGONGAME\EVENTSYSTEM\RELEASE\ROTATEEVENT.OBJ|C:\USERS\B4044959\DOCUMENTS\PORTFOLIO\PORTFOLIO\GAME ENGINE\DRAGONGAME\EVENTSYSTEM\RELEASE\SCOREINCREASEEVENT.OBJ|C:\USERS\B4044959\DOCUMENTS\PORTFOLIO\PORTFOLIO\GAME ENGINE\DRAGONGAME\EVENTSYSTEM\RELEASE\SETHITPOINTSTEXTEVENT.OBJ|C:\USERS\B4044959\DOCUMENTS\PORTFOLIO\PORTFOLIO\GAME ENGINE\DRAGONGAME\EVENTSYSTEM\RELEASE\SETSCORETEXTEVENT.OBJ|C:\USERS\B4044959\DOCUMENTS\PORTFOLIO\PORTFOLIO\GAME ENGINE\DRAGONGAME\EVENTSYSTEM\RELEASE\SHUTDOWNEVENT.OBJ|C:\USERS\B4044959\DOCUMENTS\PORTFOLIO\PORTFOLIO\GAME ENGINE\DRAGONGAME\EVENTSYSTEM\RELEASE\SOUNDEVENT.OBJ|C:\USERS\B4044959\DOCUMENTS\PORTFOLIO\PORTFOLIO\GAME ENGINE\DRAGONGAME\EVENTSYSTEM\RELEASE\SPAWNEVENT.OBJ|C:\USERS\B4044959\DOCUMENTS\PORTFOLIO\PORTFOLIO\GAME ENGINE\DRAGONGAME\EVENTSYSTEM\RELEASE\SPAWNPLAYER.OBJ|C:\USERS\B4044959\DOCUMENTS\PORTFOLIO\PORTFOLIO\GAME ENGINE\DRAGONGAME\EVENTSYSTEM\RELEASE\SUBSYSTEM.OBJ|C:\USERS\B4044959\DOCUMENTS\PORTFOLIO\PORTFOLIO\GAME ENGINE\DRAGONGAME\EVENTSYSTEM\RELEASE\TIMEEVENT.OBJ|C:\USERS\B4044959\DOCUMENTS\PORTFOLIO\PORTFOLIO\GAME ENGINE\DRAGONGAME\EVENTSYSTEM\RELEASE\TOGGLEPROFILEREVENT.OBJ|C:\USERS\B4044959\DOCUMENTS\PORTFOLIO\PORTFOLIO\GAME ENGINE\DRAGONGAME\EVENTSYSTEM\RELEASE\UNLOADLEVELEVENT.OBJ
C:\WINDOWS\GLOBALIZATION\SORTING\SORTDEFAULT.NLS
C:\USERS\B4044959\DOCUMENTS\PORTFOLIO\PORTFOLIO\GAME ENGINE\DRAGONGAME\EVENTSYSTEM\RELEASE\DAMAGEPLAYEREVENT.OBJ
C:\WINDOWS\SYSTEM32\TZRES.DLL
C:\USERS\B4044959\DOCUMENTS\PORTFOLIO\PORTFOLIO\GAME ENGINE\DRAGONGAME\EVENTSYSTEM\RELEASE\DESTROYEVENT.OBJ
C:\USERS\B4044959\DOCUMENTS\PORTFOLIO\PORTFOLIO\GAME ENGINE\DRAGONGAME\EVENTSYSTEM\RELEASE\EVENT.OBJ
C:\USERS\B4044959\DOCUMENTS\PORTFOLIO\PORTFOLIO\GAME ENGINE\DRAGONGAME\EVENTSYSTEM\RELEASE\EVENTSYSTEM.OBJ
C:\USERS\B4044959\DOCUMENTS\PORTFOLIO\PORTFOLIO\GAME ENGINE\DRAGONGAME\EVENTSYSTEM\RELEASE\GAMEOVEREVENT.OBJ
C:\USERS\B4044959\DOCUMENTS\PORTFOLIO\PORTFOLIO\GAME ENGINE\DRAGONGAME\EVENTSYSTEM\RELEASE\GAMEWONEVENT.OBJ
C:\USERS\B4044959\DOCUMENTS\PORTFOLIO\PORTFOLIO\GAME ENGINE\DRAGONGAME\EVENTSYSTEM\RELEASE\LOADGAMEVARIABLESEVENT.OBJ
C:\USERS\B4044959\DOCUMENTS\PORTFOLIO\PORTFOLIO\GAME ENGINE\DRAGONGAME\EVENTSYSTEM\RELEASE\LOADLEVELEVENT.OBJ
C:\USERS\B4044959\DOCUMENTS\PORTFOLIO\PORTFOLIO\GAME ENGINE\DRAGONGAME\EVENTSYSTEM\RELEASE\RELOADLEVELEVENT.OBJ
C:\USERS\B4044959\DOCUMENTS\PORTFOLIO\PORTFOLIO\GAME ENGINE\DRAGONGAME\EVENTSYSTEM\RELEASE\RESTARTGAMEEVENT.OBJ
C:\USERS\B4044959\DOCUMENTS\PORTFOLIO\PORTFOLIO\GAME ENGINE\DRAGONGAME\EVENTSYSTEM\RELEASE\ROTATEEVENT.OBJ
C:\USERS\B4044959\DOCUMENTS\PORTFOLIO\PORTFOLIO\GAME ENGINE\DRAGONGAME\EVENTSYSTEM\RELEASE\SCOREINCREASEEVENT.OBJ
C:\USERS\B4044959\DOCUMENTS\PORTFOLIO\PORTFOLIO\GAME ENGINE\DRAGONGAME\EVENTSYSTEM\RELEASE\SETHITPOINTSTEXTEVENT.OBJ
C:\USERS\B4044959\DOCUMENTS\PORTFOLIO\PORTFOLIO\GAME ENGINE\DRAGONGAME\EVENTSYSTEM\RELEASE\SETSCORETEXTEVENT.OBJ
C:\USERS\B4044959\DOCUMENTS\PORTFOLIO\PORTFOLIO\GAME ENGINE\DRAGONGAME\EVENTSYSTEM\RELEASE\SHUTDOWNEVENT.OBJ
C:\USERS\B4044959\DOCUMENTS\PORTFOLIO\PORTFOLIO\GAME ENGINE\DRAGONGAME\EVENTSYSTEM\RELEASE\SPAWNPLAYER.OBJ
C:\USERS\B4044959\DOCUMENTS\PORTFOLIO\PORTFOLIO\GAME ENGINE\DRAGONGAME\EVENTSYSTEM\RELEASE\JUMPEVENT.OBJ
C:\USERS\B4044959\DOCUMENTS\PORTFOLIO\PORTFOLIO\GAME ENGINE\DRAGONGAME\EVENTSYSTEM\RELEASE\MOVEEVENT.OBJ
C:\USERS\B4044959\DOCUMENTS\PORTFOLIO\PORTFOLIO\GAME ENGINE\DRAGONGAME\EVENTSYSTEM\RELEASE\SOUNDEVENT.OBJ
C:\USERS\B4044959\DOCUMENTS\PORTFOLIO\PORTFOLIO\GAME ENGINE\DRAGONGAME\EVENTSYSTEM\RELEASE\SPAWNEVENT.OBJ
C:\USERS\B4044959\DOCUMENTS\PORTFOLIO\PORTFOLIO\GAME ENGINE\DRAGONGAME\EVENTSYSTEM\RELEASE\SUBSYSTEM.OBJ
C:\USERS\B4044959\DOCUMENTS\PORTFOLIO\PORTFOLIO\GAME ENGINE\DRAGONGAME\EVENTSYSTEM\RELEASE\TIMEEVENT.OBJ
C:\USERS\B4044959\DOCUMENTS\PORTFOLIO\PORTFOLIO\GAME ENGINE\DRAGONGAME\EVENTSYSTEM\RELEASE\TOGGLEPROFILEREVENT.OBJ
C:\USERS\B4044959\DOCUMENTS\PORTFOLIO\PORTFOLIO\GAME ENGINE\DRAGONGAME\EVENTSYSTEM\RELEASE\UNLOADLEVELEVENT.OBJ
