^C:\USERS\B4044959\DOCUMENTS\STAGE4\GAME TECHNOLOGIES\FRAMEWORK\CSC8503\CSC8503COMMON\ANCHORPOINTDISTCONSTRAINT.CPP|C:\USERS\B4044959\DOCUMENTS\STAGE4\GAME TECHNOLOGIES\FRAMEWORK\CSC8503\CSC8503COMMON\COLLISIONDETECTION.CPP|C:\USERS\B4044959\DOCUMENTS\STAGE4\GAME TECHNOLOGIES\FRAMEWORK\CSC8503\CSC8503COMMON\DEBUG.CPP|C:\USERS\B4044959\DOCUMENTS\STAGE4\GAME TECHNOLOGIES\FRAMEWORK\CSC8503\CSC8503COMMON\GAMECLIENT.CPP|C:\USERS\B4044959\DOCUMENTS\STAGE4\GAME TECHNOLOGIES\FRAMEWORK\CSC8503\CSC8503COMMON\GAMEOBJECT.CPP|C:\USERS\B4044959\DOCUMENTS\STAGE4\GAME TECHNOLOGIES\FRAMEWORK\CSC8503\CSC8503COMMON\GAMESERVER.CPP|C:\USERS\B4044959\DOCUMENTS\STAGE4\GAME TECHNOLOGIES\FRAMEWORK\CSC8503\CSC8503COMMON\GAMEWORLD.CPP|C:\USERS\B4044959\DOCUMENTS\STAGE4\GAME TECHNOLOGIES\FRAMEWORK\CSC8503\CSC8503COMMON\GJKALGORITHM.CPP|C:\USERS\B4044959\DOCUMENTS\STAGE4\GAME TECHNOLOGIES\FRAMEWORK\CSC8503\CSC8503COMMON\HINGECONSTRAINT.CPP|C:\USERS\B4044959\DOCUMENTS\STAGE4\GAME TECHNOLOGIES\FRAMEWORK\CSC8503\CSC8503COMMON\NAVIGATIONGRID.CPP|C:\USERS\B4044959\DOCUMENTS\STAGE4\GAME TECHNOLOGIES\FRAMEWORK\CSC8503\CSC8503COMMON\NAVIGATIONMESH.CPP|C:\USERS\B4044959\DOCUMENTS\STAGE4\GAME TECHNOLOGIES\FRAMEWORK\CSC8503\CSC8503COMMON\NETWORKBASE.CPP|C:\USERS\B4044959\DOCUMENTS\STAGE4\GAME TECHNOLOGIES\FRAMEWORK\CSC8503\CSC8503COMMON\NETWORKOBJECT.CPP|C:\USERS\B4044959\DOCUMENTS\STAGE4\GAME TECHNOLOGIES\FRAMEWORK\CSC8503\CSC8503COMMON\PHYSICSOBJECT.CPP|C:\USERS\B4044959\DOCUMENTS\STAGE4\GAME TECHNOLOGIES\FRAMEWORK\CSC8503\CSC8503COMMON\PHYSICSSYSTEM.CPP|C:\USERS\B4044959\DOCUMENTS\STAGE4\GAME TECHNOLOGIES\FRAMEWORK\CSC8503\CSC8503COMMON\PLAYER.CPP|C:\USERS\B4044959\DOCUMENTS\STAGE4\GAME TECHNOLOGIES\FRAMEWORK\CSC8503\CSC8503COMMON\POSITIONCONSTRAINT.CPP|C:\USERS\B4044959\DOCUMENTS\STAGE4\GAME TECHNOLOGIES\FRAMEWORK\CSC8503\CSC8503COMMON\PUSHDOWNMACHINE.CPP|C:\USERS\B4044959\DOCUMENTS\STAGE4\GAME TECHNOLOGIES\FRAMEWORK\CSC8503\CSC8503COMMON\PUSHDOWNSTATE.CPP|C:\USERS\B4044959\DOCUMENTS\STAGE4\GAME TECHNOLOGIES\FRAMEWORK\CSC8503\CSC8503COMMON\QUADTREE.CPP|C:\USERS\B4044959\DOCUMENTS\STAGE4\GAME TECHNOLOGIES\FRAMEWORK\CSC8503\CSC8503COMMON\RENDEROBJECT.CPP|C:\USERS\B4044959\DOCUMENTS\STAGE4\GAME TECHNOLOGIES\FRAMEWORK\CSC8503\CSC8503COMMON\ROBOT.CPP|C:\USERS\B4044959\DOCUMENTS\STAGE4\GAME TECHNOLOGIES\FRAMEWORK\CSC8503\CSC8503COMMON\SIMPLEX.CPP|C:\USERS\B4044959\DOCUMENTS\STAGE4\GAME TECHNOLOGIES\FRAMEWORK\CSC8503\CSC8503COMMON\STATE.CPP|C:\USERS\B4044959\DOCUMENTS\STAGE4\GAME TECHNOLOGIES\FRAMEWORK\CSC8503\CSC8503COMMON\STATEMACHINE.CPP|C:\USERS\B4044959\DOCUMENTS\STAGE4\GAME TECHNOLOGIES\FRAMEWORK\CSC8503\CSC8503COMMON\STATETRANSITION.CPP|C:\USERS\B4044959\DOCUMENTS\STAGE4\GAME TECHNOLOGIES\FRAMEWORK\CSC8503\CSC8503COMMON\TRANSFORM.CPP
C:\USERS\B4044959\DOCUMENTS\STAGE4\GAME TECHNOLOGIES\FRAMEWORK\CSC8503\CSC8503COMMON\RELEASE\CSC8503COMMON.PDB
C:\USERS\B4044959\DOCUMENTS\STAGE4\GAME TECHNOLOGIES\FRAMEWORK\CSC8503\CSC8503COMMON\RELEASE\QUADTREE.OBJ
C:\USERS\B4044959\DOCUMENTS\STAGE4\GAME TECHNOLOGIES\FRAMEWORK\CSC8503\CSC8503COMMON\RELEASE\PUSHDOWNSTATE.OBJ
C:\USERS\B4044959\DOCUMENTS\STAGE4\GAME TECHNOLOGIES\FRAMEWORK\CSC8503\CSC8503COMMON\RELEASE\PUSHDOWNMACHINE.OBJ
C:\USERS\B4044959\DOCUMENTS\STAGE4\GAME TECHNOLOGIES\FRAMEWORK\CSC8503\CSC8503COMMON\RELEASE\POSITIONCONSTRAINT.OBJ
C:\USERS\B4044959\DOCUMENTS\STAGE4\GAME TECHNOLOGIES\FRAMEWORK\CSC8503\CSC8503COMMON\RELEASE\PLAYER.OBJ
C:\USERS\B4044959\DOCUMENTS\STAGE4\GAME TECHNOLOGIES\FRAMEWORK\CSC8503\CSC8503COMMON\RELEASE\PHYSICSSYSTEM.OBJ
C:\USERS\B4044959\DOCUMENTS\STAGE4\GAME TECHNOLOGIES\FRAMEWORK\CSC8503\CSC8503COMMON\RELEASE\PHYSICSOBJECT.OBJ
C:\USERS\B4044959\DOCUMENTS\STAGE4\GAME TECHNOLOGIES\FRAMEWORK\CSC8503\CSC8503COMMON\RELEASE\NETWORKOBJECT.OBJ
C:\USERS\B4044959\DOCUMENTS\STAGE4\GAME TECHNOLOGIES\FRAMEWORK\CSC8503\CSC8503COMMON\RELEASE\NETWORKBASE.OBJ
C:\USERS\B4044959\DOCUMENTS\STAGE4\GAME TECHNOLOGIES\FRAMEWORK\CSC8503\CSC8503COMMON\RELEASE\NAVIGATIONMESH.OBJ
C:\USERS\B4044959\DOCUMENTS\STAGE4\GAME TECHNOLOGIES\FRAMEWORK\CSC8503\CSC8503COMMON\RELEASE\NAVIGATIONGRID.OBJ
C:\USERS\B4044959\DOCUMENTS\STAGE4\GAME TECHNOLOGIES\FRAMEWORK\CSC8503\CSC8503COMMON\RELEASE\HINGECONSTRAINT.OBJ
C:\USERS\B4044959\DOCUMENTS\STAGE4\GAME TECHNOLOGIES\FRAMEWORK\CSC8503\CSC8503COMMON\RELEASE\GJKALGORITHM.OBJ
C:\USERS\B4044959\DOCUMENTS\STAGE4\GAME TECHNOLOGIES\FRAMEWORK\CSC8503\CSC8503COMMON\RELEASE\GAMEWORLD.OBJ
C:\USERS\B4044959\DOCUMENTS\STAGE4\GAME TECHNOLOGIES\FRAMEWORK\CSC8503\CSC8503COMMON\RELEASE\GAMESERVER.OBJ
C:\USERS\B4044959\DOCUMENTS\STAGE4\GAME TECHNOLOGIES\FRAMEWORK\CSC8503\CSC8503COMMON\RELEASE\GAMEOBJECT.OBJ
C:\USERS\B4044959\DOCUMENTS\STAGE4\GAME TECHNOLOGIES\FRAMEWORK\CSC8503\CSC8503COMMON\RELEASE\GAMECLIENT.OBJ
C:\USERS\B4044959\DOCUMENTS\STAGE4\GAME TECHNOLOGIES\FRAMEWORK\CSC8503\CSC8503COMMON\RELEASE\DEBUG.OBJ
C:\USERS\B4044959\DOCUMENTS\STAGE4\GAME TECHNOLOGIES\FRAMEWORK\CSC8503\CSC8503COMMON\RELEASE\COLLISIONDETECTION.OBJ
C:\USERS\B4044959\DOCUMENTS\STAGE4\GAME TECHNOLOGIES\FRAMEWORK\CSC8503\CSC8503COMMON\RELEASE\ANCHORPOINTDISTCONSTRAINT.OBJ
C:\USERS\B4044959\DOCUMENTS\STAGE4\GAME TECHNOLOGIES\FRAMEWORK\CSC8503\CSC8503COMMON\RELEASE\TRANSFORM.OBJ
C:\USERS\B4044959\DOCUMENTS\STAGE4\GAME TECHNOLOGIES\FRAMEWORK\CSC8503\CSC8503COMMON\RELEASE\STATETRANSITION.OBJ
C:\USERS\B4044959\DOCUMENTS\STAGE4\GAME TECHNOLOGIES\FRAMEWORK\CSC8503\CSC8503COMMON\RELEASE\STATEMACHINE.OBJ
C:\USERS\B4044959\DOCUMENTS\STAGE4\GAME TECHNOLOGIES\FRAMEWORK\CSC8503\CSC8503COMMON\RELEASE\STATE.OBJ
C:\USERS\B4044959\DOCUMENTS\STAGE4\GAME TECHNOLOGIES\FRAMEWORK\CSC8503\CSC8503COMMON\RELEASE\SIMPLEX.OBJ
C:\USERS\B4044959\DOCUMENTS\STAGE4\GAME TECHNOLOGIES\FRAMEWORK\CSC8503\CSC8503COMMON\RELEASE\ROBOT.OBJ
C:\USERS\B4044959\DOCUMENTS\STAGE4\GAME TECHNOLOGIES\FRAMEWORK\CSC8503\CSC8503COMMON\RELEASE\RENDEROBJECT.OBJ
^C:\USERS\B4044959\DOCUMENTS\STAGE4\GAME TECHNOLOGIES\FRAMEWORK\CSC8503\CSC8503COMMON\ANCHORPOINTDISTCONSTRAINT.CPP
C:\USERS\B4044959\DOCUMENTS\STAGE4\GAME TECHNOLOGIES\FRAMEWORK\CSC8503\CSC8503COMMON\RELEASE\CSC8503COMMON.PDB
^C:\USERS\B4044959\DOCUMENTS\STAGE4\GAME TECHNOLOGIES\FRAMEWORK\CSC8503\CSC8503COMMON\COLLISIONDETECTION.CPP
C:\USERS\B4044959\DOCUMENTS\STAGE4\GAME TECHNOLOGIES\FRAMEWORK\CSC8503\CSC8503COMMON\RELEASE\CSC8503COMMON.PDB
^C:\USERS\B4044959\DOCUMENTS\STAGE4\GAME TECHNOLOGIES\FRAMEWORK\CSC8503\CSC8503COMMON\DEBUG.CPP
C:\USERS\B4044959\DOCUMENTS\STAGE4\GAME TECHNOLOGIES\FRAMEWORK\CSC8503\CSC8503COMMON\RELEASE\CSC8503COMMON.PDB
^C:\USERS\B4044959\DOCUMENTS\STAGE4\GAME TECHNOLOGIES\FRAMEWORK\CSC8503\CSC8503COMMON\GAMECLIENT.CPP
C:\USERS\B4044959\DOCUMENTS\STAGE4\GAME TECHNOLOGIES\FRAMEWORK\CSC8503\CSC8503COMMON\RELEASE\CSC8503COMMON.PDB
^C:\USERS\B4044959\DOCUMENTS\STAGE4\GAME TECHNOLOGIES\FRAMEWORK\CSC8503\CSC8503COMMON\GAMEOBJECT.CPP
C:\USERS\B4044959\DOCUMENTS\STAGE4\GAME TECHNOLOGIES\FRAMEWORK\CSC8503\CSC8503COMMON\RELEASE\CSC8503COMMON.PDB
^C:\USERS\B4044959\DOCUMENTS\STAGE4\GAME TECHNOLOGIES\FRAMEWORK\CSC8503\CSC8503COMMON\GAMESERVER.CPP
C:\USERS\B4044959\DOCUMENTS\STAGE4\GAME TECHNOLOGIES\FRAMEWORK\CSC8503\CSC8503COMMON\RELEASE\CSC8503COMMON.PDB
^C:\USERS\B4044959\DOCUMENTS\STAGE4\GAME TECHNOLOGIES\FRAMEWORK\CSC8503\CSC8503COMMON\GAMEWORLD.CPP
C:\USERS\B4044959\DOCUMENTS\STAGE4\GAME TECHNOLOGIES\FRAMEWORK\CSC8503\CSC8503COMMON\RELEASE\CSC8503COMMON.PDB
^C:\USERS\B4044959\DOCUMENTS\STAGE4\GAME TECHNOLOGIES\FRAMEWORK\CSC8503\CSC8503COMMON\GJKALGORITHM.CPP
C:\USERS\B4044959\DOCUMENTS\STAGE4\GAME TECHNOLOGIES\FRAMEWORK\CSC8503\CSC8503COMMON\RELEASE\CSC8503COMMON.PDB
^C:\USERS\B4044959\DOCUMENTS\STAGE4\GAME TECHNOLOGIES\FRAMEWORK\CSC8503\CSC8503COMMON\HINGECONSTRAINT.CPP
C:\USERS\B4044959\DOCUMENTS\STAGE4\GAME TECHNOLOGIES\FRAMEWORK\CSC8503\CSC8503COMMON\RELEASE\CSC8503COMMON.PDB
^C:\USERS\B4044959\DOCUMENTS\STAGE4\GAME TECHNOLOGIES\FRAMEWORK\CSC8503\CSC8503COMMON\NAVIGATIONGRID.CPP
C:\USERS\B4044959\DOCUMENTS\STAGE4\GAME TECHNOLOGIES\FRAMEWORK\CSC8503\CSC8503COMMON\RELEASE\CSC8503COMMON.PDB
^C:\USERS\B4044959\DOCUMENTS\STAGE4\GAME TECHNOLOGIES\FRAMEWORK\CSC8503\CSC8503COMMON\NAVIGATIONMESH.CPP
C:\USERS\B4044959\DOCUMENTS\STAGE4\GAME TECHNOLOGIES\FRAMEWORK\CSC8503\CSC8503COMMON\RELEASE\CSC8503COMMON.PDB
^C:\USERS\B4044959\DOCUMENTS\STAGE4\GAME TECHNOLOGIES\FRAMEWORK\CSC8503\CSC8503COMMON\NETWORKBASE.CPP
C:\USERS\B4044959\DOCUMENTS\STAGE4\GAME TECHNOLOGIES\FRAMEWORK\CSC8503\CSC8503COMMON\RELEASE\CSC8503COMMON.PDB
^C:\USERS\B4044959\DOCUMENTS\STAGE4\GAME TECHNOLOGIES\FRAMEWORK\CSC8503\CSC8503COMMON\NETWORKOBJECT.CPP
C:\USERS\B4044959\DOCUMENTS\STAGE4\GAME TECHNOLOGIES\FRAMEWORK\CSC8503\CSC8503COMMON\RELEASE\CSC8503COMMON.PDB
^C:\USERS\B4044959\DOCUMENTS\STAGE4\GAME TECHNOLOGIES\FRAMEWORK\CSC8503\CSC8503COMMON\PHYSICSOBJECT.CPP
C:\USERS\B4044959\DOCUMENTS\STAGE4\GAME TECHNOLOGIES\FRAMEWORK\CSC8503\CSC8503COMMON\RELEASE\CSC8503COMMON.PDB
^C:\USERS\B4044959\DOCUMENTS\STAGE4\GAME TECHNOLOGIES\FRAMEWORK\CSC8503\CSC8503COMMON\PHYSICSSYSTEM.CPP
C:\USERS\B4044959\DOCUMENTS\STAGE4\GAME TECHNOLOGIES\FRAMEWORK\CSC8503\CSC8503COMMON\RELEASE\CSC8503COMMON.PDB
^C:\USERS\B4044959\DOCUMENTS\STAGE4\GAME TECHNOLOGIES\FRAMEWORK\CSC8503\CSC8503COMMON\PLAYER.CPP
C:\USERS\B4044959\DOCUMENTS\STAGE4\GAME TECHNOLOGIES\FRAMEWORK\CSC8503\CSC8503COMMON\RELEASE\CSC8503COMMON.PDB
^C:\USERS\B4044959\DOCUMENTS\STAGE4\GAME TECHNOLOGIES\FRAMEWORK\CSC8503\CSC8503COMMON\POSITIONCONSTRAINT.CPP
C:\USERS\B4044959\DOCUMENTS\STAGE4\GAME TECHNOLOGIES\FRAMEWORK\CSC8503\CSC8503COMMON\RELEASE\CSC8503COMMON.PDB
^C:\USERS\B4044959\DOCUMENTS\STAGE4\GAME TECHNOLOGIES\FRAMEWORK\CSC8503\CSC8503COMMON\PUSHDOWNMACHINE.CPP
C:\USERS\B4044959\DOCUMENTS\STAGE4\GAME TECHNOLOGIES\FRAMEWORK\CSC8503\CSC8503COMMON\RELEASE\CSC8503COMMON.PDB
^C:\USERS\B4044959\DOCUMENTS\STAGE4\GAME TECHNOLOGIES\FRAMEWORK\CSC8503\CSC8503COMMON\PUSHDOWNSTATE.CPP
C:\USERS\B4044959\DOCUMENTS\STAGE4\GAME TECHNOLOGIES\FRAMEWORK\CSC8503\CSC8503COMMON\RELEASE\CSC8503COMMON.PDB
^C:\USERS\B4044959\DOCUMENTS\STAGE4\GAME TECHNOLOGIES\FRAMEWORK\CSC8503\CSC8503COMMON\QUADTREE.CPP
C:\USERS\B4044959\DOCUMENTS\STAGE4\GAME TECHNOLOGIES\FRAMEWORK\CSC8503\CSC8503COMMON\RELEASE\CSC8503COMMON.PDB
^C:\USERS\B4044959\DOCUMENTS\STAGE4\GAME TECHNOLOGIES\FRAMEWORK\CSC8503\CSC8503COMMON\RENDEROBJECT.CPP
C:\USERS\B4044959\DOCUMENTS\STAGE4\GAME TECHNOLOGIES\FRAMEWORK\CSC8503\CSC8503COMMON\RELEASE\CSC8503COMMON.PDB
^C:\USERS\B4044959\DOCUMENTS\STAGE4\GAME TECHNOLOGIES\FRAMEWORK\CSC8503\CSC8503COMMON\SIMPLEX.CPP
C:\USERS\B4044959\DOCUMENTS\STAGE4\GAME TECHNOLOGIES\FRAMEWORK\CSC8503\CSC8503COMMON\RELEASE\CSC8503COMMON.PDB
^C:\USERS\B4044959\DOCUMENTS\STAGE4\GAME TECHNOLOGIES\FRAMEWORK\CSC8503\CSC8503COMMON\STATE.CPP
C:\USERS\B4044959\DOCUMENTS\STAGE4\GAME TECHNOLOGIES\FRAMEWORK\CSC8503\CSC8503COMMON\RELEASE\CSC8503COMMON.PDB
^C:\USERS\B4044959\DOCUMENTS\STAGE4\GAME TECHNOLOGIES\FRAMEWORK\CSC8503\CSC8503COMMON\STATEMACHINE.CPP
C:\USERS\B4044959\DOCUMENTS\STAGE4\GAME TECHNOLOGIES\FRAMEWORK\CSC8503\CSC8503COMMON\RELEASE\CSC8503COMMON.PDB
^C:\USERS\B4044959\DOCUMENTS\STAGE4\GAME TECHNOLOGIES\FRAMEWORK\CSC8503\CSC8503COMMON\STATETRANSITION.CPP
C:\USERS\B4044959\DOCUMENTS\STAGE4\GAME TECHNOLOGIES\FRAMEWORK\CSC8503\CSC8503COMMON\RELEASE\CSC8503COMMON.PDB
^C:\USERS\B4044959\DOCUMENTS\STAGE4\GAME TECHNOLOGIES\FRAMEWORK\CSC8503\CSC8503COMMON\TRANSFORM.CPP
C:\USERS\B4044959\DOCUMENTS\STAGE4\GAME TECHNOLOGIES\FRAMEWORK\CSC8503\CSC8503COMMON\RELEASE\CSC8503COMMON.PDB
^C:\USERS\B4044959\DOCUMENTS\STAGE4\GAME TECHNOLOGIES\FRAMEWORK\CSC8503\CSC8503COMMON\ROBOT.CPP
C:\USERS\B4044959\DOCUMENTS\STAGE4\GAME TECHNOLOGIES\FRAMEWORK\CSC8503\CSC8503COMMON\RELEASE\CSC8503COMMON.PDB
C:\USERS\B4044959\DOCUMENTS\STAGE4\GAME TECHNOLOGIES\FRAMEWORK\CSC8503\CSC8503COMMON\RELEASE\ROBOT.OBJ
