^H:\AGAMEDEV\ENGINE\DRAGONGAME\FILEIO\RELEASE\FILEIO.OBJ
C:\WINDOWS\GLOBALIZATION\SORTING\SORTDEFAULT.NLS
H:\AGAMEDEV\ENGINE\DRAGONGAME\FILEIO\RELEASE\FILEIO.OBJ
C:\WINDOWS\SYSTEM32\TZRES.DLL
^C:\USERS\B4044959\DOCUMENTS\PORTFOLIO\PORTFOLIO\GAME ENGINE\DRAGONGAME\FILEIO\RELEASE\FILEIO.OBJ
C:\WINDOWS\GLOBALIZATION\SORTING\SORTDEFAULT.NLS
C:\USERS\B4044959\DOCUMENTS\PORTFOLIO\PORTFOLIO\GAME ENGINE\DRAGONGAME\FILEIO\RELEASE\FILEIO.OBJ
C:\WINDOWS\SYSTEM32\TZRES.DLL
