^H:\AGAMEDEV\ENGINE\DRAGONGAME\MIDDLEWARE\BULLET3-MASTER\SRC\LINEARMATH\BTALIGNEDALLOCATOR.CPP|H:\AGAMEDEV\ENGINE\DRAGONGAME\MIDDLEWARE\BULLET3-MASTER\SRC\LINEARMATH\BTCONVEXHULL.CPP|H:\AGAMEDEV\ENGINE\DRAGONGAME\MIDDLEWARE\BULLET3-MASTER\SRC\LINEARMATH\BTCONVEXHULLCOMPUTER.CPP|H:\AGAMEDEV\ENGINE\DRAGONGAME\MIDDLEWARE\BULLET3-MASTER\SRC\LINEARMATH\BTGEOMETRYUTIL.CPP|H:\AGAMEDEV\ENGINE\DRAGONGAME\MIDDLEWARE\BULLET3-MASTER\SRC\LINEARMATH\BTPOLARDECOMPOSITION.CPP|H:\AGAMEDEV\ENGINE\DRAGONGAME\MIDDLEWARE\BULLET3-MASTER\SRC\LINEARMATH\BTQUICKPROF.CPP|H:\AGAMEDEV\ENGINE\DRAGONGAME\MIDDLEWARE\BULLET3-MASTER\SRC\LINEARMATH\BTSERIALIZER.CPP|H:\AGAMEDEV\ENGINE\DRAGONGAME\MIDDLEWARE\BULLET3-MASTER\SRC\LINEARMATH\BTSERIALIZER64.CPP|H:\AGAMEDEV\ENGINE\DRAGONGAME\MIDDLEWARE\BULLET3-MASTER\SRC\LINEARMATH\BTTHREADS.CPP|H:\AGAMEDEV\ENGINE\DRAGONGAME\MIDDLEWARE\BULLET3-MASTER\SRC\LINEARMATH\BTVECTOR3.CPP
H:\AGAMEDEV\ENGINE\DRAGONGAME\LINEARMATH\X64\DEBUG\LINEARMATH.PDB
H:\AGAMEDEV\ENGINE\DRAGONGAME\LINEARMATH\X64\DEBUG\LINEARMATH.IDB
H:\AGAMEDEV\ENGINE\DRAGONGAME\LINEARMATH\X64\DEBUG\BTALIGNEDALLOCATOR.OBJ
H:\AGAMEDEV\ENGINE\DRAGONGAME\LINEARMATH\X64\DEBUG\BTQUICKPROF.OBJ
H:\AGAMEDEV\ENGINE\DRAGONGAME\LINEARMATH\X64\DEBUG\BTSERIALIZER.OBJ
H:\AGAMEDEV\ENGINE\DRAGONGAME\LINEARMATH\X64\DEBUG\BTSERIALIZER64.OBJ
H:\AGAMEDEV\ENGINE\DRAGONGAME\LINEARMATH\X64\DEBUG\BTTHREADS.OBJ
^H:\AGAMEDEV\ENGINE\DRAGONGAME\MIDDLEWARE\BULLET3-MASTER\SRC\LINEARMATH\BTALIGNEDALLOCATOR.CPP
H:\AGAMEDEV\ENGINE\DRAGONGAME\LINEARMATH\X64\DEBUG\LINEARMATH.PDB
^H:\AGAMEDEV\ENGINE\DRAGONGAME\MIDDLEWARE\BULLET3-MASTER\SRC\LINEARMATH\BTCONVEXHULL.CPP
H:\AGAMEDEV\ENGINE\DRAGONGAME\LINEARMATH\X64\DEBUG\LINEARMATH.PDB
^H:\AGAMEDEV\ENGINE\DRAGONGAME\MIDDLEWARE\BULLET3-MASTER\SRC\LINEARMATH\BTCONVEXHULLCOMPUTER.CPP
H:\AGAMEDEV\ENGINE\DRAGONGAME\LINEARMATH\X64\DEBUG\LINEARMATH.PDB
^H:\AGAMEDEV\ENGINE\DRAGONGAME\MIDDLEWARE\BULLET3-MASTER\SRC\LINEARMATH\BTGEOMETRYUTIL.CPP
H:\AGAMEDEV\ENGINE\DRAGONGAME\LINEARMATH\X64\DEBUG\LINEARMATH.PDB
^H:\AGAMEDEV\ENGINE\DRAGONGAME\MIDDLEWARE\BULLET3-MASTER\SRC\LINEARMATH\BTPOLARDECOMPOSITION.CPP
H:\AGAMEDEV\ENGINE\DRAGONGAME\LINEARMATH\X64\DEBUG\LINEARMATH.PDB
^H:\AGAMEDEV\ENGINE\DRAGONGAME\MIDDLEWARE\BULLET3-MASTER\SRC\LINEARMATH\BTQUICKPROF.CPP
H:\AGAMEDEV\ENGINE\DRAGONGAME\LINEARMATH\X64\DEBUG\LINEARMATH.PDB
^H:\AGAMEDEV\ENGINE\DRAGONGAME\MIDDLEWARE\BULLET3-MASTER\SRC\LINEARMATH\BTSERIALIZER.CPP
H:\AGAMEDEV\ENGINE\DRAGONGAME\LINEARMATH\X64\DEBUG\LINEARMATH.PDB
^H:\AGAMEDEV\ENGINE\DRAGONGAME\MIDDLEWARE\BULLET3-MASTER\SRC\LINEARMATH\BTSERIALIZER64.CPP
H:\AGAMEDEV\ENGINE\DRAGONGAME\LINEARMATH\X64\DEBUG\LINEARMATH.PDB
^H:\AGAMEDEV\ENGINE\DRAGONGAME\MIDDLEWARE\BULLET3-MASTER\SRC\LINEARMATH\BTTHREADS.CPP
H:\AGAMEDEV\ENGINE\DRAGONGAME\LINEARMATH\X64\DEBUG\LINEARMATH.PDB
^H:\AGAMEDEV\ENGINE\DRAGONGAME\MIDDLEWARE\BULLET3-MASTER\SRC\LINEARMATH\BTVECTOR3.CPP
H:\AGAMEDEV\ENGINE\DRAGONGAME\LINEARMATH\X64\DEBUG\LINEARMATH.PDB
^H:\AGAMEDEV\ENGINE\DRAGONGAME\MIDDLEWARE\BULLET3-MASTER\SRC\LINEARMATH\BTCONVEXHULL.CPP|H:\AGAMEDEV\ENGINE\DRAGONGAME\MIDDLEWARE\BULLET3-MASTER\SRC\LINEARMATH\BTCONVEXHULLCOMPUTER.CPP|H:\AGAMEDEV\ENGINE\DRAGONGAME\MIDDLEWARE\BULLET3-MASTER\SRC\LINEARMATH\BTGEOMETRYUTIL.CPP|H:\AGAMEDEV\ENGINE\DRAGONGAME\MIDDLEWARE\BULLET3-MASTER\SRC\LINEARMATH\BTPOLARDECOMPOSITION.CPP|H:\AGAMEDEV\ENGINE\DRAGONGAME\MIDDLEWARE\BULLET3-MASTER\SRC\LINEARMATH\BTVECTOR3.CPP
