^H:\AGAMEDEV\ENGINE\DRAGONGAME\MIDDLEWARE\BULLET3-MASTER\SRC\BULLET3COMMON\B3ALIGNEDALLOCATOR.CPP|H:\AGAMEDEV\ENGINE\DRAGONGAME\MIDDLEWARE\BULLET3-MASTER\SRC\BULLET3COMMON\B3LOGGING.CPP|H:\AGAMEDEV\ENGINE\DRAGONGAME\MIDDLEWARE\BULLET3-MASTER\SRC\BULLET3COMMON\B3VECTOR3.CPP
H:\AGAMEDEV\ENGINE\DRAGONGAME\BULLET3COMMON\DEBUG\BULLET3COMMON.PDB
H:\AGAMEDEV\ENGINE\DRAGONGAME\BULLET3COMMON\DEBUG\BULLET3COMMON.IDB
H:\AGAMEDEV\ENGINE\DRAGONGAME\BULLET3COMMON\DEBUG\B3ALIGNEDALLOCATOR.OBJ
H:\AGAMEDEV\ENGINE\DRAGONGAME\BULLET3COMMON\DEBUG\B3LOGGING.OBJ
H:\AGAMEDEV\ENGINE\DRAGONGAME\BULLET3COMMON\DEBUG\B3VECTOR3.OBJ
^H:\AGAMEDEV\ENGINE\DRAGONGAME\MIDDLEWARE\BULLET3-MASTER\SRC\BULLET3COMMON\B3ALIGNEDALLOCATOR.CPP
H:\AGAMEDEV\ENGINE\DRAGONGAME\BULLET3COMMON\DEBUG\BULLET3COMMON.PDB
^H:\AGAMEDEV\ENGINE\DRAGONGAME\MIDDLEWARE\BULLET3-MASTER\SRC\BULLET3COMMON\B3LOGGING.CPP
H:\AGAMEDEV\ENGINE\DRAGONGAME\BULLET3COMMON\DEBUG\BULLET3COMMON.PDB
^H:\AGAMEDEV\ENGINE\DRAGONGAME\MIDDLEWARE\BULLET3-MASTER\SRC\BULLET3COMMON\B3VECTOR3.CPP
H:\AGAMEDEV\ENGINE\DRAGONGAME\BULLET3COMMON\DEBUG\BULLET3COMMON.PDB
