^H:\AGAMEDEV\ENGINE\DRAGONGAME\BULLET3COMMON\X64\DEBUG\B3ALIGNEDALLOCATOR.OBJ|H:\AGAMEDEV\ENGINE\DRAGONGAME\BULLET3COMMON\X64\DEBUG\B3LOGGING.OBJ|H:\AGAMEDEV\ENGINE\DRAGONGAME\BULLET3COMMON\X64\DEBUG\B3VECTOR3.OBJ
C:\WINDOWS\GLOBALIZATION\SORTING\SORTDEFAULT.NLS
H:\AGAMEDEV\ENGINE\DRAGONGAME\BULLET3COMMON\X64\DEBUG\B3ALIGNEDALLOCATOR.OBJ
C:\WINDOWS\SYSTEM32\TZRES.DLL
H:\AGAMEDEV\ENGINE\DRAGONGAME\BULLET3COMMON\X64\DEBUG\B3LOGGING.OBJ
H:\AGAMEDEV\ENGINE\DRAGONGAME\BULLET3COMMON\X64\DEBUG\B3VECTOR3.OBJ
