^H:\AGAMEDEV\ENGINE\DRAGONGAME\MIDDLEWARE\NCLGL\DEBUG\KEYBOARD.OBJ|H:\AGAMEDEV\ENGINE\DRAGONGAME\MIDDLEWARE\NCLGL\DEBUG\MOUSE.OBJ|H:\AGAMEDEV\ENGINE\DRAGONGAME\MIDDLEWARE\NCLGL\DEBUG\OGLRENDERER.OBJ|H:\AGAMEDEV\ENGINE\DRAGONGAME\MIDDLEWARE\NCLGL\DEBUG\WINDOW.OBJ
C:\WINDOWS\GLOBALIZATION\SORTING\SORTDEFAULT.NLS
H:\AGAMEDEV\ENGINE\DRAGONGAME\MIDDLEWARE\NCLGL\DEBUG\KEYBOARD.OBJ
C:\WINDOWS\SYSTEM32\TZRES.DLL
H:\AGAMEDEV\ENGINE\DRAGONGAME\MIDDLEWARE\NCLGL\DEBUG\MOUSE.OBJ
H:\AGAMEDEV\ENGINE\DRAGONGAME\MIDDLEWARE\NCLGL\DEBUG\OGLRENDERER.OBJ
H:\AGAMEDEV\ENGINE\DRAGONGAME\MIDDLEWARE\NCLGL\DEBUG\WINDOW.OBJ
