^H:\AGAMEDEV\ENGINE\DRAGONGAME\RESOURCEMANAGER\RELEASE\RESOURCEMANAGER.OBJ|H:\AGAMEDEV\ENGINE\DRAGONGAME\RESOURCEMANAGER\RELEASE\STORAGE.OBJ
/OUT:"H:\AGAMEDEV\ENGINE\DRAGONGAME\RELEASE\RESOURCEMANAGER.LIB" /NOLOGO /LTCG RELEASE\RESOURCEMANAGER.OBJRELEASE\STORAGE.OBJ
^C:\USERS\B4044959\DOCUMENTS\PORTFOLIO\PORTFOLIO\GAME ENGINE\DRAGONGAME\RESOURCEMANAGER\RELEASE\RESOURCEMANAGER.OBJ|C:\USERS\B4044959\DOCUMENTS\PORTFOLIO\PORTFOLIO\GAME ENGINE\DRAGONGAME\RESOURCEMANAGER\RELEASE\STORAGE.OBJ
/OUT:"C:\USERS\B4044959\DOCUMENTS\PORTFOLIO\PORTFOLIO\GAME ENGINE\DRAGONGAME\RELEASE\RESOURCEMANAGER.LIB" /NOLOGO /LTCG RELEASE\RESOURCEMANAGER.OBJRELEASE\STORAGE.OBJ
