^H:\AGAMEDEV\ENGINE\DRAGONGAME\MIDDLEWARE\BULLET3-MASTER\SRC\BULLETDYNAMICS\CHARACTER\BTKINEMATICCHARACTERCONTROLLER.CPP|H:\AGAMEDEV\ENGINE\DRAGONGAME\MIDDLEWARE\BULLET3-MASTER\SRC\BULLETDYNAMICS\CONSTRAINTSOLVER\BTCONETWISTCONSTRAINT.CPP|H:\AGAMEDEV\ENGINE\DRAGONGAME\MIDDLEWARE\BULLET3-MASTER\SRC\BULLETDYNAMICS\CONSTRAINTSOLVER\BTCONTACTCONSTRAINT.CPP|H:\AGAMEDEV\ENGINE\DRAGONGAME\MIDDLEWARE\BULLET3-MASTER\SRC\BULLETDYNAMICS\CONSTRAINTSOLVER\BTFIXEDCONSTRAINT.CPP|H:\AGAMEDEV\ENGINE\DRAGONGAME\MIDDLEWARE\BULLET3-MASTER\SRC\BULLETDYNAMICS\CONSTRAINTSOLVER\BTGEARCONSTRAINT.CPP|H:\AGAMEDEV\ENGINE\DRAGONGAME\MIDDLEWARE\BULLET3-MASTER\SRC\BULLETDYNAMICS\CONSTRAINTSOLVER\BTGENERIC6DOFCONSTRAINT.CPP|H:\AGAMEDEV\ENGINE\DRAGONGAME\MIDDLEWARE\BULLET3-MASTER\SRC\BULLETDYNAMICS\CONSTRAINTSOLVER\BTGENERIC6DOFSPRING2CONSTRAINT.CPP|H:\AGAMEDEV\ENGINE\DRAGONGAME\MIDDLEWARE\BULLET3-MASTER\SRC\BULLETDYNAMICS\CONSTRAINTSOLVER\BTGENERIC6DOFSPRINGCONSTRAINT.CPP|H:\AGAMEDEV\ENGINE\DRAGONGAME\MIDDLEWARE\BULLET3-MASTER\SRC\BULLETDYNAMICS\CONSTRAINTSOLVER\BTHINGE2CONSTRAINT.CPP|H:\AGAMEDEV\ENGINE\DRAGONGAME\MIDDLEWARE\BULLET3-MASTER\SRC\BULLETDYNAMICS\CONSTRAINTSOLVER\BTHINGECONSTRAINT.CPP|H:\AGAMEDEV\ENGINE\DRAGONGAME\MIDDLEWARE\BULLET3-MASTER\SRC\BULLETDYNAMICS\CONSTRAINTSOLVER\BTNNCGCONSTRAINTSOLVER.CPP|H:\AGAMEDEV\ENGINE\DRAGONGAME\MIDDLEWARE\BULLET3-MASTER\SRC\BULLETDYNAMICS\CONSTRAINTSOLVER\BTPOINT2POINTCONSTRAINT.CPP|H:\AGAMEDEV\ENGINE\DRAGONGAME\MIDDLEWARE\BULLET3-MASTER\SRC\BULLETDYNAMICS\CONSTRAINTSOLVER\BTSEQUENTIALIMPULSECONSTRAINTSOLVER.CPP|H:\AGAMEDEV\ENGINE\DRAGONGAME\MIDDLEWARE\BULLET3-MASTER\SRC\BULLETDYNAMICS\CONSTRAINTSOLVER\BTSLIDERCONSTRAINT.CPP|H:\AGAMEDEV\ENGINE\DRAGONGAME\MIDDLEWARE\BULLET3-MASTER\SRC\BULLETDYNAMICS\CONSTRAINTSOLVER\BTSOLVE2LINEARCONSTRAINT.CPP|H:\AGAMEDEV\ENGINE\DRAGONGAME\MIDDLEWARE\BULLET3-MASTER\SRC\BULLETDYNAMICS\CONSTRAINTSOLVER\BTTYPEDCONSTRAINT.CPP|H:\AGAMEDEV\ENGINE\DRAGONGAME\MIDDLEWARE\BULLET3-MASTER\SRC\BULLETDYNAMICS\CONSTRAINTSOLVER\BTUNIVERSALCONSTRAINT.CPP|H:\AGAMEDEV\ENGINE\DRAGONGAME\MIDDLEWARE\BULLET3-MASTER\SRC\BULLETDYNAMICS\DYNAMICS\BTDISCRETEDYNAMICSWORLD.CPP|H:\AGAMEDEV\ENGINE\DRAGONGAME\MIDDLEWARE\BULLET3-MASTER\SRC\BULLETDYNAMICS\DYNAMICS\BTDISCRETEDYNAMICSWORLDMT.CPP|H:\AGAMEDEV\ENGINE\DRAGONGAME\MIDDLEWARE\BULLET3-MASTER\SRC\BULLETDYNAMICS\DYNAMICS\BTRIGIDBODY.CPP|H:\AGAMEDEV\ENGINE\DRAGONGAME\MIDDLEWARE\BULLET3-MASTER\SRC\BULLETDYNAMICS\DYNAMICS\BTSIMPLEDYNAMICSWORLD.CPP|H:\AGAMEDEV\ENGINE\DRAGONGAME\MIDDLEWARE\BULLET3-MASTER\SRC\BULLETDYNAMICS\DYNAMICS\BTSIMULATIONISLANDMANAGERMT.CPP|H:\AGAMEDEV\ENGINE\DRAGONGAME\MIDDLEWARE\BULLET3-MASTER\SRC\BULLETDYNAMICS\FEATHERSTONE\BTMULTIBODY.CPP|H:\AGAMEDEV\ENGINE\DRAGONGAME\MIDDLEWARE\BULLET3-MASTER\SRC\BULLETDYNAMICS\FEATHERSTONE\BTMULTIBODYCONSTRAINT.CPP|H:\AGAMEDEV\ENGINE\DRAGONGAME\MIDDLEWARE\BULLET3-MASTER\SRC\BULLETDYNAMICS\FEATHERSTONE\BTMULTIBODYCONSTRAINTSOLVER.CPP|H:\AGAMEDEV\ENGINE\DRAGONGAME\MIDDLEWARE\BULLET3-MASTER\SRC\BULLETDYNAMICS\FEATHERSTONE\BTMULTIBODYDYNAMICSWORLD.CPP|H:\AGAMEDEV\ENGINE\DRAGONGAME\MIDDLEWARE\BULLET3-MASTER\SRC\BULLETDYNAMICS\FEATHERSTONE\BTMULTIBODYFIXEDCONSTRAINT.CPP|H:\AGAMEDEV\ENGINE\DRAGONGAME\MIDDLEWARE\BULLET3-MASTER\SRC\BULLETDYNAMICS\FEATHERSTONE\BTMULTIBODYGEARCONSTRAINT.CPP|H:\AGAMEDEV\ENGINE\DRAGONGAME\MIDDLEWARE\BULLET3-MASTER\SRC\BULLETDYNAMICS\FEATHERSTONE\BTMULTIBODYJOINTLIMITCONSTRAINT.CPP|H:\AGAMEDEV\ENGINE\DRAGONGAME\MIDDLEWARE\BULLET3-MASTER\SRC\BULLETDYNAMICS\FEATHERSTONE\BTMULTIBODYJOINTMOTOR.CPP|H:\AGAMEDEV\ENGINE\DRAGONGAME\MIDDLEWARE\BULLET3-MASTER\SRC\BULLETDYNAMICS\FEATHERSTONE\BTMULTIBODYPOINT2POINT.CPP|H:\AGAMEDEV\ENGINE\DRAGONGAME\MIDDLEWARE\BULLET3-MASTER\SRC\BULLETDYNAMICS\FEATHERSTONE\BTMULTIBODYSLIDERCONSTRAINT.CPP|H:\AGAMEDEV\ENGINE\DRAGONGAME\MIDDLEWARE\BULLET3-MASTER\SRC\BULLETDYNAMICS\MLCPSOLVERS\BTDANTZIGLCP.CPP|H:\AGAMEDEV\ENGINE\DRAGONGAME\MIDDLEWARE\BULLET3-MASTER\SRC\BULLETDYNAMICS\MLCPSOLVERS\BTLEMKEALGORITHM.CPP|H:\AGAMEDEV\ENGINE\DRAGONGAME\MIDDLEWARE\BULLET3-MASTER\SRC\BULLETDYNAMICS\MLCPSOLVERS\BTMLCPSOLVER.CPP|H:\AGAMEDEV\ENGINE\DRAGONGAME\MIDDLEWARE\BULLET3-MASTER\SRC\BULLETDYNAMICS\VEHICLE\BTRAYCASTVEHICLE.CPP|H:\AGAMEDEV\ENGINE\DRAGONGAME\MIDDLEWARE\BULLET3-MASTER\SRC\BULLETDYNAMICS\VEHICLE\BTWHEELINFO.CPP
H:\AGAMEDEV\ENGINE\DRAGONGAME\BULLETDYNAMICS\RELEASE\BULLETDYNAMICS.PDB
H:\AGAMEDEV\ENGINE\DRAGONGAME\BULLETDYNAMICS\RELEASE\BTRIGIDBODY.OBJ
H:\AGAMEDEV\ENGINE\DRAGONGAME\BULLETDYNAMICS\RELEASE\BTDISCRETEDYNAMICSWORLDMT.OBJ
H:\AGAMEDEV\ENGINE\DRAGONGAME\BULLETDYNAMICS\RELEASE\BTDISCRETEDYNAMICSWORLD.OBJ
H:\AGAMEDEV\ENGINE\DRAGONGAME\BULLETDYNAMICS\RELEASE\BTUNIVERSALCONSTRAINT.OBJ
H:\AGAMEDEV\ENGINE\DRAGONGAME\BULLETDYNAMICS\RELEASE\BTTYPEDCONSTRAINT.OBJ
H:\AGAMEDEV\ENGINE\DRAGONGAME\BULLETDYNAMICS\RELEASE\BTSOLVE2LINEARCONSTRAINT.OBJ
H:\AGAMEDEV\ENGINE\DRAGONGAME\BULLETDYNAMICS\RELEASE\BTSLIDERCONSTRAINT.OBJ
H:\AGAMEDEV\ENGINE\DRAGONGAME\BULLETDYNAMICS\RELEASE\BTSEQUENTIALIMPULSECONSTRAINTSOLVER.OBJ
H:\AGAMEDEV\ENGINE\DRAGONGAME\BULLETDYNAMICS\RELEASE\BTPOINT2POINTCONSTRAINT.OBJ
H:\AGAMEDEV\ENGINE\DRAGONGAME\BULLETDYNAMICS\RELEASE\BTNNCGCONSTRAINTSOLVER.OBJ
H:\AGAMEDEV\ENGINE\DRAGONGAME\BULLETDYNAMICS\RELEASE\BTHINGECONSTRAINT.OBJ
H:\AGAMEDEV\ENGINE\DRAGONGAME\BULLETDYNAMICS\RELEASE\BTHINGE2CONSTRAINT.OBJ
H:\AGAMEDEV\ENGINE\DRAGONGAME\BULLETDYNAMICS\RELEASE\BTGENERIC6DOFSPRINGCONSTRAINT.OBJ
H:\AGAMEDEV\ENGINE\DRAGONGAME\BULLETDYNAMICS\RELEASE\BTGENERIC6DOFSPRING2CONSTRAINT.OBJ
H:\AGAMEDEV\ENGINE\DRAGONGAME\BULLETDYNAMICS\RELEASE\BTGENERIC6DOFCONSTRAINT.OBJ
H:\AGAMEDEV\ENGINE\DRAGONGAME\BULLETDYNAMICS\RELEASE\BTGEARCONSTRAINT.OBJ
H:\AGAMEDEV\ENGINE\DRAGONGAME\BULLETDYNAMICS\RELEASE\BTFIXEDCONSTRAINT.OBJ
H:\AGAMEDEV\ENGINE\DRAGONGAME\BULLETDYNAMICS\RELEASE\BTCONTACTCONSTRAINT.OBJ
H:\AGAMEDEV\ENGINE\DRAGONGAME\BULLETDYNAMICS\RELEASE\BTCONETWISTCONSTRAINT.OBJ
H:\AGAMEDEV\ENGINE\DRAGONGAME\BULLETDYNAMICS\RELEASE\BTKINEMATICCHARACTERCONTROLLER.OBJ
H:\AGAMEDEV\ENGINE\DRAGONGAME\BULLETDYNAMICS\RELEASE\BTWHEELINFO.OBJ
H:\AGAMEDEV\ENGINE\DRAGONGAME\BULLETDYNAMICS\RELEASE\BTRAYCASTVEHICLE.OBJ
H:\AGAMEDEV\ENGINE\DRAGONGAME\BULLETDYNAMICS\RELEASE\BTMLCPSOLVER.OBJ
H:\AGAMEDEV\ENGINE\DRAGONGAME\BULLETDYNAMICS\RELEASE\BTLEMKEALGORITHM.OBJ
H:\AGAMEDEV\ENGINE\DRAGONGAME\BULLETDYNAMICS\RELEASE\BTDANTZIGLCP.OBJ
H:\AGAMEDEV\ENGINE\DRAGONGAME\BULLETDYNAMICS\RELEASE\BTMULTIBODYSLIDERCONSTRAINT.OBJ
H:\AGAMEDEV\ENGINE\DRAGONGAME\BULLETDYNAMICS\RELEASE\BTMULTIBODYPOINT2POINT.OBJ
H:\AGAMEDEV\ENGINE\DRAGONGAME\BULLETDYNAMICS\RELEASE\BTMULTIBODYJOINTMOTOR.OBJ
H:\AGAMEDEV\ENGINE\DRAGONGAME\BULLETDYNAMICS\RELEASE\BTMULTIBODYJOINTLIMITCONSTRAINT.OBJ
H:\AGAMEDEV\ENGINE\DRAGONGAME\BULLETDYNAMICS\RELEASE\BTMULTIBODYGEARCONSTRAINT.OBJ
H:\AGAMEDEV\ENGINE\DRAGONGAME\BULLETDYNAMICS\RELEASE\BTMULTIBODYFIXEDCONSTRAINT.OBJ
H:\AGAMEDEV\ENGINE\DRAGONGAME\BULLETDYNAMICS\RELEASE\BTMULTIBODYDYNAMICSWORLD.OBJ
H:\AGAMEDEV\ENGINE\DRAGONGAME\BULLETDYNAMICS\RELEASE\BTMULTIBODYCONSTRAINTSOLVER.OBJ
H:\AGAMEDEV\ENGINE\DRAGONGAME\BULLETDYNAMICS\RELEASE\BTMULTIBODYCONSTRAINT.OBJ
H:\AGAMEDEV\ENGINE\DRAGONGAME\BULLETDYNAMICS\RELEASE\BTMULTIBODY.OBJ
H:\AGAMEDEV\ENGINE\DRAGONGAME\BULLETDYNAMICS\RELEASE\BTSIMULATIONISLANDMANAGERMT.OBJ
H:\AGAMEDEV\ENGINE\DRAGONGAME\BULLETDYNAMICS\RELEASE\BTSIMPLEDYNAMICSWORLD.OBJ
^H:\AGAMEDEV\ENGINE\DRAGONGAME\MIDDLEWARE\BULLET3-MASTER\SRC\BULLETDYNAMICS\MLCPSOLVERS\BTDANTZIGLCP.CPP
H:\AGAMEDEV\ENGINE\DRAGONGAME\BULLETDYNAMICS\RELEASE\BULLETDYNAMICS.PDB
^H:\AGAMEDEV\ENGINE\DRAGONGAME\MIDDLEWARE\BULLET3-MASTER\SRC\BULLETDYNAMICS\MLCPSOLVERS\BTLEMKEALGORITHM.CPP
H:\AGAMEDEV\ENGINE\DRAGONGAME\BULLETDYNAMICS\RELEASE\BULLETDYNAMICS.PDB
^H:\AGAMEDEV\ENGINE\DRAGONGAME\MIDDLEWARE\BULLET3-MASTER\SRC\BULLETDYNAMICS\CHARACTER\BTKINEMATICCHARACTERCONTROLLER.CPP|H:\AGAMEDEV\ENGINE\DRAGONGAME\MIDDLEWARE\BULLET3-MASTER\SRC\BULLETDYNAMICS\CONSTRAINTSOLVER\BTCONETWISTCONSTRAINT.CPP|H:\AGAMEDEV\ENGINE\DRAGONGAME\MIDDLEWARE\BULLET3-MASTER\SRC\BULLETDYNAMICS\CONSTRAINTSOLVER\BTCONTACTCONSTRAINT.CPP|H:\AGAMEDEV\ENGINE\DRAGONGAME\MIDDLEWARE\BULLET3-MASTER\SRC\BULLETDYNAMICS\CONSTRAINTSOLVER\BTFIXEDCONSTRAINT.CPP|H:\AGAMEDEV\ENGINE\DRAGONGAME\MIDDLEWARE\BULLET3-MASTER\SRC\BULLETDYNAMICS\CONSTRAINTSOLVER\BTGEARCONSTRAINT.CPP|H:\AGAMEDEV\ENGINE\DRAGONGAME\MIDDLEWARE\BULLET3-MASTER\SRC\BULLETDYNAMICS\CONSTRAINTSOLVER\BTGENERIC6DOFCONSTRAINT.CPP|H:\AGAMEDEV\ENGINE\DRAGONGAME\MIDDLEWARE\BULLET3-MASTER\SRC\BULLETDYNAMICS\CONSTRAINTSOLVER\BTGENERIC6DOFSPRING2CONSTRAINT.CPP|H:\AGAMEDEV\ENGINE\DRAGONGAME\MIDDLEWARE\BULLET3-MASTER\SRC\BULLETDYNAMICS\CONSTRAINTSOLVER\BTGENERIC6DOFSPRINGCONSTRAINT.CPP|H:\AGAMEDEV\ENGINE\DRAGONGAME\MIDDLEWARE\BULLET3-MASTER\SRC\BULLETDYNAMICS\CONSTRAINTSOLVER\BTHINGE2CONSTRAINT.CPP|H:\AGAMEDEV\ENGINE\DRAGONGAME\MIDDLEWARE\BULLET3-MASTER\SRC\BULLETDYNAMICS\CONSTRAINTSOLVER\BTHINGECONSTRAINT.CPP|H:\AGAMEDEV\ENGINE\DRAGONGAME\MIDDLEWARE\BULLET3-MASTER\SRC\BULLETDYNAMICS\CONSTRAINTSOLVER\BTNNCGCONSTRAINTSOLVER.CPP|H:\AGAMEDEV\ENGINE\DRAGONGAME\MIDDLEWARE\BULLET3-MASTER\SRC\BULLETDYNAMICS\CONSTRAINTSOLVER\BTPOINT2POINTCONSTRAINT.CPP|H:\AGAMEDEV\ENGINE\DRAGONGAME\MIDDLEWARE\BULLET3-MASTER\SRC\BULLETDYNAMICS\CONSTRAINTSOLVER\BTSEQUENTIALIMPULSECONSTRAINTSOLVER.CPP|H:\AGAMEDEV\ENGINE\DRAGONGAME\MIDDLEWARE\BULLET3-MASTER\SRC\BULLETDYNAMICS\CONSTRAINTSOLVER\BTSLIDERCONSTRAINT.CPP|H:\AGAMEDEV\ENGINE\DRAGONGAME\MIDDLEWARE\BULLET3-MASTER\SRC\BULLETDYNAMICS\CONSTRAINTSOLVER\BTSOLVE2LINEARCONSTRAINT.CPP|H:\AGAMEDEV\ENGINE\DRAGONGAME\MIDDLEWARE\BULLET3-MASTER\SRC\BULLETDYNAMICS\CONSTRAINTSOLVER\BTTYPEDCONSTRAINT.CPP|H:\AGAMEDEV\ENGINE\DRAGONGAME\MIDDLEWARE\BULLET3-MASTER\SRC\BULLETDYNAMICS\CONSTRAINTSOLVER\BTUNIVERSALCONSTRAINT.CPP|H:\AGAMEDEV\ENGINE\DRAGONGAME\MIDDLEWARE\BULLET3-MASTER\SRC\BULLETDYNAMICS\DYNAMICS\BTDISCRETEDYNAMICSWORLD.CPP|H:\AGAMEDEV\ENGINE\DRAGONGAME\MIDDLEWARE\BULLET3-MASTER\SRC\BULLETDYNAMICS\DYNAMICS\BTDISCRETEDYNAMICSWORLDMT.CPP|H:\AGAMEDEV\ENGINE\DRAGONGAME\MIDDLEWARE\BULLET3-MASTER\SRC\BULLETDYNAMICS\DYNAMICS\BTRIGIDBODY.CPP|H:\AGAMEDEV\ENGINE\DRAGONGAME\MIDDLEWARE\BULLET3-MASTER\SRC\BULLETDYNAMICS\DYNAMICS\BTSIMPLEDYNAMICSWORLD.CPP|H:\AGAMEDEV\ENGINE\DRAGONGAME\MIDDLEWARE\BULLET3-MASTER\SRC\BULLETDYNAMICS\DYNAMICS\BTSIMULATIONISLANDMANAGERMT.CPP|H:\AGAMEDEV\ENGINE\DRAGONGAME\MIDDLEWARE\BULLET3-MASTER\SRC\BULLETDYNAMICS\FEATHERSTONE\BTMULTIBODY.CPP|H:\AGAMEDEV\ENGINE\DRAGONGAME\MIDDLEWARE\BULLET3-MASTER\SRC\BULLETDYNAMICS\FEATHERSTONE\BTMULTIBODYCONSTRAINT.CPP|H:\AGAMEDEV\ENGINE\DRAGONGAME\MIDDLEWARE\BULLET3-MASTER\SRC\BULLETDYNAMICS\FEATHERSTONE\BTMULTIBODYCONSTRAINTSOLVER.CPP|H:\AGAMEDEV\ENGINE\DRAGONGAME\MIDDLEWARE\BULLET3-MASTER\SRC\BULLETDYNAMICS\FEATHERSTONE\BTMULTIBODYDYNAMICSWORLD.CPP|H:\AGAMEDEV\ENGINE\DRAGONGAME\MIDDLEWARE\BULLET3-MASTER\SRC\BULLETDYNAMICS\FEATHERSTONE\BTMULTIBODYFIXEDCONSTRAINT.CPP|H:\AGAMEDEV\ENGINE\DRAGONGAME\MIDDLEWARE\BULLET3-MASTER\SRC\BULLETDYNAMICS\FEATHERSTONE\BTMULTIBODYGEARCONSTRAINT.CPP|H:\AGAMEDEV\ENGINE\DRAGONGAME\MIDDLEWARE\BULLET3-MASTER\SRC\BULLETDYNAMICS\FEATHERSTONE\BTMULTIBODYJOINTLIMITCONSTRAINT.CPP|H:\AGAMEDEV\ENGINE\DRAGONGAME\MIDDLEWARE\BULLET3-MASTER\SRC\BULLETDYNAMICS\FEATHERSTONE\BTMULTIBODYJOINTMOTOR.CPP|H:\AGAMEDEV\ENGINE\DRAGONGAME\MIDDLEWARE\BULLET3-MASTER\SRC\BULLETDYNAMICS\FEATHERSTONE\BTMULTIBODYPOINT2POINT.CPP|H:\AGAMEDEV\ENGINE\DRAGONGAME\MIDDLEWARE\BULLET3-MASTER\SRC\BULLETDYNAMICS\FEATHERSTONE\BTMULTIBODYSLIDERCONSTRAINT.CPP|H:\AGAMEDEV\ENGINE\DRAGONGAME\MIDDLEWARE\BULLET3-MASTER\SRC\BULLETDYNAMICS\MLCPSOLVERS\BTMLCPSOLVER.CPP|H:\AGAMEDEV\ENGINE\DRAGONGAME\MIDDLEWARE\BULLET3-MASTER\SRC\BULLETDYNAMICS\VEHICLE\BTRAYCASTVEHICLE.CPP|H:\AGAMEDEV\ENGINE\DRAGONGAME\MIDDLEWARE\BULLET3-MASTER\SRC\BULLETDYNAMICS\VEHICLE\BTWHEELINFO.CPP
H:\AGAMEDEV\ENGINE\DRAGONGAME\BULLETDYNAMICS\RELEASE\BTRIGIDBODY.OBJ
H:\AGAMEDEV\ENGINE\DRAGONGAME\BULLETDYNAMICS\RELEASE\BTDISCRETEDYNAMICSWORLDMT.OBJ
H:\AGAMEDEV\ENGINE\DRAGONGAME\BULLETDYNAMICS\RELEASE\BTDISCRETEDYNAMICSWORLD.OBJ
H:\AGAMEDEV\ENGINE\DRAGONGAME\BULLETDYNAMICS\RELEASE\BTUNIVERSALCONSTRAINT.OBJ
H:\AGAMEDEV\ENGINE\DRAGONGAME\BULLETDYNAMICS\RELEASE\BTTYPEDCONSTRAINT.OBJ
H:\AGAMEDEV\ENGINE\DRAGONGAME\BULLETDYNAMICS\RELEASE\BTSOLVE2LINEARCONSTRAINT.OBJ
H:\AGAMEDEV\ENGINE\DRAGONGAME\BULLETDYNAMICS\RELEASE\BTSLIDERCONSTRAINT.OBJ
H:\AGAMEDEV\ENGINE\DRAGONGAME\BULLETDYNAMICS\RELEASE\BTSEQUENTIALIMPULSECONSTRAINTSOLVER.OBJ
H:\AGAMEDEV\ENGINE\DRAGONGAME\BULLETDYNAMICS\RELEASE\BTPOINT2POINTCONSTRAINT.OBJ
H:\AGAMEDEV\ENGINE\DRAGONGAME\BULLETDYNAMICS\RELEASE\BTNNCGCONSTRAINTSOLVER.OBJ
H:\AGAMEDEV\ENGINE\DRAGONGAME\BULLETDYNAMICS\RELEASE\BTHINGECONSTRAINT.OBJ
H:\AGAMEDEV\ENGINE\DRAGONGAME\BULLETDYNAMICS\RELEASE\BTHINGE2CONSTRAINT.OBJ
H:\AGAMEDEV\ENGINE\DRAGONGAME\BULLETDYNAMICS\RELEASE\BTGENERIC6DOFSPRINGCONSTRAINT.OBJ
H:\AGAMEDEV\ENGINE\DRAGONGAME\BULLETDYNAMICS\RELEASE\BTGENERIC6DOFSPRING2CONSTRAINT.OBJ
H:\AGAMEDEV\ENGINE\DRAGONGAME\BULLETDYNAMICS\RELEASE\BTGENERIC6DOFCONSTRAINT.OBJ
H:\AGAMEDEV\ENGINE\DRAGONGAME\BULLETDYNAMICS\RELEASE\BTGEARCONSTRAINT.OBJ
H:\AGAMEDEV\ENGINE\DRAGONGAME\BULLETDYNAMICS\RELEASE\BTFIXEDCONSTRAINT.OBJ
H:\AGAMEDEV\ENGINE\DRAGONGAME\BULLETDYNAMICS\RELEASE\BTCONTACTCONSTRAINT.OBJ
H:\AGAMEDEV\ENGINE\DRAGONGAME\BULLETDYNAMICS\RELEASE\BTCONETWISTCONSTRAINT.OBJ
H:\AGAMEDEV\ENGINE\DRAGONGAME\BULLETDYNAMICS\RELEASE\BTKINEMATICCHARACTERCONTROLLER.OBJ
H:\AGAMEDEV\ENGINE\DRAGONGAME\BULLETDYNAMICS\RELEASE\BTWHEELINFO.OBJ
H:\AGAMEDEV\ENGINE\DRAGONGAME\BULLETDYNAMICS\RELEASE\BTRAYCASTVEHICLE.OBJ
H:\AGAMEDEV\ENGINE\DRAGONGAME\BULLETDYNAMICS\RELEASE\BTMLCPSOLVER.OBJ
H:\AGAMEDEV\ENGINE\DRAGONGAME\BULLETDYNAMICS\RELEASE\BTMULTIBODYSLIDERCONSTRAINT.OBJ
H:\AGAMEDEV\ENGINE\DRAGONGAME\BULLETDYNAMICS\RELEASE\BTMULTIBODYPOINT2POINT.OBJ
H:\AGAMEDEV\ENGINE\DRAGONGAME\BULLETDYNAMICS\RELEASE\BTMULTIBODYJOINTMOTOR.OBJ
H:\AGAMEDEV\ENGINE\DRAGONGAME\BULLETDYNAMICS\RELEASE\BTMULTIBODYJOINTLIMITCONSTRAINT.OBJ
H:\AGAMEDEV\ENGINE\DRAGONGAME\BULLETDYNAMICS\RELEASE\BTMULTIBODYGEARCONSTRAINT.OBJ
H:\AGAMEDEV\ENGINE\DRAGONGAME\BULLETDYNAMICS\RELEASE\BTMULTIBODYFIXEDCONSTRAINT.OBJ
H:\AGAMEDEV\ENGINE\DRAGONGAME\BULLETDYNAMICS\RELEASE\BTMULTIBODYDYNAMICSWORLD.OBJ
H:\AGAMEDEV\ENGINE\DRAGONGAME\BULLETDYNAMICS\RELEASE\BTMULTIBODYCONSTRAINTSOLVER.OBJ
H:\AGAMEDEV\ENGINE\DRAGONGAME\BULLETDYNAMICS\RELEASE\BTMULTIBODYCONSTRAINT.OBJ
H:\AGAMEDEV\ENGINE\DRAGONGAME\BULLETDYNAMICS\RELEASE\BTMULTIBODY.OBJ
H:\AGAMEDEV\ENGINE\DRAGONGAME\BULLETDYNAMICS\RELEASE\BTSIMULATIONISLANDMANAGERMT.OBJ
H:\AGAMEDEV\ENGINE\DRAGONGAME\BULLETDYNAMICS\RELEASE\BTSIMPLEDYNAMICSWORLD.OBJ
^H:\AGAMEDEV\ENGINE\DRAGONGAME\MIDDLEWARE\BULLET3-MASTER\SRC\BULLETDYNAMICS\CHARACTER\BTKINEMATICCHARACTERCONTROLLER.CPP
H:\AGAMEDEV\ENGINE\DRAGONGAME\BULLETDYNAMICS\RELEASE\BULLETDYNAMICS.PDB
^H:\AGAMEDEV\ENGINE\DRAGONGAME\MIDDLEWARE\BULLET3-MASTER\SRC\BULLETDYNAMICS\CONSTRAINTSOLVER\BTCONETWISTCONSTRAINT.CPP
H:\AGAMEDEV\ENGINE\DRAGONGAME\BULLETDYNAMICS\RELEASE\BULLETDYNAMICS.PDB
^H:\AGAMEDEV\ENGINE\DRAGONGAME\MIDDLEWARE\BULLET3-MASTER\SRC\BULLETDYNAMICS\CONSTRAINTSOLVER\BTCONTACTCONSTRAINT.CPP
H:\AGAMEDEV\ENGINE\DRAGONGAME\BULLETDYNAMICS\RELEASE\BULLETDYNAMICS.PDB
^H:\AGAMEDEV\ENGINE\DRAGONGAME\MIDDLEWARE\BULLET3-MASTER\SRC\BULLETDYNAMICS\CONSTRAINTSOLVER\BTFIXEDCONSTRAINT.CPP
H:\AGAMEDEV\ENGINE\DRAGONGAME\BULLETDYNAMICS\RELEASE\BULLETDYNAMICS.PDB
^H:\AGAMEDEV\ENGINE\DRAGONGAME\MIDDLEWARE\BULLET3-MASTER\SRC\BULLETDYNAMICS\CONSTRAINTSOLVER\BTGEARCONSTRAINT.CPP
H:\AGAMEDEV\ENGINE\DRAGONGAME\BULLETDYNAMICS\RELEASE\BULLETDYNAMICS.PDB
^H:\AGAMEDEV\ENGINE\DRAGONGAME\MIDDLEWARE\BULLET3-MASTER\SRC\BULLETDYNAMICS\CONSTRAINTSOLVER\BTGENERIC6DOFCONSTRAINT.CPP
H:\AGAMEDEV\ENGINE\DRAGONGAME\BULLETDYNAMICS\RELEASE\BULLETDYNAMICS.PDB
^H:\AGAMEDEV\ENGINE\DRAGONGAME\MIDDLEWARE\BULLET3-MASTER\SRC\BULLETDYNAMICS\CONSTRAINTSOLVER\BTGENERIC6DOFSPRING2CONSTRAINT.CPP
H:\AGAMEDEV\ENGINE\DRAGONGAME\BULLETDYNAMICS\RELEASE\BULLETDYNAMICS.PDB
^H:\AGAMEDEV\ENGINE\DRAGONGAME\MIDDLEWARE\BULLET3-MASTER\SRC\BULLETDYNAMICS\CONSTRAINTSOLVER\BTGENERIC6DOFSPRINGCONSTRAINT.CPP
H:\AGAMEDEV\ENGINE\DRAGONGAME\BULLETDYNAMICS\RELEASE\BULLETDYNAMICS.PDB
^H:\AGAMEDEV\ENGINE\DRAGONGAME\MIDDLEWARE\BULLET3-MASTER\SRC\BULLETDYNAMICS\CONSTRAINTSOLVER\BTHINGE2CONSTRAINT.CPP
H:\AGAMEDEV\ENGINE\DRAGONGAME\BULLETDYNAMICS\RELEASE\BULLETDYNAMICS.PDB
^H:\AGAMEDEV\ENGINE\DRAGONGAME\MIDDLEWARE\BULLET3-MASTER\SRC\BULLETDYNAMICS\CONSTRAINTSOLVER\BTHINGECONSTRAINT.CPP
H:\AGAMEDEV\ENGINE\DRAGONGAME\BULLETDYNAMICS\RELEASE\BULLETDYNAMICS.PDB
^H:\AGAMEDEV\ENGINE\DRAGONGAME\MIDDLEWARE\BULLET3-MASTER\SRC\BULLETDYNAMICS\CONSTRAINTSOLVER\BTNNCGCONSTRAINTSOLVER.CPP
H:\AGAMEDEV\ENGINE\DRAGONGAME\BULLETDYNAMICS\RELEASE\BULLETDYNAMICS.PDB
^H:\AGAMEDEV\ENGINE\DRAGONGAME\MIDDLEWARE\BULLET3-MASTER\SRC\BULLETDYNAMICS\CONSTRAINTSOLVER\BTPOINT2POINTCONSTRAINT.CPP
H:\AGAMEDEV\ENGINE\DRAGONGAME\BULLETDYNAMICS\RELEASE\BULLETDYNAMICS.PDB
^H:\AGAMEDEV\ENGINE\DRAGONGAME\MIDDLEWARE\BULLET3-MASTER\SRC\BULLETDYNAMICS\CONSTRAINTSOLVER\BTSEQUENTIALIMPULSECONSTRAINTSOLVER.CPP
H:\AGAMEDEV\ENGINE\DRAGONGAME\BULLETDYNAMICS\RELEASE\BULLETDYNAMICS.PDB
^H:\AGAMEDEV\ENGINE\DRAGONGAME\MIDDLEWARE\BULLET3-MASTER\SRC\BULLETDYNAMICS\CONSTRAINTSOLVER\BTSLIDERCONSTRAINT.CPP
H:\AGAMEDEV\ENGINE\DRAGONGAME\BULLETDYNAMICS\RELEASE\BULLETDYNAMICS.PDB
^H:\AGAMEDEV\ENGINE\DRAGONGAME\MIDDLEWARE\BULLET3-MASTER\SRC\BULLETDYNAMICS\CONSTRAINTSOLVER\BTSOLVE2LINEARCONSTRAINT.CPP
H:\AGAMEDEV\ENGINE\DRAGONGAME\BULLETDYNAMICS\RELEASE\BULLETDYNAMICS.PDB
^H:\AGAMEDEV\ENGINE\DRAGONGAME\MIDDLEWARE\BULLET3-MASTER\SRC\BULLETDYNAMICS\CONSTRAINTSOLVER\BTTYPEDCONSTRAINT.CPP
H:\AGAMEDEV\ENGINE\DRAGONGAME\BULLETDYNAMICS\RELEASE\BULLETDYNAMICS.PDB
^H:\AGAMEDEV\ENGINE\DRAGONGAME\MIDDLEWARE\BULLET3-MASTER\SRC\BULLETDYNAMICS\CONSTRAINTSOLVER\BTUNIVERSALCONSTRAINT.CPP
H:\AGAMEDEV\ENGINE\DRAGONGAME\BULLETDYNAMICS\RELEASE\BULLETDYNAMICS.PDB
^H:\AGAMEDEV\ENGINE\DRAGONGAME\MIDDLEWARE\BULLET3-MASTER\SRC\BULLETDYNAMICS\DYNAMICS\BTDISCRETEDYNAMICSWORLD.CPP
H:\AGAMEDEV\ENGINE\DRAGONGAME\BULLETDYNAMICS\RELEASE\BULLETDYNAMICS.PDB
^H:\AGAMEDEV\ENGINE\DRAGONGAME\MIDDLEWARE\BULLET3-MASTER\SRC\BULLETDYNAMICS\DYNAMICS\BTDISCRETEDYNAMICSWORLDMT.CPP
H:\AGAMEDEV\ENGINE\DRAGONGAME\BULLETDYNAMICS\RELEASE\BULLETDYNAMICS.PDB
^H:\AGAMEDEV\ENGINE\DRAGONGAME\MIDDLEWARE\BULLET3-MASTER\SRC\BULLETDYNAMICS\DYNAMICS\BTRIGIDBODY.CPP
H:\AGAMEDEV\ENGINE\DRAGONGAME\BULLETDYNAMICS\RELEASE\BULLETDYNAMICS.PDB
^H:\AGAMEDEV\ENGINE\DRAGONGAME\MIDDLEWARE\BULLET3-MASTER\SRC\BULLETDYNAMICS\DYNAMICS\BTSIMPLEDYNAMICSWORLD.CPP
H:\AGAMEDEV\ENGINE\DRAGONGAME\BULLETDYNAMICS\RELEASE\BULLETDYNAMICS.PDB
^H:\AGAMEDEV\ENGINE\DRAGONGAME\MIDDLEWARE\BULLET3-MASTER\SRC\BULLETDYNAMICS\DYNAMICS\BTSIMULATIONISLANDMANAGERMT.CPP
H:\AGAMEDEV\ENGINE\DRAGONGAME\BULLETDYNAMICS\RELEASE\BULLETDYNAMICS.PDB
^H:\AGAMEDEV\ENGINE\DRAGONGAME\MIDDLEWARE\BULLET3-MASTER\SRC\BULLETDYNAMICS\FEATHERSTONE\BTMULTIBODY.CPP
H:\AGAMEDEV\ENGINE\DRAGONGAME\BULLETDYNAMICS\RELEASE\BULLETDYNAMICS.PDB
^H:\AGAMEDEV\ENGINE\DRAGONGAME\MIDDLEWARE\BULLET3-MASTER\SRC\BULLETDYNAMICS\FEATHERSTONE\BTMULTIBODYCONSTRAINT.CPP
H:\AGAMEDEV\ENGINE\DRAGONGAME\BULLETDYNAMICS\RELEASE\BULLETDYNAMICS.PDB
^H:\AGAMEDEV\ENGINE\DRAGONGAME\MIDDLEWARE\BULLET3-MASTER\SRC\BULLETDYNAMICS\FEATHERSTONE\BTMULTIBODYCONSTRAINTSOLVER.CPP
H:\AGAMEDEV\ENGINE\DRAGONGAME\BULLETDYNAMICS\RELEASE\BULLETDYNAMICS.PDB
^H:\AGAMEDEV\ENGINE\DRAGONGAME\MIDDLEWARE\BULLET3-MASTER\SRC\BULLETDYNAMICS\FEATHERSTONE\BTMULTIBODYDYNAMICSWORLD.CPP
H:\AGAMEDEV\ENGINE\DRAGONGAME\BULLETDYNAMICS\RELEASE\BULLETDYNAMICS.PDB
^H:\AGAMEDEV\ENGINE\DRAGONGAME\MIDDLEWARE\BULLET3-MASTER\SRC\BULLETDYNAMICS\FEATHERSTONE\BTMULTIBODYFIXEDCONSTRAINT.CPP
H:\AGAMEDEV\ENGINE\DRAGONGAME\BULLETDYNAMICS\RELEASE\BULLETDYNAMICS.PDB
^H:\AGAMEDEV\ENGINE\DRAGONGAME\MIDDLEWARE\BULLET3-MASTER\SRC\BULLETDYNAMICS\FEATHERSTONE\BTMULTIBODYGEARCONSTRAINT.CPP
H:\AGAMEDEV\ENGINE\DRAGONGAME\BULLETDYNAMICS\RELEASE\BULLETDYNAMICS.PDB
^H:\AGAMEDEV\ENGINE\DRAGONGAME\MIDDLEWARE\BULLET3-MASTER\SRC\BULLETDYNAMICS\FEATHERSTONE\BTMULTIBODYJOINTLIMITCONSTRAINT.CPP
H:\AGAMEDEV\ENGINE\DRAGONGAME\BULLETDYNAMICS\RELEASE\BULLETDYNAMICS.PDB
^H:\AGAMEDEV\ENGINE\DRAGONGAME\MIDDLEWARE\BULLET3-MASTER\SRC\BULLETDYNAMICS\FEATHERSTONE\BTMULTIBODYJOINTMOTOR.CPP
H:\AGAMEDEV\ENGINE\DRAGONGAME\BULLETDYNAMICS\RELEASE\BULLETDYNAMICS.PDB
^H:\AGAMEDEV\ENGINE\DRAGONGAME\MIDDLEWARE\BULLET3-MASTER\SRC\BULLETDYNAMICS\FEATHERSTONE\BTMULTIBODYPOINT2POINT.CPP
H:\AGAMEDEV\ENGINE\DRAGONGAME\BULLETDYNAMICS\RELEASE\BULLETDYNAMICS.PDB
^H:\AGAMEDEV\ENGINE\DRAGONGAME\MIDDLEWARE\BULLET3-MASTER\SRC\BULLETDYNAMICS\FEATHERSTONE\BTMULTIBODYSLIDERCONSTRAINT.CPP
H:\AGAMEDEV\ENGINE\DRAGONGAME\BULLETDYNAMICS\RELEASE\BULLETDYNAMICS.PDB
^H:\AGAMEDEV\ENGINE\DRAGONGAME\MIDDLEWARE\BULLET3-MASTER\SRC\BULLETDYNAMICS\MLCPSOLVERS\BTMLCPSOLVER.CPP
H:\AGAMEDEV\ENGINE\DRAGONGAME\BULLETDYNAMICS\RELEASE\BULLETDYNAMICS.PDB
^H:\AGAMEDEV\ENGINE\DRAGONGAME\MIDDLEWARE\BULLET3-MASTER\SRC\BULLETDYNAMICS\VEHICLE\BTRAYCASTVEHICLE.CPP
H:\AGAMEDEV\ENGINE\DRAGONGAME\BULLETDYNAMICS\RELEASE\BULLETDYNAMICS.PDB
^H:\AGAMEDEV\ENGINE\DRAGONGAME\MIDDLEWARE\BULLET3-MASTER\SRC\BULLETDYNAMICS\VEHICLE\BTWHEELINFO.CPP
H:\AGAMEDEV\ENGINE\DRAGONGAME\BULLETDYNAMICS\RELEASE\BULLETDYNAMICS.PDB
^C:\USERS\B4044959\DOCUMENTS\PORTFOLIO\PORTFOLIO\GAME ENGINE\DRAGONGAME\MIDDLEWARE\BULLET3-MASTER\SRC\BULLETDYNAMICS\CHARACTER\BTKINEMATICCHARACTERCONTROLLER.CPP|C:\USERS\B4044959\DOCUMENTS\PORTFOLIO\PORTFOLIO\GAME ENGINE\DRAGONGAME\MIDDLEWARE\BULLET3-MASTER\SRC\BULLETDYNAMICS\CONSTRAINTSOLVER\BTCONETWISTCONSTRAINT.CPP|C:\USERS\B4044959\DOCUMENTS\PORTFOLIO\PORTFOLIO\GAME ENGINE\DRAGONGAME\MIDDLEWARE\BULLET3-MASTER\SRC\BULLETDYNAMICS\CONSTRAINTSOLVER\BTCONTACTCONSTRAINT.CPP|C:\USERS\B4044959\DOCUMENTS\PORTFOLIO\PORTFOLIO\GAME ENGINE\DRAGONGAME\MIDDLEWARE\BULLET3-MASTER\SRC\BULLETDYNAMICS\CONSTRAINTSOLVER\BTFIXEDCONSTRAINT.CPP|C:\USERS\B4044959\DOCUMENTS\PORTFOLIO\PORTFOLIO\GAME ENGINE\DRAGONGAME\MIDDLEWARE\BULLET3-MASTER\SRC\BULLETDYNAMICS\CONSTRAINTSOLVER\BTGEARCONSTRAINT.CPP|C:\USERS\B4044959\DOCUMENTS\PORTFOLIO\PORTFOLIO\GAME ENGINE\DRAGONGAME\MIDDLEWARE\BULLET3-MASTER\SRC\BULLETDYNAMICS\CONSTRAINTSOLVER\BTGENERIC6DOFCONSTRAINT.CPP|C:\USERS\B4044959\DOCUMENTS\PORTFOLIO\PORTFOLIO\GAME ENGINE\DRAGONGAME\MIDDLEWARE\BULLET3-MASTER\SRC\BULLETDYNAMICS\CONSTRAINTSOLVER\BTGENERIC6DOFSPRING2CONSTRAINT.CPP|C:\USERS\B4044959\DOCUMENTS\PORTFOLIO\PORTFOLIO\GAME ENGINE\DRAGONGAME\MIDDLEWARE\BULLET3-MASTER\SRC\BULLETDYNAMICS\CONSTRAINTSOLVER\BTGENERIC6DOFSPRINGCONSTRAINT.CPP|C:\USERS\B4044959\DOCUMENTS\PORTFOLIO\PORTFOLIO\GAME ENGINE\DRAGONGAME\MIDDLEWARE\BULLET3-MASTER\SRC\BULLETDYNAMICS\CONSTRAINTSOLVER\BTHINGE2CONSTRAINT.CPP|C:\USERS\B4044959\DOCUMENTS\PORTFOLIO\PORTFOLIO\GAME ENGINE\DRAGONGAME\MIDDLEWARE\BULLET3-MASTER\SRC\BULLETDYNAMICS\CONSTRAINTSOLVER\BTHINGECONSTRAINT.CPP|C:\USERS\B4044959\DOCUMENTS\PORTFOLIO\PORTFOLIO\GAME ENGINE\DRAGONGAME\MIDDLEWARE\BULLET3-MASTER\SRC\BULLETDYNAMICS\CONSTRAINTSOLVER\BTNNCGCONSTRAINTSOLVER.CPP|C:\USERS\B4044959\DOCUMENTS\PORTFOLIO\PORTFOLIO\GAME ENGINE\DRAGONGAME\MIDDLEWARE\BULLET3-MASTER\SRC\BULLETDYNAMICS\CONSTRAINTSOLVER\BTPOINT2POINTCONSTRAINT.CPP|C:\USERS\B4044959\DOCUMENTS\PORTFOLIO\PORTFOLIO\GAME ENGINE\DRAGONGAME\MIDDLEWARE\BULLET3-MASTER\SRC\BULLETDYNAMICS\CONSTRAINTSOLVER\BTSEQUENTIALIMPULSECONSTRAINTSOLVER.CPP|C:\USERS\B4044959\DOCUMENTS\PORTFOLIO\PORTFOLIO\GAME ENGINE\DRAGONGAME\MIDDLEWARE\BULLET3-MASTER\SRC\BULLETDYNAMICS\CONSTRAINTSOLVER\BTSLIDERCONSTRAINT.CPP|C:\USERS\B4044959\DOCUMENTS\PORTFOLIO\PORTFOLIO\GAME ENGINE\DRAGONGAME\MIDDLEWARE\BULLET3-MASTER\SRC\BULLETDYNAMICS\CONSTRAINTSOLVER\BTSOLVE2LINEARCONSTRAINT.CPP|C:\USERS\B4044959\DOCUMENTS\PORTFOLIO\PORTFOLIO\GAME ENGINE\DRAGONGAME\MIDDLEWARE\BULLET3-MASTER\SRC\BULLETDYNAMICS\CONSTRAINTSOLVER\BTTYPEDCONSTRAINT.CPP|C:\USERS\B4044959\DOCUMENTS\PORTFOLIO\PORTFOLIO\GAME ENGINE\DRAGONGAME\MIDDLEWARE\BULLET3-MASTER\SRC\BULLETDYNAMICS\CONSTRAINTSOLVER\BTUNIVERSALCONSTRAINT.CPP|C:\USERS\B4044959\DOCUMENTS\PORTFOLIO\PORTFOLIO\GAME ENGINE\DRAGONGAME\MIDDLEWARE\BULLET3-MASTER\SRC\BULLETDYNAMICS\DYNAMICS\BTDISCRETEDYNAMICSWORLD.CPP|C:\USERS\B4044959\DOCUMENTS\PORTFOLIO\PORTFOLIO\GAME ENGINE\DRAGONGAME\MIDDLEWARE\BULLET3-MASTER\SRC\BULLETDYNAMICS\DYNAMICS\BTDISCRETEDYNAMICSWORLDMT.CPP|C:\USERS\B4044959\DOCUMENTS\PORTFOLIO\PORTFOLIO\GAME ENGINE\DRAGONGAME\MIDDLEWARE\BULLET3-MASTER\SRC\BULLETDYNAMICS\DYNAMICS\BTRIGIDBODY.CPP|C:\USERS\B4044959\DOCUMENTS\PORTFOLIO\PORTFOLIO\GAME ENGINE\DRAGONGAME\MIDDLEWARE\BULLET3-MASTER\SRC\BULLETDYNAMICS\DYNAMICS\BTSIMPLEDYNAMICSWORLD.CPP|C:\USERS\B4044959\DOCUMENTS\PORTFOLIO\PORTFOLIO\GAME ENGINE\DRAGONGAME\MIDDLEWARE\BULLET3-MASTER\SRC\BULLETDYNAMICS\DYNAMICS\BTSIMULATIONISLANDMANAGERMT.CPP|C:\USERS\B4044959\DOCUMENTS\PORTFOLIO\PORTFOLIO\GAME ENGINE\DRAGONGAME\MIDDLEWARE\BULLET3-MASTER\SRC\BULLETDYNAMICS\FEATHERSTONE\BTMULTIBODY.CPP|C:\USERS\B4044959\DOCUMENTS\PORTFOLIO\PORTFOLIO\GAME ENGINE\DRAGONGAME\MIDDLEWARE\BULLET3-MASTER\SRC\BULLETDYNAMICS\FEATHERSTONE\BTMULTIBODYCONSTRAINT.CPP|C:\USERS\B4044959\DOCUMENTS\PORTFOLIO\PORTFOLIO\GAME ENGINE\DRAGONGAME\MIDDLEWARE\BULLET3-MASTER\SRC\BULLETDYNAMICS\FEATHERSTONE\BTMULTIBODYCONSTRAINTSOLVER.CPP|C:\USERS\B4044959\DOCUMENTS\PORTFOLIO\PORTFOLIO\GAME ENGINE\DRAGONGAME\MIDDLEWARE\BULLET3-MASTER\SRC\BULLETDYNAMICS\FEATHERSTONE\BTMULTIBODYDYNAMICSWORLD.CPP|C:\USERS\B4044959\DOCUMENTS\PORTFOLIO\PORTFOLIO\GAME ENGINE\DRAGONGAME\MIDDLEWARE\BULLET3-MASTER\SRC\BULLETDYNAMICS\FEATHERSTONE\BTMULTIBODYFIXEDCONSTRAINT.CPP|C:\USERS\B4044959\DOCUMENTS\PORTFOLIO\PORTFOLIO\GAME ENGINE\DRAGONGAME\MIDDLEWARE\BULLET3-MASTER\SRC\BULLETDYNAMICS\FEATHERSTONE\BTMULTIBODYGEARCONSTRAINT.CPP|C:\USERS\B4044959\DOCUMENTS\PORTFOLIO\PORTFOLIO\GAME ENGINE\DRAGONGAME\MIDDLEWARE\BULLET3-MASTER\SRC\BULLETDYNAMICS\FEATHERSTONE\BTMULTIBODYJOINTLIMITCONSTRAINT.CPP|C:\USERS\B4044959\DOCUMENTS\PORTFOLIO\PORTFOLIO\GAME ENGINE\DRAGONGAME\MIDDLEWARE\BULLET3-MASTER\SRC\BULLETDYNAMICS\FEATHERSTONE\BTMULTIBODYJOINTMOTOR.CPP|C:\USERS\B4044959\DOCUMENTS\PORTFOLIO\PORTFOLIO\GAME ENGINE\DRAGONGAME\MIDDLEWARE\BULLET3-MASTER\SRC\BULLETDYNAMICS\FEATHERSTONE\BTMULTIBODYPOINT2POINT.CPP|C:\USERS\B4044959\DOCUMENTS\PORTFOLIO\PORTFOLIO\GAME ENGINE\DRAGONGAME\MIDDLEWARE\BULLET3-MASTER\SRC\BULLETDYNAMICS\FEATHERSTONE\BTMULTIBODYSLIDERCONSTRAINT.CPP|C:\USERS\B4044959\DOCUMENTS\PORTFOLIO\PORTFOLIO\GAME ENGINE\DRAGONGAME\MIDDLEWARE\BULLET3-MASTER\SRC\BULLETDYNAMICS\MLCPSOLVERS\BTDANTZIGLCP.CPP|C:\USERS\B4044959\DOCUMENTS\PORTFOLIO\PORTFOLIO\GAME ENGINE\DRAGONGAME\MIDDLEWARE\BULLET3-MASTER\SRC\BULLETDYNAMICS\MLCPSOLVERS\BTLEMKEALGORITHM.CPP|C:\USERS\B4044959\DOCUMENTS\PORTFOLIO\PORTFOLIO\GAME ENGINE\DRAGONGAME\MIDDLEWARE\BULLET3-MASTER\SRC\BULLETDYNAMICS\MLCPSOLVERS\BTMLCPSOLVER.CPP|C:\USERS\B4044959\DOCUMENTS\PORTFOLIO\PORTFOLIO\GAME ENGINE\DRAGONGAME\MIDDLEWARE\BULLET3-MASTER\SRC\BULLETDYNAMICS\VEHICLE\BTRAYCASTVEHICLE.CPP|C:\USERS\B4044959\DOCUMENTS\PORTFOLIO\PORTFOLIO\GAME ENGINE\DRAGONGAME\MIDDLEWARE\BULLET3-MASTER\SRC\BULLETDYNAMICS\VEHICLE\BTWHEELINFO.CPP
C:\USERS\B4044959\DOCUMENTS\PORTFOLIO\PORTFOLIO\GAME ENGINE\DRAGONGAME\BULLETDYNAMICS\RELEASE\BULLETDYNAMICS.PDB
C:\USERS\B4044959\DOCUMENTS\PORTFOLIO\PORTFOLIO\GAME ENGINE\DRAGONGAME\BULLETDYNAMICS\RELEASE\BTRIGIDBODY.OBJ
C:\USERS\B4044959\DOCUMENTS\PORTFOLIO\PORTFOLIO\GAME ENGINE\DRAGONGAME\BULLETDYNAMICS\RELEASE\BTDISCRETEDYNAMICSWORLDMT.OBJ
C:\USERS\B4044959\DOCUMENTS\PORTFOLIO\PORTFOLIO\GAME ENGINE\DRAGONGAME\BULLETDYNAMICS\RELEASE\BTDISCRETEDYNAMICSWORLD.OBJ
C:\USERS\B4044959\DOCUMENTS\PORTFOLIO\PORTFOLIO\GAME ENGINE\DRAGONGAME\BULLETDYNAMICS\RELEASE\BTUNIVERSALCONSTRAINT.OBJ
C:\USERS\B4044959\DOCUMENTS\PORTFOLIO\PORTFOLIO\GAME ENGINE\DRAGONGAME\BULLETDYNAMICS\RELEASE\BTTYPEDCONSTRAINT.OBJ
C:\USERS\B4044959\DOCUMENTS\PORTFOLIO\PORTFOLIO\GAME ENGINE\DRAGONGAME\BULLETDYNAMICS\RELEASE\BTSOLVE2LINEARCONSTRAINT.OBJ
C:\USERS\B4044959\DOCUMENTS\PORTFOLIO\PORTFOLIO\GAME ENGINE\DRAGONGAME\BULLETDYNAMICS\RELEASE\BTSLIDERCONSTRAINT.OBJ
C:\USERS\B4044959\DOCUMENTS\PORTFOLIO\PORTFOLIO\GAME ENGINE\DRAGONGAME\BULLETDYNAMICS\RELEASE\BTSEQUENTIALIMPULSECONSTRAINTSOLVER.OBJ
C:\USERS\B4044959\DOCUMENTS\PORTFOLIO\PORTFOLIO\GAME ENGINE\DRAGONGAME\BULLETDYNAMICS\RELEASE\BTPOINT2POINTCONSTRAINT.OBJ
C:\USERS\B4044959\DOCUMENTS\PORTFOLIO\PORTFOLIO\GAME ENGINE\DRAGONGAME\BULLETDYNAMICS\RELEASE\BTNNCGCONSTRAINTSOLVER.OBJ
C:\USERS\B4044959\DOCUMENTS\PORTFOLIO\PORTFOLIO\GAME ENGINE\DRAGONGAME\BULLETDYNAMICS\RELEASE\BTHINGECONSTRAINT.OBJ
C:\USERS\B4044959\DOCUMENTS\PORTFOLIO\PORTFOLIO\GAME ENGINE\DRAGONGAME\BULLETDYNAMICS\RELEASE\BTHINGE2CONSTRAINT.OBJ
C:\USERS\B4044959\DOCUMENTS\PORTFOLIO\PORTFOLIO\GAME ENGINE\DRAGONGAME\BULLETDYNAMICS\RELEASE\BTGENERIC6DOFSPRINGCONSTRAINT.OBJ
C:\USERS\B4044959\DOCUMENTS\PORTFOLIO\PORTFOLIO\GAME ENGINE\DRAGONGAME\BULLETDYNAMICS\RELEASE\BTGENERIC6DOFSPRING2CONSTRAINT.OBJ
C:\USERS\B4044959\DOCUMENTS\PORTFOLIO\PORTFOLIO\GAME ENGINE\DRAGONGAME\BULLETDYNAMICS\RELEASE\BTGENERIC6DOFCONSTRAINT.OBJ
C:\USERS\B4044959\DOCUMENTS\PORTFOLIO\PORTFOLIO\GAME ENGINE\DRAGONGAME\BULLETDYNAMICS\RELEASE\BTGEARCONSTRAINT.OBJ
C:\USERS\B4044959\DOCUMENTS\PORTFOLIO\PORTFOLIO\GAME ENGINE\DRAGONGAME\BULLETDYNAMICS\RELEASE\BTFIXEDCONSTRAINT.OBJ
C:\USERS\B4044959\DOCUMENTS\PORTFOLIO\PORTFOLIO\GAME ENGINE\DRAGONGAME\BULLETDYNAMICS\RELEASE\BTCONTACTCONSTRAINT.OBJ
C:\USERS\B4044959\DOCUMENTS\PORTFOLIO\PORTFOLIO\GAME ENGINE\DRAGONGAME\BULLETDYNAMICS\RELEASE\BTCONETWISTCONSTRAINT.OBJ
C:\USERS\B4044959\DOCUMENTS\PORTFOLIO\PORTFOLIO\GAME ENGINE\DRAGONGAME\BULLETDYNAMICS\RELEASE\BTKINEMATICCHARACTERCONTROLLER.OBJ
C:\USERS\B4044959\DOCUMENTS\PORTFOLIO\PORTFOLIO\GAME ENGINE\DRAGONGAME\BULLETDYNAMICS\RELEASE\BTWHEELINFO.OBJ
C:\USERS\B4044959\DOCUMENTS\PORTFOLIO\PORTFOLIO\GAME ENGINE\DRAGONGAME\BULLETDYNAMICS\RELEASE\BTRAYCASTVEHICLE.OBJ
C:\USERS\B4044959\DOCUMENTS\PORTFOLIO\PORTFOLIO\GAME ENGINE\DRAGONGAME\BULLETDYNAMICS\RELEASE\BTMLCPSOLVER.OBJ
C:\USERS\B4044959\DOCUMENTS\PORTFOLIO\PORTFOLIO\GAME ENGINE\DRAGONGAME\BULLETDYNAMICS\RELEASE\BTLEMKEALGORITHM.OBJ
C:\USERS\B4044959\DOCUMENTS\PORTFOLIO\PORTFOLIO\GAME ENGINE\DRAGONGAME\BULLETDYNAMICS\RELEASE\BTDANTZIGLCP.OBJ
C:\USERS\B4044959\DOCUMENTS\PORTFOLIO\PORTFOLIO\GAME ENGINE\DRAGONGAME\BULLETDYNAMICS\RELEASE\BTMULTIBODYSLIDERCONSTRAINT.OBJ
C:\USERS\B4044959\DOCUMENTS\PORTFOLIO\PORTFOLIO\GAME ENGINE\DRAGONGAME\BULLETDYNAMICS\RELEASE\BTMULTIBODYPOINT2POINT.OBJ
C:\USERS\B4044959\DOCUMENTS\PORTFOLIO\PORTFOLIO\GAME ENGINE\DRAGONGAME\BULLETDYNAMICS\RELEASE\BTMULTIBODYJOINTMOTOR.OBJ
C:\USERS\B4044959\DOCUMENTS\PORTFOLIO\PORTFOLIO\GAME ENGINE\DRAGONGAME\BULLETDYNAMICS\RELEASE\BTMULTIBODYJOINTLIMITCONSTRAINT.OBJ
C:\USERS\B4044959\DOCUMENTS\PORTFOLIO\PORTFOLIO\GAME ENGINE\DRAGONGAME\BULLETDYNAMICS\RELEASE\BTMULTIBODYGEARCONSTRAINT.OBJ
C:\USERS\B4044959\DOCUMENTS\PORTFOLIO\PORTFOLIO\GAME ENGINE\DRAGONGAME\BULLETDYNAMICS\RELEASE\BTMULTIBODYFIXEDCONSTRAINT.OBJ
C:\USERS\B4044959\DOCUMENTS\PORTFOLIO\PORTFOLIO\GAME ENGINE\DRAGONGAME\BULLETDYNAMICS\RELEASE\BTMULTIBODYDYNAMICSWORLD.OBJ
C:\USERS\B4044959\DOCUMENTS\PORTFOLIO\PORTFOLIO\GAME ENGINE\DRAGONGAME\BULLETDYNAMICS\RELEASE\BTMULTIBODYCONSTRAINTSOLVER.OBJ
C:\USERS\B4044959\DOCUMENTS\PORTFOLIO\PORTFOLIO\GAME ENGINE\DRAGONGAME\BULLETDYNAMICS\RELEASE\BTMULTIBODYCONSTRAINT.OBJ
C:\USERS\B4044959\DOCUMENTS\PORTFOLIO\PORTFOLIO\GAME ENGINE\DRAGONGAME\BULLETDYNAMICS\RELEASE\BTMULTIBODY.OBJ
C:\USERS\B4044959\DOCUMENTS\PORTFOLIO\PORTFOLIO\GAME ENGINE\DRAGONGAME\BULLETDYNAMICS\RELEASE\BTSIMULATIONISLANDMANAGERMT.OBJ
C:\USERS\B4044959\DOCUMENTS\PORTFOLIO\PORTFOLIO\GAME ENGINE\DRAGONGAME\BULLETDYNAMICS\RELEASE\BTSIMPLEDYNAMICSWORLD.OBJ
^C:\USERS\B4044959\DOCUMENTS\PORTFOLIO\PORTFOLIO\GAME ENGINE\DRAGONGAME\MIDDLEWARE\BULLET3-MASTER\SRC\BULLETDYNAMICS\CHARACTER\BTKINEMATICCHARACTERCONTROLLER.CPP
C:\USERS\B4044959\DOCUMENTS\PORTFOLIO\PORTFOLIO\GAME ENGINE\DRAGONGAME\BULLETDYNAMICS\RELEASE\BULLETDYNAMICS.PDB
^C:\USERS\B4044959\DOCUMENTS\PORTFOLIO\PORTFOLIO\GAME ENGINE\DRAGONGAME\MIDDLEWARE\BULLET3-MASTER\SRC\BULLETDYNAMICS\CONSTRAINTSOLVER\BTCONETWISTCONSTRAINT.CPP
C:\USERS\B4044959\DOCUMENTS\PORTFOLIO\PORTFOLIO\GAME ENGINE\DRAGONGAME\BULLETDYNAMICS\RELEASE\BULLETDYNAMICS.PDB
^C:\USERS\B4044959\DOCUMENTS\PORTFOLIO\PORTFOLIO\GAME ENGINE\DRAGONGAME\MIDDLEWARE\BULLET3-MASTER\SRC\BULLETDYNAMICS\CONSTRAINTSOLVER\BTCONTACTCONSTRAINT.CPP
C:\USERS\B4044959\DOCUMENTS\PORTFOLIO\PORTFOLIO\GAME ENGINE\DRAGONGAME\BULLETDYNAMICS\RELEASE\BULLETDYNAMICS.PDB
^C:\USERS\B4044959\DOCUMENTS\PORTFOLIO\PORTFOLIO\GAME ENGINE\DRAGONGAME\MIDDLEWARE\BULLET3-MASTER\SRC\BULLETDYNAMICS\CONSTRAINTSOLVER\BTFIXEDCONSTRAINT.CPP
C:\USERS\B4044959\DOCUMENTS\PORTFOLIO\PORTFOLIO\GAME ENGINE\DRAGONGAME\BULLETDYNAMICS\RELEASE\BULLETDYNAMICS.PDB
^C:\USERS\B4044959\DOCUMENTS\PORTFOLIO\PORTFOLIO\GAME ENGINE\DRAGONGAME\MIDDLEWARE\BULLET3-MASTER\SRC\BULLETDYNAMICS\CONSTRAINTSOLVER\BTGEARCONSTRAINT.CPP
C:\USERS\B4044959\DOCUMENTS\PORTFOLIO\PORTFOLIO\GAME ENGINE\DRAGONGAME\BULLETDYNAMICS\RELEASE\BULLETDYNAMICS.PDB
^C:\USERS\B4044959\DOCUMENTS\PORTFOLIO\PORTFOLIO\GAME ENGINE\DRAGONGAME\MIDDLEWARE\BULLET3-MASTER\SRC\BULLETDYNAMICS\CONSTRAINTSOLVER\BTGENERIC6DOFCONSTRAINT.CPP
C:\USERS\B4044959\DOCUMENTS\PORTFOLIO\PORTFOLIO\GAME ENGINE\DRAGONGAME\BULLETDYNAMICS\RELEASE\BULLETDYNAMICS.PDB
^C:\USERS\B4044959\DOCUMENTS\PORTFOLIO\PORTFOLIO\GAME ENGINE\DRAGONGAME\MIDDLEWARE\BULLET3-MASTER\SRC\BULLETDYNAMICS\CONSTRAINTSOLVER\BTGENERIC6DOFSPRING2CONSTRAINT.CPP
C:\USERS\B4044959\DOCUMENTS\PORTFOLIO\PORTFOLIO\GAME ENGINE\DRAGONGAME\BULLETDYNAMICS\RELEASE\BULLETDYNAMICS.PDB
^C:\USERS\B4044959\DOCUMENTS\PORTFOLIO\PORTFOLIO\GAME ENGINE\DRAGONGAME\MIDDLEWARE\BULLET3-MASTER\SRC\BULLETDYNAMICS\CONSTRAINTSOLVER\BTGENERIC6DOFSPRINGCONSTRAINT.CPP
C:\USERS\B4044959\DOCUMENTS\PORTFOLIO\PORTFOLIO\GAME ENGINE\DRAGONGAME\BULLETDYNAMICS\RELEASE\BULLETDYNAMICS.PDB
^C:\USERS\B4044959\DOCUMENTS\PORTFOLIO\PORTFOLIO\GAME ENGINE\DRAGONGAME\MIDDLEWARE\BULLET3-MASTER\SRC\BULLETDYNAMICS\CONSTRAINTSOLVER\BTHINGE2CONSTRAINT.CPP
C:\USERS\B4044959\DOCUMENTS\PORTFOLIO\PORTFOLIO\GAME ENGINE\DRAGONGAME\BULLETDYNAMICS\RELEASE\BULLETDYNAMICS.PDB
^C:\USERS\B4044959\DOCUMENTS\PORTFOLIO\PORTFOLIO\GAME ENGINE\DRAGONGAME\MIDDLEWARE\BULLET3-MASTER\SRC\BULLETDYNAMICS\CONSTRAINTSOLVER\BTHINGECONSTRAINT.CPP
C:\USERS\B4044959\DOCUMENTS\PORTFOLIO\PORTFOLIO\GAME ENGINE\DRAGONGAME\BULLETDYNAMICS\RELEASE\BULLETDYNAMICS.PDB
^C:\USERS\B4044959\DOCUMENTS\PORTFOLIO\PORTFOLIO\GAME ENGINE\DRAGONGAME\MIDDLEWARE\BULLET3-MASTER\SRC\BULLETDYNAMICS\CONSTRAINTSOLVER\BTNNCGCONSTRAINTSOLVER.CPP
C:\USERS\B4044959\DOCUMENTS\PORTFOLIO\PORTFOLIO\GAME ENGINE\DRAGONGAME\BULLETDYNAMICS\RELEASE\BULLETDYNAMICS.PDB
^C:\USERS\B4044959\DOCUMENTS\PORTFOLIO\PORTFOLIO\GAME ENGINE\DRAGONGAME\MIDDLEWARE\BULLET3-MASTER\SRC\BULLETDYNAMICS\CONSTRAINTSOLVER\BTPOINT2POINTCONSTRAINT.CPP
C:\USERS\B4044959\DOCUMENTS\PORTFOLIO\PORTFOLIO\GAME ENGINE\DRAGONGAME\BULLETDYNAMICS\RELEASE\BULLETDYNAMICS.PDB
^C:\USERS\B4044959\DOCUMENTS\PORTFOLIO\PORTFOLIO\GAME ENGINE\DRAGONGAME\MIDDLEWARE\BULLET3-MASTER\SRC\BULLETDYNAMICS\CONSTRAINTSOLVER\BTSEQUENTIALIMPULSECONSTRAINTSOLVER.CPP
C:\USERS\B4044959\DOCUMENTS\PORTFOLIO\PORTFOLIO\GAME ENGINE\DRAGONGAME\BULLETDYNAMICS\RELEASE\BULLETDYNAMICS.PDB
^C:\USERS\B4044959\DOCUMENTS\PORTFOLIO\PORTFOLIO\GAME ENGINE\DRAGONGAME\MIDDLEWARE\BULLET3-MASTER\SRC\BULLETDYNAMICS\CONSTRAINTSOLVER\BTSLIDERCONSTRAINT.CPP
C:\USERS\B4044959\DOCUMENTS\PORTFOLIO\PORTFOLIO\GAME ENGINE\DRAGONGAME\BULLETDYNAMICS\RELEASE\BULLETDYNAMICS.PDB
^C:\USERS\B4044959\DOCUMENTS\PORTFOLIO\PORTFOLIO\GAME ENGINE\DRAGONGAME\MIDDLEWARE\BULLET3-MASTER\SRC\BULLETDYNAMICS\CONSTRAINTSOLVER\BTSOLVE2LINEARCONSTRAINT.CPP
C:\USERS\B4044959\DOCUMENTS\PORTFOLIO\PORTFOLIO\GAME ENGINE\DRAGONGAME\BULLETDYNAMICS\RELEASE\BULLETDYNAMICS.PDB
^C:\USERS\B4044959\DOCUMENTS\PORTFOLIO\PORTFOLIO\GAME ENGINE\DRAGONGAME\MIDDLEWARE\BULLET3-MASTER\SRC\BULLETDYNAMICS\CONSTRAINTSOLVER\BTTYPEDCONSTRAINT.CPP
C:\USERS\B4044959\DOCUMENTS\PORTFOLIO\PORTFOLIO\GAME ENGINE\DRAGONGAME\BULLETDYNAMICS\RELEASE\BULLETDYNAMICS.PDB
^C:\USERS\B4044959\DOCUMENTS\PORTFOLIO\PORTFOLIO\GAME ENGINE\DRAGONGAME\MIDDLEWARE\BULLET3-MASTER\SRC\BULLETDYNAMICS\CONSTRAINTSOLVER\BTUNIVERSALCONSTRAINT.CPP
C:\USERS\B4044959\DOCUMENTS\PORTFOLIO\PORTFOLIO\GAME ENGINE\DRAGONGAME\BULLETDYNAMICS\RELEASE\BULLETDYNAMICS.PDB
^C:\USERS\B4044959\DOCUMENTS\PORTFOLIO\PORTFOLIO\GAME ENGINE\DRAGONGAME\MIDDLEWARE\BULLET3-MASTER\SRC\BULLETDYNAMICS\DYNAMICS\BTDISCRETEDYNAMICSWORLD.CPP
C:\USERS\B4044959\DOCUMENTS\PORTFOLIO\PORTFOLIO\GAME ENGINE\DRAGONGAME\BULLETDYNAMICS\RELEASE\BULLETDYNAMICS.PDB
^C:\USERS\B4044959\DOCUMENTS\PORTFOLIO\PORTFOLIO\GAME ENGINE\DRAGONGAME\MIDDLEWARE\BULLET3-MASTER\SRC\BULLETDYNAMICS\DYNAMICS\BTDISCRETEDYNAMICSWORLDMT.CPP
C:\USERS\B4044959\DOCUMENTS\PORTFOLIO\PORTFOLIO\GAME ENGINE\DRAGONGAME\BULLETDYNAMICS\RELEASE\BULLETDYNAMICS.PDB
^C:\USERS\B4044959\DOCUMENTS\PORTFOLIO\PORTFOLIO\GAME ENGINE\DRAGONGAME\MIDDLEWARE\BULLET3-MASTER\SRC\BULLETDYNAMICS\DYNAMICS\BTRIGIDBODY.CPP
C:\USERS\B4044959\DOCUMENTS\PORTFOLIO\PORTFOLIO\GAME ENGINE\DRAGONGAME\BULLETDYNAMICS\RELEASE\BULLETDYNAMICS.PDB
^C:\USERS\B4044959\DOCUMENTS\PORTFOLIO\PORTFOLIO\GAME ENGINE\DRAGONGAME\MIDDLEWARE\BULLET3-MASTER\SRC\BULLETDYNAMICS\DYNAMICS\BTSIMPLEDYNAMICSWORLD.CPP
C:\USERS\B4044959\DOCUMENTS\PORTFOLIO\PORTFOLIO\GAME ENGINE\DRAGONGAME\BULLETDYNAMICS\RELEASE\BULLETDYNAMICS.PDB
^C:\USERS\B4044959\DOCUMENTS\PORTFOLIO\PORTFOLIO\GAME ENGINE\DRAGONGAME\MIDDLEWARE\BULLET3-MASTER\SRC\BULLETDYNAMICS\DYNAMICS\BTSIMULATIONISLANDMANAGERMT.CPP
C:\USERS\B4044959\DOCUMENTS\PORTFOLIO\PORTFOLIO\GAME ENGINE\DRAGONGAME\BULLETDYNAMICS\RELEASE\BULLETDYNAMICS.PDB
^C:\USERS\B4044959\DOCUMENTS\PORTFOLIO\PORTFOLIO\GAME ENGINE\DRAGONGAME\MIDDLEWARE\BULLET3-MASTER\SRC\BULLETDYNAMICS\FEATHERSTONE\BTMULTIBODY.CPP
C:\USERS\B4044959\DOCUMENTS\PORTFOLIO\PORTFOLIO\GAME ENGINE\DRAGONGAME\BULLETDYNAMICS\RELEASE\BULLETDYNAMICS.PDB
^C:\USERS\B4044959\DOCUMENTS\PORTFOLIO\PORTFOLIO\GAME ENGINE\DRAGONGAME\MIDDLEWARE\BULLET3-MASTER\SRC\BULLETDYNAMICS\FEATHERSTONE\BTMULTIBODYCONSTRAINT.CPP
C:\USERS\B4044959\DOCUMENTS\PORTFOLIO\PORTFOLIO\GAME ENGINE\DRAGONGAME\BULLETDYNAMICS\RELEASE\BULLETDYNAMICS.PDB
^C:\USERS\B4044959\DOCUMENTS\PORTFOLIO\PORTFOLIO\GAME ENGINE\DRAGONGAME\MIDDLEWARE\BULLET3-MASTER\SRC\BULLETDYNAMICS\FEATHERSTONE\BTMULTIBODYCONSTRAINTSOLVER.CPP
C:\USERS\B4044959\DOCUMENTS\PORTFOLIO\PORTFOLIO\GAME ENGINE\DRAGONGAME\BULLETDYNAMICS\RELEASE\BULLETDYNAMICS.PDB
^C:\USERS\B4044959\DOCUMENTS\PORTFOLIO\PORTFOLIO\GAME ENGINE\DRAGONGAME\MIDDLEWARE\BULLET3-MASTER\SRC\BULLETDYNAMICS\FEATHERSTONE\BTMULTIBODYDYNAMICSWORLD.CPP
C:\USERS\B4044959\DOCUMENTS\PORTFOLIO\PORTFOLIO\GAME ENGINE\DRAGONGAME\BULLETDYNAMICS\RELEASE\BULLETDYNAMICS.PDB
^C:\USERS\B4044959\DOCUMENTS\PORTFOLIO\PORTFOLIO\GAME ENGINE\DRAGONGAME\MIDDLEWARE\BULLET3-MASTER\SRC\BULLETDYNAMICS\FEATHERSTONE\BTMULTIBODYFIXEDCONSTRAINT.CPP
C:\USERS\B4044959\DOCUMENTS\PORTFOLIO\PORTFOLIO\GAME ENGINE\DRAGONGAME\BULLETDYNAMICS\RELEASE\BULLETDYNAMICS.PDB
^C:\USERS\B4044959\DOCUMENTS\PORTFOLIO\PORTFOLIO\GAME ENGINE\DRAGONGAME\MIDDLEWARE\BULLET3-MASTER\SRC\BULLETDYNAMICS\FEATHERSTONE\BTMULTIBODYGEARCONSTRAINT.CPP
C:\USERS\B4044959\DOCUMENTS\PORTFOLIO\PORTFOLIO\GAME ENGINE\DRAGONGAME\BULLETDYNAMICS\RELEASE\BULLETDYNAMICS.PDB
^C:\USERS\B4044959\DOCUMENTS\PORTFOLIO\PORTFOLIO\GAME ENGINE\DRAGONGAME\MIDDLEWARE\BULLET3-MASTER\SRC\BULLETDYNAMICS\FEATHERSTONE\BTMULTIBODYJOINTLIMITCONSTRAINT.CPP
C:\USERS\B4044959\DOCUMENTS\PORTFOLIO\PORTFOLIO\GAME ENGINE\DRAGONGAME\BULLETDYNAMICS\RELEASE\BULLETDYNAMICS.PDB
^C:\USERS\B4044959\DOCUMENTS\PORTFOLIO\PORTFOLIO\GAME ENGINE\DRAGONGAME\MIDDLEWARE\BULLET3-MASTER\SRC\BULLETDYNAMICS\FEATHERSTONE\BTMULTIBODYJOINTMOTOR.CPP
C:\USERS\B4044959\DOCUMENTS\PORTFOLIO\PORTFOLIO\GAME ENGINE\DRAGONGAME\BULLETDYNAMICS\RELEASE\BULLETDYNAMICS.PDB
^C:\USERS\B4044959\DOCUMENTS\PORTFOLIO\PORTFOLIO\GAME ENGINE\DRAGONGAME\MIDDLEWARE\BULLET3-MASTER\SRC\BULLETDYNAMICS\FEATHERSTONE\BTMULTIBODYPOINT2POINT.CPP
C:\USERS\B4044959\DOCUMENTS\PORTFOLIO\PORTFOLIO\GAME ENGINE\DRAGONGAME\BULLETDYNAMICS\RELEASE\BULLETDYNAMICS.PDB
^C:\USERS\B4044959\DOCUMENTS\PORTFOLIO\PORTFOLIO\GAME ENGINE\DRAGONGAME\MIDDLEWARE\BULLET3-MASTER\SRC\BULLETDYNAMICS\FEATHERSTONE\BTMULTIBODYSLIDERCONSTRAINT.CPP
C:\USERS\B4044959\DOCUMENTS\PORTFOLIO\PORTFOLIO\GAME ENGINE\DRAGONGAME\BULLETDYNAMICS\RELEASE\BULLETDYNAMICS.PDB
^C:\USERS\B4044959\DOCUMENTS\PORTFOLIO\PORTFOLIO\GAME ENGINE\DRAGONGAME\MIDDLEWARE\BULLET3-MASTER\SRC\BULLETDYNAMICS\MLCPSOLVERS\BTDANTZIGLCP.CPP
C:\USERS\B4044959\DOCUMENTS\PORTFOLIO\PORTFOLIO\GAME ENGINE\DRAGONGAME\BULLETDYNAMICS\RELEASE\BULLETDYNAMICS.PDB
^C:\USERS\B4044959\DOCUMENTS\PORTFOLIO\PORTFOLIO\GAME ENGINE\DRAGONGAME\MIDDLEWARE\BULLET3-MASTER\SRC\BULLETDYNAMICS\MLCPSOLVERS\BTLEMKEALGORITHM.CPP
C:\USERS\B4044959\DOCUMENTS\PORTFOLIO\PORTFOLIO\GAME ENGINE\DRAGONGAME\BULLETDYNAMICS\RELEASE\BULLETDYNAMICS.PDB
^C:\USERS\B4044959\DOCUMENTS\PORTFOLIO\PORTFOLIO\GAME ENGINE\DRAGONGAME\MIDDLEWARE\BULLET3-MASTER\SRC\BULLETDYNAMICS\MLCPSOLVERS\BTMLCPSOLVER.CPP
C:\USERS\B4044959\DOCUMENTS\PORTFOLIO\PORTFOLIO\GAME ENGINE\DRAGONGAME\BULLETDYNAMICS\RELEASE\BULLETDYNAMICS.PDB
^C:\USERS\B4044959\DOCUMENTS\PORTFOLIO\PORTFOLIO\GAME ENGINE\DRAGONGAME\MIDDLEWARE\BULLET3-MASTER\SRC\BULLETDYNAMICS\VEHICLE\BTRAYCASTVEHICLE.CPP
C:\USERS\B4044959\DOCUMENTS\PORTFOLIO\PORTFOLIO\GAME ENGINE\DRAGONGAME\BULLETDYNAMICS\RELEASE\BULLETDYNAMICS.PDB
^C:\USERS\B4044959\DOCUMENTS\PORTFOLIO\PORTFOLIO\GAME ENGINE\DRAGONGAME\MIDDLEWARE\BULLET3-MASTER\SRC\BULLETDYNAMICS\VEHICLE\BTWHEELINFO.CPP
C:\USERS\B4044959\DOCUMENTS\PORTFOLIO\PORTFOLIO\GAME ENGINE\DRAGONGAME\BULLETDYNAMICS\RELEASE\BULLETDYNAMICS.PDB
