^H:\AGAMEDEV\ENGINE\DRAGONGAME\BULLETDYNAMICS\RELEASE\BTCONETWISTCONSTRAINT.OBJ|H:\AGAMEDEV\ENGINE\DRAGONGAME\BULLETDYNAMICS\RELEASE\BTCONTACTCONSTRAINT.OBJ|H:\AGAMEDEV\ENGINE\DRAGONGAME\BULLETDYNAMICS\RELEASE\BTDANTZIGLCP.OBJ|H:\AGAMEDEV\ENGINE\DRAGONGAME\BULLETDYNAMICS\RELEASE\BTDISCRETEDYNAMICSWORLD.OBJ|H:\AGAMEDEV\ENGINE\DRAGONGAME\BULLETDYNAMICS\RELEASE\BTDISCRETEDYNAMICSWORLDMT.OBJ|H:\AGAMEDEV\ENGINE\DRAGONGAME\BULLETDYNAMICS\RELEASE\BTFIXEDCONSTRAINT.OBJ|H:\AGAMEDEV\ENGINE\DRAGONGAME\BULLETDYNAMICS\RELEASE\BTGEARCONSTRAINT.OBJ|H:\AGAMEDEV\ENGINE\DRAGONGAME\BULLETDYNAMICS\RELEASE\BTGENERIC6DOFCONSTRAINT.OBJ|H:\AGAMEDEV\ENGINE\DRAGONGAME\BULLETDYNAMICS\RELEASE\BTGENERIC6DOFSPRING2CONSTRAINT.OBJ|H:\AGAMEDEV\ENGINE\DRAGONGAME\BULLETDYNAMICS\RELEASE\BTGENERIC6DOFSPRINGCONSTRAINT.OBJ|H:\AGAMEDEV\ENGINE\DRAGONGAME\BULLETDYNAMICS\RELEASE\BTHINGE2CONSTRAINT.OBJ|H:\AGAMEDEV\ENGINE\DRAGONGAME\BULLETDYNAMICS\RELEASE\BTHINGECONSTRAINT.OBJ|H:\AGAMEDEV\ENGINE\DRAGONGAME\BULLETDYNAMICS\RELEASE\BTKINEMATICCHARACTERCONTROLLER.OBJ|H:\AGAMEDEV\ENGINE\DRAGONGAME\BULLETDYNAMICS\RELEASE\BTLEMKEALGORITHM.OBJ|H:\AGAMEDEV\ENGINE\DRAGONGAME\BULLETDYNAMICS\RELEASE\BTMLCPSOLVER.OBJ|H:\AGAMEDEV\ENGINE\DRAGONGAME\BULLETDYNAMICS\RELEASE\BTMULTIBODY.OBJ|H:\AGAMEDEV\ENGINE\DRAGONGAME\BULLETDYNAMICS\RELEASE\BTMULTIBODYCONSTRAINT.OBJ|H:\AGAMEDEV\ENGINE\DRAGONGAME\BULLETDYNAMICS\RELEASE\BTMULTIBODYCONSTRAINTSOLVER.OBJ|H:\AGAMEDEV\ENGINE\DRAGONGAME\BULLETDYNAMICS\RELEASE\BTMULTIBODYDYNAMICSWORLD.OBJ|H:\AGAMEDEV\ENGINE\DRAGONGAME\BULLETDYNAMICS\RELEASE\BTMULTIBODYFIXEDCONSTRAINT.OBJ|H:\AGAMEDEV\ENGINE\DRAGONGAME\BULLETDYNAMICS\RELEASE\BTMULTIBODYGEARCONSTRAINT.OBJ|H:\AGAMEDEV\ENGINE\DRAGONGAME\BULLETDYNAMICS\RELEASE\BTMULTIBODYJOINTLIMITCONSTRAINT.OBJ|H:\AGAMEDEV\ENGINE\DRAGONGAME\BULLETDYNAMICS\RELEASE\BTMULTIBODYJOINTMOTOR.OBJ|H:\AGAMEDEV\ENGINE\DRAGONGAME\BULLETDYNAMICS\RELEASE\BTMULTIBODYPOINT2POINT.OBJ|H:\AGAMEDEV\ENGINE\DRAGONGAME\BULLETDYNAMICS\RELEASE\BTMULTIBODYSLIDERCONSTRAINT.OBJ|H:\AGAMEDEV\ENGINE\DRAGONGAME\BULLETDYNAMICS\RELEASE\BTNNCGCONSTRAINTSOLVER.OBJ|H:\AGAMEDEV\ENGINE\DRAGONGAME\BULLETDYNAMICS\RELEASE\BTPOINT2POINTCONSTRAINT.OBJ|H:\AGAMEDEV\ENGINE\DRAGONGAME\BULLETDYNAMICS\RELEASE\BTRAYCASTVEHICLE.OBJ|H:\AGAMEDEV\ENGINE\DRAGONGAME\BULLETDYNAMICS\RELEASE\BTRIGIDBODY.OBJ|H:\AGAMEDEV\ENGINE\DRAGONGAME\BULLETDYNAMICS\RELEASE\BTSEQUENTIALIMPULSECONSTRAINTSOLVER.OBJ|H:\AGAMEDEV\ENGINE\DRAGONGAME\BULLETDYNAMICS\RELEASE\BTSIMPLEDYNAMICSWORLD.OBJ|H:\AGAMEDEV\ENGINE\DRAGONGAME\BULLETDYNAMICS\RELEASE\BTSIMULATIONISLANDMANAGERMT.OBJ|H:\AGAMEDEV\ENGINE\DRAGONGAME\BULLETDYNAMICS\RELEASE\BTSLIDERCONSTRAINT.OBJ|H:\AGAMEDEV\ENGINE\DRAGONGAME\BULLETDYNAMICS\RELEASE\BTSOLVE2LINEARCONSTRAINT.OBJ|H:\AGAMEDEV\ENGINE\DRAGONGAME\BULLETDYNAMICS\RELEASE\BTTYPEDCONSTRAINT.OBJ|H:\AGAMEDEV\ENGINE\DRAGONGAME\BULLETDYNAMICS\RELEASE\BTUNIVERSALCONSTRAINT.OBJ|H:\AGAMEDEV\ENGINE\DRAGONGAME\BULLETDYNAMICS\RELEASE\BTWHEELINFO.OBJ
C:\WINDOWS\GLOBALIZATION\SORTING\SORTDEFAULT.NLS
H:\AGAMEDEV\ENGINE\DRAGONGAME\BULLETDYNAMICS\RELEASE\BTKINEMATICCHARACTERCONTROLLER.OBJ
C:\WINDOWS\SYSTEM32\TZRES.DLL
H:\AGAMEDEV\ENGINE\DRAGONGAME\BULLETDYNAMICS\RELEASE\BTCONETWISTCONSTRAINT.OBJ
H:\AGAMEDEV\ENGINE\DRAGONGAME\BULLETDYNAMICS\RELEASE\BTCONTACTCONSTRAINT.OBJ
H:\AGAMEDEV\ENGINE\DRAGONGAME\BULLETDYNAMICS\RELEASE\BTFIXEDCONSTRAINT.OBJ
H:\AGAMEDEV\ENGINE\DRAGONGAME\BULLETDYNAMICS\RELEASE\BTGEARCONSTRAINT.OBJ
H:\AGAMEDEV\ENGINE\DRAGONGAME\BULLETDYNAMICS\RELEASE\BTGENERIC6DOFCONSTRAINT.OBJ
H:\AGAMEDEV\ENGINE\DRAGONGAME\BULLETDYNAMICS\RELEASE\BTGENERIC6DOFSPRING2CONSTRAINT.OBJ
H:\AGAMEDEV\ENGINE\DRAGONGAME\BULLETDYNAMICS\RELEASE\BTGENERIC6DOFSPRINGCONSTRAINT.OBJ
H:\AGAMEDEV\ENGINE\DRAGONGAME\BULLETDYNAMICS\RELEASE\BTHINGE2CONSTRAINT.OBJ
H:\AGAMEDEV\ENGINE\DRAGONGAME\BULLETDYNAMICS\RELEASE\BTHINGECONSTRAINT.OBJ
H:\AGAMEDEV\ENGINE\DRAGONGAME\BULLETDYNAMICS\RELEASE\BTNNCGCONSTRAINTSOLVER.OBJ
H:\AGAMEDEV\ENGINE\DRAGONGAME\BULLETDYNAMICS\RELEASE\BTPOINT2POINTCONSTRAINT.OBJ
H:\AGAMEDEV\ENGINE\DRAGONGAME\BULLETDYNAMICS\RELEASE\BTSEQUENTIALIMPULSECONSTRAINTSOLVER.OBJ
H:\AGAMEDEV\ENGINE\DRAGONGAME\BULLETDYNAMICS\RELEASE\BTSLIDERCONSTRAINT.OBJ
H:\AGAMEDEV\ENGINE\DRAGONGAME\BULLETDYNAMICS\RELEASE\BTSOLVE2LINEARCONSTRAINT.OBJ
H:\AGAMEDEV\ENGINE\DRAGONGAME\BULLETDYNAMICS\RELEASE\BTTYPEDCONSTRAINT.OBJ
H:\AGAMEDEV\ENGINE\DRAGONGAME\BULLETDYNAMICS\RELEASE\BTUNIVERSALCONSTRAINT.OBJ
H:\AGAMEDEV\ENGINE\DRAGONGAME\BULLETDYNAMICS\RELEASE\BTDISCRETEDYNAMICSWORLD.OBJ
H:\AGAMEDEV\ENGINE\DRAGONGAME\BULLETDYNAMICS\RELEASE\BTDISCRETEDYNAMICSWORLDMT.OBJ
H:\AGAMEDEV\ENGINE\DRAGONGAME\BULLETDYNAMICS\RELEASE\BTRIGIDBODY.OBJ
H:\AGAMEDEV\ENGINE\DRAGONGAME\BULLETDYNAMICS\RELEASE\BTSIMPLEDYNAMICSWORLD.OBJ
H:\AGAMEDEV\ENGINE\DRAGONGAME\BULLETDYNAMICS\RELEASE\BTSIMULATIONISLANDMANAGERMT.OBJ
H:\AGAMEDEV\ENGINE\DRAGONGAME\BULLETDYNAMICS\RELEASE\BTMULTIBODY.OBJ
H:\AGAMEDEV\ENGINE\DRAGONGAME\BULLETDYNAMICS\RELEASE\BTMULTIBODYCONSTRAINT.OBJ
H:\AGAMEDEV\ENGINE\DRAGONGAME\BULLETDYNAMICS\RELEASE\BTMULTIBODYCONSTRAINTSOLVER.OBJ
H:\AGAMEDEV\ENGINE\DRAGONGAME\BULLETDYNAMICS\RELEASE\BTMULTIBODYDYNAMICSWORLD.OBJ
H:\AGAMEDEV\ENGINE\DRAGONGAME\BULLETDYNAMICS\RELEASE\BTMULTIBODYFIXEDCONSTRAINT.OBJ
H:\AGAMEDEV\ENGINE\DRAGONGAME\BULLETDYNAMICS\RELEASE\BTMULTIBODYGEARCONSTRAINT.OBJ
H:\AGAMEDEV\ENGINE\DRAGONGAME\BULLETDYNAMICS\RELEASE\BTMULTIBODYJOINTLIMITCONSTRAINT.OBJ
H:\AGAMEDEV\ENGINE\DRAGONGAME\BULLETDYNAMICS\RELEASE\BTMULTIBODYJOINTMOTOR.OBJ
H:\AGAMEDEV\ENGINE\DRAGONGAME\BULLETDYNAMICS\RELEASE\BTMULTIBODYPOINT2POINT.OBJ
H:\AGAMEDEV\ENGINE\DRAGONGAME\BULLETDYNAMICS\RELEASE\BTMULTIBODYSLIDERCONSTRAINT.OBJ
H:\AGAMEDEV\ENGINE\DRAGONGAME\BULLETDYNAMICS\RELEASE\BTDANTZIGLCP.OBJ
H:\AGAMEDEV\ENGINE\DRAGONGAME\BULLETDYNAMICS\RELEASE\BTLEMKEALGORITHM.OBJ
H:\AGAMEDEV\ENGINE\DRAGONGAME\BULLETDYNAMICS\RELEASE\BTMLCPSOLVER.OBJ
H:\AGAMEDEV\ENGINE\DRAGONGAME\BULLETDYNAMICS\RELEASE\BTRAYCASTVEHICLE.OBJ
H:\AGAMEDEV\ENGINE\DRAGONGAME\BULLETDYNAMICS\RELEASE\BTWHEELINFO.OBJ
^C:\USERS\B4044959\DOCUMENTS\PORTFOLIO\PORTFOLIO\GAME ENGINE\DRAGONGAME\BULLETDYNAMICS\RELEASE\BTCONETWISTCONSTRAINT.OBJ|C:\USERS\B4044959\DOCUMENTS\PORTFOLIO\PORTFOLIO\GAME ENGINE\DRAGONGAME\BULLETDYNAMICS\RELEASE\BTCONTACTCONSTRAINT.OBJ|C:\USERS\B4044959\DOCUMENTS\PORTFOLIO\PORTFOLIO\GAME ENGINE\DRAGONGAME\BULLETDYNAMICS\RELEASE\BTDANTZIGLCP.OBJ|C:\USERS\B4044959\DOCUMENTS\PORTFOLIO\PORTFOLIO\GAME ENGINE\DRAGONGAME\BULLETDYNAMICS\RELEASE\BTDISCRETEDYNAMICSWORLD.OBJ|C:\USERS\B4044959\DOCUMENTS\PORTFOLIO\PORTFOLIO\GAME ENGINE\DRAGONGAME\BULLETDYNAMICS\RELEASE\BTDISCRETEDYNAMICSWORLDMT.OBJ|C:\USERS\B4044959\DOCUMENTS\PORTFOLIO\PORTFOLIO\GAME ENGINE\DRAGONGAME\BULLETDYNAMICS\RELEASE\BTFIXEDCONSTRAINT.OBJ|C:\USERS\B4044959\DOCUMENTS\PORTFOLIO\PORTFOLIO\GAME ENGINE\DRAGONGAME\BULLETDYNAMICS\RELEASE\BTGEARCONSTRAINT.OBJ|C:\USERS\B4044959\DOCUMENTS\PORTFOLIO\PORTFOLIO\GAME ENGINE\DRAGONGAME\BULLETDYNAMICS\RELEASE\BTGENERIC6DOFCONSTRAINT.OBJ|C:\USERS\B4044959\DOCUMENTS\PORTFOLIO\PORTFOLIO\GAME ENGINE\DRAGONGAME\BULLETDYNAMICS\RELEASE\BTGENERIC6DOFSPRING2CONSTRAINT.OBJ|C:\USERS\B4044959\DOCUMENTS\PORTFOLIO\PORTFOLIO\GAME ENGINE\DRAGONGAME\BULLETDYNAMICS\RELEASE\BTGENERIC6DOFSPRINGCONSTRAINT.OBJ|C:\USERS\B4044959\DOCUMENTS\PORTFOLIO\PORTFOLIO\GAME ENGINE\DRAGONGAME\BULLETDYNAMICS\RELEASE\BTHINGE2CONSTRAINT.OBJ|C:\USERS\B4044959\DOCUMENTS\PORTFOLIO\PORTFOLIO\GAME ENGINE\DRAGONGAME\BULLETDYNAMICS\RELEASE\BTHINGECONSTRAINT.OBJ|C:\USERS\B4044959\DOCUMENTS\PORTFOLIO\PORTFOLIO\GAME ENGINE\DRAGONGAME\BULLETDYNAMICS\RELEASE\BTKINEMATICCHARACTERCONTROLLER.OBJ|C:\USERS\B4044959\DOCUMENTS\PORTFOLIO\PORTFOLIO\GAME ENGINE\DRAGONGAME\BULLETDYNAMICS\RELEASE\BTLEMKEALGORITHM.OBJ|C:\USERS\B4044959\DOCUMENTS\PORTFOLIO\PORTFOLIO\GAME ENGINE\DRAGONGAME\BULLETDYNAMICS\RELEASE\BTMLCPSOLVER.OBJ|C:\USERS\B4044959\DOCUMENTS\PORTFOLIO\PORTFOLIO\GAME ENGINE\DRAGONGAME\BULLETDYNAMICS\RELEASE\BTMULTIBODY.OBJ|C:\USERS\B4044959\DOCUMENTS\PORTFOLIO\PORTFOLIO\GAME ENGINE\DRAGONGAME\BULLETDYNAMICS\RELEASE\BTMULTIBODYCONSTRAINT.OBJ|C:\USERS\B4044959\DOCUMENTS\PORTFOLIO\PORTFOLIO\GAME ENGINE\DRAGONGAME\BULLETDYNAMICS\RELEASE\BTMULTIBODYCONSTRAINTSOLVER.OBJ|C:\USERS\B4044959\DOCUMENTS\PORTFOLIO\PORTFOLIO\GAME ENGINE\DRAGONGAME\BULLETDYNAMICS\RELEASE\BTMULTIBODYDYNAMICSWORLD.OBJ|C:\USERS\B4044959\DOCUMENTS\PORTFOLIO\PORTFOLIO\GAME ENGINE\DRAGONGAME\BULLETDYNAMICS\RELEASE\BTMULTIBODYFIXEDCONSTRAINT.OBJ|C:\USERS\B4044959\DOCUMENTS\PORTFOLIO\PORTFOLIO\GAME ENGINE\DRAGONGAME\BULLETDYNAMICS\RELEASE\BTMULTIBODYGEARCONSTRAINT.OBJ|C:\USERS\B4044959\DOCUMENTS\PORTFOLIO\PORTFOLIO\GAME ENGINE\DRAGONGAME\BULLETDYNAMICS\RELEASE\BTMULTIBODYJOINTLIMITCONSTRAINT.OBJ|C:\USERS\B4044959\DOCUMENTS\PORTFOLIO\PORTFOLIO\GAME ENGINE\DRAGONGAME\BULLETDYNAMICS\RELEASE\BTMULTIBODYJOINTMOTOR.OBJ|C:\USERS\B4044959\DOCUMENTS\PORTFOLIO\PORTFOLIO\GAME ENGINE\DRAGONGAME\BULLETDYNAMICS\RELEASE\BTMULTIBODYPOINT2POINT.OBJ|C:\USERS\B4044959\DOCUMENTS\PORTFOLIO\PORTFOLIO\GAME ENGINE\DRAGONGAME\BULLETDYNAMICS\RELEASE\BTMULTIBODYSLIDERCONSTRAINT.OBJ|C:\USERS\B4044959\DOCUMENTS\PORTFOLIO\PORTFOLIO\GAME ENGINE\DRAGONGAME\BULLETDYNAMICS\RELEASE\BTNNCGCONSTRAINTSOLVER.OBJ|C:\USERS\B4044959\DOCUMENTS\PORTFOLIO\PORTFOLIO\GAME ENGINE\DRAGONGAME\BULLETDYNAMICS\RELEASE\BTPOINT2POINTCONSTRAINT.OBJ|C:\USERS\B4044959\DOCUMENTS\PORTFOLIO\PORTFOLIO\GAME ENGINE\DRAGONGAME\BULLETDYNAMICS\RELEASE\BTRAYCASTVEHICLE.OBJ|C:\USERS\B4044959\DOCUMENTS\PORTFOLIO\PORTFOLIO\GAME ENGINE\DRAGONGAME\BULLETDYNAMICS\RELEASE\BTRIGIDBODY.OBJ|C:\USERS\B4044959\DOCUMENTS\PORTFOLIO\PORTFOLIO\GAME ENGINE\DRAGONGAME\BULLETDYNAMICS\RELEASE\BTSEQUENTIALIMPULSECONSTRAINTSOLVER.OBJ|C:\USERS\B4044959\DOCUMENTS\PORTFOLIO\PORTFOLIO\GAME ENGINE\DRAGONGAME\BULLETDYNAMICS\RELEASE\BTSIMPLEDYNAMICSWORLD.OBJ|C:\USERS\B4044959\DOCUMENTS\PORTFOLIO\PORTFOLIO\GAME ENGINE\DRAGONGAME\BULLETDYNAMICS\RELEASE\BTSIMULATIONISLANDMANAGERMT.OBJ|C:\USERS\B4044959\DOCUMENTS\PORTFOLIO\PORTFOLIO\GAME ENGINE\DRAGONGAME\BULLETDYNAMICS\RELEASE\BTSLIDERCONSTRAINT.OBJ|C:\USERS\B4044959\DOCUMENTS\PORTFOLIO\PORTFOLIO\GAME ENGINE\DRAGONGAME\BULLETDYNAMICS\RELEASE\BTSOLVE2LINEARCONSTRAINT.OBJ|C:\USERS\B4044959\DOCUMENTS\PORTFOLIO\PORTFOLIO\GAME ENGINE\DRAGONGAME\BULLETDYNAMICS\RELEASE\BTTYPEDCONSTRAINT.OBJ|C:\USERS\B4044959\DOCUMENTS\PORTFOLIO\PORTFOLIO\GAME ENGINE\DRAGONGAME\BULLETDYNAMICS\RELEASE\BTUNIVERSALCONSTRAINT.OBJ|C:\USERS\B4044959\DOCUMENTS\PORTFOLIO\PORTFOLIO\GAME ENGINE\DRAGONGAME\BULLETDYNAMICS\RELEASE\BTWHEELINFO.OBJ
C:\WINDOWS\GLOBALIZATION\SORTING\SORTDEFAULT.NLS
C:\USERS\B4044959\DOCUMENTS\PORTFOLIO\PORTFOLIO\GAME ENGINE\DRAGONGAME\BULLETDYNAMICS\RELEASE\BTKINEMATICCHARACTERCONTROLLER.OBJ
C:\WINDOWS\SYSTEM32\TZRES.DLL
C:\USERS\B4044959\DOCUMENTS\PORTFOLIO\PORTFOLIO\GAME ENGINE\DRAGONGAME\BULLETDYNAMICS\RELEASE\BTCONETWISTCONSTRAINT.OBJ
C:\USERS\B4044959\DOCUMENTS\PORTFOLIO\PORTFOLIO\GAME ENGINE\DRAGONGAME\BULLETDYNAMICS\RELEASE\BTCONTACTCONSTRAINT.OBJ
C:\USERS\B4044959\DOCUMENTS\PORTFOLIO\PORTFOLIO\GAME ENGINE\DRAGONGAME\BULLETDYNAMICS\RELEASE\BTFIXEDCONSTRAINT.OBJ
C:\USERS\B4044959\DOCUMENTS\PORTFOLIO\PORTFOLIO\GAME ENGINE\DRAGONGAME\BULLETDYNAMICS\RELEASE\BTGEARCONSTRAINT.OBJ
C:\USERS\B4044959\DOCUMENTS\PORTFOLIO\PORTFOLIO\GAME ENGINE\DRAGONGAME\BULLETDYNAMICS\RELEASE\BTGENERIC6DOFCONSTRAINT.OBJ
C:\USERS\B4044959\DOCUMENTS\PORTFOLIO\PORTFOLIO\GAME ENGINE\DRAGONGAME\BULLETDYNAMICS\RELEASE\BTGENERIC6DOFSPRING2CONSTRAINT.OBJ
C:\USERS\B4044959\DOCUMENTS\PORTFOLIO\PORTFOLIO\GAME ENGINE\DRAGONGAME\BULLETDYNAMICS\RELEASE\BTGENERIC6DOFSPRINGCONSTRAINT.OBJ
C:\USERS\B4044959\DOCUMENTS\PORTFOLIO\PORTFOLIO\GAME ENGINE\DRAGONGAME\BULLETDYNAMICS\RELEASE\BTHINGE2CONSTRAINT.OBJ
C:\USERS\B4044959\DOCUMENTS\PORTFOLIO\PORTFOLIO\GAME ENGINE\DRAGONGAME\BULLETDYNAMICS\RELEASE\BTHINGECONSTRAINT.OBJ
C:\USERS\B4044959\DOCUMENTS\PORTFOLIO\PORTFOLIO\GAME ENGINE\DRAGONGAME\BULLETDYNAMICS\RELEASE\BTNNCGCONSTRAINTSOLVER.OBJ
C:\USERS\B4044959\DOCUMENTS\PORTFOLIO\PORTFOLIO\GAME ENGINE\DRAGONGAME\BULLETDYNAMICS\RELEASE\BTPOINT2POINTCONSTRAINT.OBJ
C:\USERS\B4044959\DOCUMENTS\PORTFOLIO\PORTFOLIO\GAME ENGINE\DRAGONGAME\BULLETDYNAMICS\RELEASE\BTSEQUENTIALIMPULSECONSTRAINTSOLVER.OBJ
C:\USERS\B4044959\DOCUMENTS\PORTFOLIO\PORTFOLIO\GAME ENGINE\DRAGONGAME\BULLETDYNAMICS\RELEASE\BTSLIDERCONSTRAINT.OBJ
C:\USERS\B4044959\DOCUMENTS\PORTFOLIO\PORTFOLIO\GAME ENGINE\DRAGONGAME\BULLETDYNAMICS\RELEASE\BTSOLVE2LINEARCONSTRAINT.OBJ
C:\USERS\B4044959\DOCUMENTS\PORTFOLIO\PORTFOLIO\GAME ENGINE\DRAGONGAME\BULLETDYNAMICS\RELEASE\BTTYPEDCONSTRAINT.OBJ
C:\USERS\B4044959\DOCUMENTS\PORTFOLIO\PORTFOLIO\GAME ENGINE\DRAGONGAME\BULLETDYNAMICS\RELEASE\BTUNIVERSALCONSTRAINT.OBJ
C:\USERS\B4044959\DOCUMENTS\PORTFOLIO\PORTFOLIO\GAME ENGINE\DRAGONGAME\BULLETDYNAMICS\RELEASE\BTDISCRETEDYNAMICSWORLD.OBJ
C:\USERS\B4044959\DOCUMENTS\PORTFOLIO\PORTFOLIO\GAME ENGINE\DRAGONGAME\BULLETDYNAMICS\RELEASE\BTDISCRETEDYNAMICSWORLDMT.OBJ
C:\USERS\B4044959\DOCUMENTS\PORTFOLIO\PORTFOLIO\GAME ENGINE\DRAGONGAME\BULLETDYNAMICS\RELEASE\BTRIGIDBODY.OBJ
C:\USERS\B4044959\DOCUMENTS\PORTFOLIO\PORTFOLIO\GAME ENGINE\DRAGONGAME\BULLETDYNAMICS\RELEASE\BTSIMPLEDYNAMICSWORLD.OBJ
C:\USERS\B4044959\DOCUMENTS\PORTFOLIO\PORTFOLIO\GAME ENGINE\DRAGONGAME\BULLETDYNAMICS\RELEASE\BTSIMULATIONISLANDMANAGERMT.OBJ
C:\USERS\B4044959\DOCUMENTS\PORTFOLIO\PORTFOLIO\GAME ENGINE\DRAGONGAME\BULLETDYNAMICS\RELEASE\BTMULTIBODY.OBJ
C:\USERS\B4044959\DOCUMENTS\PORTFOLIO\PORTFOLIO\GAME ENGINE\DRAGONGAME\BULLETDYNAMICS\RELEASE\BTMULTIBODYCONSTRAINT.OBJ
C:\USERS\B4044959\DOCUMENTS\PORTFOLIO\PORTFOLIO\GAME ENGINE\DRAGONGAME\BULLETDYNAMICS\RELEASE\BTMULTIBODYCONSTRAINTSOLVER.OBJ
C:\USERS\B4044959\DOCUMENTS\PORTFOLIO\PORTFOLIO\GAME ENGINE\DRAGONGAME\BULLETDYNAMICS\RELEASE\BTMULTIBODYDYNAMICSWORLD.OBJ
C:\USERS\B4044959\DOCUMENTS\PORTFOLIO\PORTFOLIO\GAME ENGINE\DRAGONGAME\BULLETDYNAMICS\RELEASE\BTMULTIBODYFIXEDCONSTRAINT.OBJ
C:\USERS\B4044959\DOCUMENTS\PORTFOLIO\PORTFOLIO\GAME ENGINE\DRAGONGAME\BULLETDYNAMICS\RELEASE\BTMULTIBODYGEARCONSTRAINT.OBJ
C:\USERS\B4044959\DOCUMENTS\PORTFOLIO\PORTFOLIO\GAME ENGINE\DRAGONGAME\BULLETDYNAMICS\RELEASE\BTMULTIBODYJOINTLIMITCONSTRAINT.OBJ
C:\USERS\B4044959\DOCUMENTS\PORTFOLIO\PORTFOLIO\GAME ENGINE\DRAGONGAME\BULLETDYNAMICS\RELEASE\BTMULTIBODYJOINTMOTOR.OBJ
C:\USERS\B4044959\DOCUMENTS\PORTFOLIO\PORTFOLIO\GAME ENGINE\DRAGONGAME\BULLETDYNAMICS\RELEASE\BTMULTIBODYPOINT2POINT.OBJ
C:\USERS\B4044959\DOCUMENTS\PORTFOLIO\PORTFOLIO\GAME ENGINE\DRAGONGAME\BULLETDYNAMICS\RELEASE\BTMULTIBODYSLIDERCONSTRAINT.OBJ
C:\USERS\B4044959\DOCUMENTS\PORTFOLIO\PORTFOLIO\GAME ENGINE\DRAGONGAME\BULLETDYNAMICS\RELEASE\BTDANTZIGLCP.OBJ
C:\USERS\B4044959\DOCUMENTS\PORTFOLIO\PORTFOLIO\GAME ENGINE\DRAGONGAME\BULLETDYNAMICS\RELEASE\BTLEMKEALGORITHM.OBJ
C:\USERS\B4044959\DOCUMENTS\PORTFOLIO\PORTFOLIO\GAME ENGINE\DRAGONGAME\BULLETDYNAMICS\RELEASE\BTMLCPSOLVER.OBJ
C:\USERS\B4044959\DOCUMENTS\PORTFOLIO\PORTFOLIO\GAME ENGINE\DRAGONGAME\BULLETDYNAMICS\RELEASE\BTRAYCASTVEHICLE.OBJ
C:\USERS\B4044959\DOCUMENTS\PORTFOLIO\PORTFOLIO\GAME ENGINE\DRAGONGAME\BULLETDYNAMICS\RELEASE\BTWHEELINFO.OBJ
