^D:\USERS\JUSTA\DOCUMENTS\PORTFOLIO\OPENGL_RASTERISER\OPENGL RASTERISER\NCLGL\GAMETIMER.CPP
/c /ZI /JMC /nologo /W3 /WX- /diagnostics:classic /Od /Oy- /D _DEBUG /D _MBCS /Gm- /EHsc /RTC1 /MDd /GS /fp:precise /Zc:wchar_t /Zc:forScope /Zc:inline /Fo"DEBUG\\" /Fd"DEBUG\NCLGL.PDB" /Gd /TP /analyze- /FC D:\USERS\JUSTA\DOCUMENTS\PORTFOLIO\OPENGL_RASTERISER\OPENGL RASTERISER\NCLGL\GAMETIMER.CPP
^D:\USERS\JUSTA\DOCUMENTS\PORTFOLIO\OPENGL_RASTERISER\OPENGL RASTERISER\NCLGL\KEYBOARD.CPP
/c /ZI /JMC /nologo /W3 /WX- /diagnostics:classic /Od /Oy- /D _DEBUG /D _MBCS /Gm- /EHsc /RTC1 /MDd /GS /fp:precise /Zc:wchar_t /Zc:forScope /Zc:inline /Fo"DEBUG\\" /Fd"DEBUG\NCLGL.PDB" /Gd /TP /analyze- /FC D:\USERS\JUSTA\DOCUMENTS\PORTFOLIO\OPENGL_RASTERISER\OPENGL RASTERISER\NCLGL\KEYBOARD.CPP
^D:\USERS\JUSTA\DOCUMENTS\PORTFOLIO\OPENGL_RASTERISER\OPENGL RASTERISER\NCLGL\MATRIX3.CPP
/c /ZI /JMC /nologo /W3 /WX- /diagnostics:classic /Od /Oy- /D _DEBUG /D _MBCS /Gm- /EHsc /RTC1 /MDd /GS /fp:precise /Zc:wchar_t /Zc:forScope /Zc:inline /Fo"DEBUG\\" /Fd"DEBUG\NCLGL.PDB" /Gd /TP /analyze- /FC D:\USERS\JUSTA\DOCUMENTS\PORTFOLIO\OPENGL_RASTERISER\OPENGL RASTERISER\NCLGL\MATRIX3.CPP
^D:\USERS\JUSTA\DOCUMENTS\PORTFOLIO\OPENGL_RASTERISER\OPENGL RASTERISER\NCLGL\MATRIX4.CPP
/c /ZI /JMC /nologo /W3 /WX- /diagnostics:classic /Od /Oy- /D _DEBUG /D _MBCS /Gm- /EHsc /RTC1 /MDd /GS /fp:precise /Zc:wchar_t /Zc:forScope /Zc:inline /Fo"DEBUG\\" /Fd"DEBUG\NCLGL.PDB" /Gd /TP /analyze- /FC D:\USERS\JUSTA\DOCUMENTS\PORTFOLIO\OPENGL_RASTERISER\OPENGL RASTERISER\NCLGL\MATRIX4.CPP
^D:\USERS\JUSTA\DOCUMENTS\PORTFOLIO\OPENGL_RASTERISER\OPENGL RASTERISER\NCLGL\MOUSE.CPP
/c /ZI /JMC /nologo /W3 /WX- /diagnostics:classic /Od /Oy- /D _DEBUG /D _MBCS /Gm- /EHsc /RTC1 /MDd /GS /fp:precise /Zc:wchar_t /Zc:forScope /Zc:inline /Fo"DEBUG\\" /Fd"DEBUG\NCLGL.PDB" /Gd /TP /analyze- /FC D:\USERS\JUSTA\DOCUMENTS\PORTFOLIO\OPENGL_RASTERISER\OPENGL RASTERISER\NCLGL\MOUSE.CPP
^D:\USERS\JUSTA\DOCUMENTS\PORTFOLIO\OPENGL_RASTERISER\OPENGL RASTERISER\NCLGL\OGLRENDERER.CPP
/c /ZI /JMC /nologo /W3 /WX- /diagnostics:classic /Od /Oy- /D _DEBUG /D _MBCS /Gm- /EHsc /RTC1 /MDd /GS /fp:precise /Zc:wchar_t /Zc:forScope /Zc:inline /Fo"DEBUG\\" /Fd"DEBUG\NCLGL.PDB" /Gd /TP /analyze- /FC D:\USERS\JUSTA\DOCUMENTS\PORTFOLIO\OPENGL_RASTERISER\OPENGL RASTERISER\NCLGL\OGLRENDERER.CPP
^D:\USERS\JUSTA\DOCUMENTS\PORTFOLIO\OPENGL_RASTERISER\OPENGL RASTERISER\NCLGL\QUATERNION.CPP
/c /ZI /JMC /nologo /W3 /WX- /diagnostics:classic /Od /Oy- /D _DEBUG /D _MBCS /Gm- /EHsc /RTC1 /MDd /GS /fp:precise /Zc:wchar_t /Zc:forScope /Zc:inline /Fo"DEBUG\\" /Fd"DEBUG\NCLGL.PDB" /Gd /TP /analyze- /FC D:\USERS\JUSTA\DOCUMENTS\PORTFOLIO\OPENGL_RASTERISER\OPENGL RASTERISER\NCLGL\QUATERNION.CPP
^D:\USERS\JUSTA\DOCUMENTS\PORTFOLIO\OPENGL_RASTERISER\OPENGL RASTERISER\NCLGL\WINDOW.CPP
/c /ZI /JMC /nologo /W3 /WX- /diagnostics:classic /Od /Oy- /D _DEBUG /D _MBCS /Gm- /EHsc /RTC1 /MDd /GS /fp:precise /Zc:wchar_t /Zc:forScope /Zc:inline /Fo"DEBUG\\" /Fd"DEBUG\NCLGL.PDB" /Gd /TP /analyze- /FC D:\USERS\JUSTA\DOCUMENTS\PORTFOLIO\OPENGL_RASTERISER\OPENGL RASTERISER\NCLGL\WINDOW.CPP
^D:\USERS\JUSTA\DOCUMENTS\PORTFOLIO\SHADERS\NCLGL\GAMETIMER.CPP
/c /ZI /JMC /nologo /W3 /WX- /diagnostics:classic /Od /Oy- /D _DEBUG /D _MBCS /Gm- /EHsc /RTC1 /MDd /GS /fp:precise /Zc:wchar_t /Zc:forScope /Zc:inline /Fo"DEBUG\\" /Fd"DEBUG\NCLGL.PDB" /Gd /TP /analyze- /FC D:\USERS\JUSTA\DOCUMENTS\PORTFOLIO\SHADERS\NCLGL\GAMETIMER.CPP
^D:\USERS\JUSTA\DOCUMENTS\PORTFOLIO\SHADERS\NCLGL\KEYBOARD.CPP
/c /ZI /JMC /nologo /W3 /WX- /diagnostics:classic /Od /Oy- /D _DEBUG /D _MBCS /Gm- /EHsc /RTC1 /MDd /GS /fp:precise /Zc:wchar_t /Zc:forScope /Zc:inline /Fo"DEBUG\\" /Fd"DEBUG\NCLGL.PDB" /Gd /TP /analyze- /FC D:\USERS\JUSTA\DOCUMENTS\PORTFOLIO\SHADERS\NCLGL\KEYBOARD.CPP
^D:\USERS\JUSTA\DOCUMENTS\PORTFOLIO\SHADERS\NCLGL\MATRIX3.CPP
/c /ZI /JMC /nologo /W3 /WX- /diagnostics:classic /Od /Oy- /D _DEBUG /D _MBCS /Gm- /EHsc /RTC1 /MDd /GS /fp:precise /Zc:wchar_t /Zc:forScope /Zc:inline /Fo"DEBUG\\" /Fd"DEBUG\NCLGL.PDB" /Gd /TP /analyze- /FC D:\USERS\JUSTA\DOCUMENTS\PORTFOLIO\SHADERS\NCLGL\MATRIX3.CPP
^D:\USERS\JUSTA\DOCUMENTS\PORTFOLIO\SHADERS\NCLGL\MATRIX4.CPP
/c /ZI /JMC /nologo /W3 /WX- /diagnostics:classic /Od /Oy- /D _DEBUG /D _MBCS /Gm- /EHsc /RTC1 /MDd /GS /fp:precise /Zc:wchar_t /Zc:forScope /Zc:inline /Fo"DEBUG\\" /Fd"DEBUG\NCLGL.PDB" /Gd /TP /analyze- /FC D:\USERS\JUSTA\DOCUMENTS\PORTFOLIO\SHADERS\NCLGL\MATRIX4.CPP
^D:\USERS\JUSTA\DOCUMENTS\PORTFOLIO\SHADERS\NCLGL\MOUSE.CPP
/c /ZI /JMC /nologo /W3 /WX- /diagnostics:classic /Od /Oy- /D _DEBUG /D _MBCS /Gm- /EHsc /RTC1 /MDd /GS /fp:precise /Zc:wchar_t /Zc:forScope /Zc:inline /Fo"DEBUG\\" /Fd"DEBUG\NCLGL.PDB" /Gd /TP /analyze- /FC D:\USERS\JUSTA\DOCUMENTS\PORTFOLIO\SHADERS\NCLGL\MOUSE.CPP
^D:\USERS\JUSTA\DOCUMENTS\PORTFOLIO\SHADERS\NCLGL\OGLRENDERER.CPP
/c /ZI /JMC /nologo /W3 /WX- /diagnostics:classic /Od /Oy- /D _DEBUG /D _MBCS /Gm- /EHsc /RTC1 /MDd /GS /fp:precise /Zc:wchar_t /Zc:forScope /Zc:inline /Fo"DEBUG\\" /Fd"DEBUG\NCLGL.PDB" /Gd /TP /analyze- /FC D:\USERS\JUSTA\DOCUMENTS\PORTFOLIO\SHADERS\NCLGL\OGLRENDERER.CPP
^D:\USERS\JUSTA\DOCUMENTS\PORTFOLIO\SHADERS\NCLGL\QUATERNION.CPP
/c /ZI /JMC /nologo /W3 /WX- /diagnostics:classic /Od /Oy- /D _DEBUG /D _MBCS /Gm- /EHsc /RTC1 /MDd /GS /fp:precise /Zc:wchar_t /Zc:forScope /Zc:inline /Fo"DEBUG\\" /Fd"DEBUG\NCLGL.PDB" /Gd /TP /analyze- /FC D:\USERS\JUSTA\DOCUMENTS\PORTFOLIO\SHADERS\NCLGL\QUATERNION.CPP
^D:\USERS\JUSTA\DOCUMENTS\PORTFOLIO\SHADERS\NCLGL\WINDOW.CPP
/c /ZI /JMC /nologo /W3 /WX- /diagnostics:classic /Od /Oy- /D _DEBUG /D _MBCS /Gm- /EHsc /RTC1 /MDd /GS /fp:precise /Zc:wchar_t /Zc:forScope /Zc:inline /Fo"DEBUG\\" /Fd"DEBUG\NCLGL.PDB" /Gd /TP /analyze- /FC D:\USERS\JUSTA\DOCUMENTS\PORTFOLIO\SHADERS\NCLGL\WINDOW.CPP
