^D:\USERS\JUSTA\DOCUMENTS\CSC STAGE 4\STAGE4\GRAPHICS FOR GAMES\COURSEWORK\GRAPHICSCOURSEWORK\SOIL\SIMPLE OPENGL IMAGE LIBRARY\SRC\IMAGE_DXT.C
/c /ZI /nologo /W3 /WX- /diagnostics:classic /Od /Oy- /D WIN32 /D _DEBUG /D _LIB /D _UNICODE /D UNICODE /Gm /EHsc /RTC1 /MDd /GS /fp:precise /Zc:wchar_t /Zc:forScope /Zc:inline /Fo"DEBUG\\" /Fd"DEBUG\SOIL.PDB" /Gd /TC /analyze- /FC D:\USERS\JUSTA\DOCUMENTS\CSC STAGE 4\STAGE4\GRAPHICS FOR GAMES\COURSEWORK\GRAPHICSCOURSEWORK\SOIL\SIMPLE OPENGL IMAGE LIBRARY\SRC\IMAGE_DXT.C
^D:\USERS\JUSTA\DOCUMENTS\CSC STAGE 4\STAGE4\GRAPHICS FOR GAMES\COURSEWORK\GRAPHICSCOURSEWORK\SOIL\SIMPLE OPENGL IMAGE LIBRARY\SRC\IMAGE_HELPER.C
/c /ZI /nologo /W3 /WX- /diagnostics:classic /Od /Oy- /D WIN32 /D _DEBUG /D _LIB /D _UNICODE /D UNICODE /Gm /EHsc /RTC1 /MDd /GS /fp:precise /Zc:wchar_t /Zc:forScope /Zc:inline /Fo"DEBUG\\" /Fd"DEBUG\SOIL.PDB" /Gd /TC /analyze- /FC D:\USERS\JUSTA\DOCUMENTS\CSC STAGE 4\STAGE4\GRAPHICS FOR GAMES\COURSEWORK\GRAPHICSCOURSEWORK\SOIL\SIMPLE OPENGL IMAGE LIBRARY\SRC\IMAGE_HELPER.C
^D:\USERS\JUSTA\DOCUMENTS\CSC STAGE 4\STAGE4\GRAPHICS FOR GAMES\COURSEWORK\GRAPHICSCOURSEWORK\SOIL\SIMPLE OPENGL IMAGE LIBRARY\SRC\SOIL.C
/c /ZI /nologo /W3 /WX- /diagnostics:classic /Od /Oy- /D WIN32 /D _DEBUG /D _LIB /D _UNICODE /D UNICODE /Gm /EHsc /RTC1 /MDd /GS /fp:precise /Zc:wchar_t /Zc:forScope /Zc:inline /Fo"DEBUG\\" /Fd"DEBUG\SOIL.PDB" /Gd /TC /analyze- /FC D:\USERS\JUSTA\DOCUMENTS\CSC STAGE 4\STAGE4\GRAPHICS FOR GAMES\COURSEWORK\GRAPHICSCOURSEWORK\SOIL\SIMPLE OPENGL IMAGE LIBRARY\SRC\SOIL.C
^D:\USERS\JUSTA\DOCUMENTS\CSC STAGE 4\STAGE4\GRAPHICS FOR GAMES\COURSEWORK\GRAPHICSCOURSEWORK\SOIL\SIMPLE OPENGL IMAGE LIBRARY\SRC\STB_IMAGE_AUG.C
/c /ZI /nologo /W3 /WX- /diagnostics:classic /Od /Oy- /D WIN32 /D _DEBUG /D _LIB /D _UNICODE /D UNICODE /Gm /EHsc /RTC1 /MDd /GS /fp:precise /Zc:wchar_t /Zc:forScope /Zc:inline /Fo"DEBUG\\" /Fd"DEBUG\SOIL.PDB" /Gd /TC /analyze- /FC D:\USERS\JUSTA\DOCUMENTS\CSC STAGE 4\STAGE4\GRAPHICS FOR GAMES\COURSEWORK\GRAPHICSCOURSEWORK\SOIL\SIMPLE OPENGL IMAGE LIBRARY\SRC\STB_IMAGE_AUG.C
^C:\USERS\B4044959\DOCUMENTS\STAGE4\GRAPHICS FOR GAMES\COURSEWORK\GRAPHICSCOURSEWORK\SOIL\SIMPLE OPENGL IMAGE LIBRARY\SRC\IMAGE_DXT.C
/c /ZI /nologo /W3 /WX- /diagnostics:classic /Od /Oy- /D WIN32 /D _DEBUG /D _LIB /D _UNICODE /D UNICODE /Gm /EHsc /RTC1 /MDd /GS /fp:precise /Zc:wchar_t /Zc:forScope /Zc:inline /Fo"DEBUG\\" /Fd"DEBUG\SOIL.PDB" /Gd /TC /analyze- C:\USERS\B4044959\DOCUMENTS\STAGE4\GRAPHICS FOR GAMES\COURSEWORK\GRAPHICSCOURSEWORK\SOIL\SIMPLE OPENGL IMAGE LIBRARY\SRC\IMAGE_DXT.C
^C:\USERS\B4044959\DOCUMENTS\STAGE4\GRAPHICS FOR GAMES\COURSEWORK\GRAPHICSCOURSEWORK\SOIL\SIMPLE OPENGL IMAGE LIBRARY\SRC\IMAGE_HELPER.C
/c /ZI /nologo /W3 /WX- /diagnostics:classic /Od /Oy- /D WIN32 /D _DEBUG /D _LIB /D _UNICODE /D UNICODE /Gm /EHsc /RTC1 /MDd /GS /fp:precise /Zc:wchar_t /Zc:forScope /Zc:inline /Fo"DEBUG\\" /Fd"DEBUG\SOIL.PDB" /Gd /TC /analyze- C:\USERS\B4044959\DOCUMENTS\STAGE4\GRAPHICS FOR GAMES\COURSEWORK\GRAPHICSCOURSEWORK\SOIL\SIMPLE OPENGL IMAGE LIBRARY\SRC\IMAGE_HELPER.C
^C:\USERS\B4044959\DOCUMENTS\STAGE4\GRAPHICS FOR GAMES\COURSEWORK\GRAPHICSCOURSEWORK\SOIL\SIMPLE OPENGL IMAGE LIBRARY\SRC\SOIL.C
/c /ZI /nologo /W3 /WX- /diagnostics:classic /Od /Oy- /D WIN32 /D _DEBUG /D _LIB /D _UNICODE /D UNICODE /Gm /EHsc /RTC1 /MDd /GS /fp:precise /Zc:wchar_t /Zc:forScope /Zc:inline /Fo"DEBUG\\" /Fd"DEBUG\SOIL.PDB" /Gd /TC /analyze- C:\USERS\B4044959\DOCUMENTS\STAGE4\GRAPHICS FOR GAMES\COURSEWORK\GRAPHICSCOURSEWORK\SOIL\SIMPLE OPENGL IMAGE LIBRARY\SRC\SOIL.C
^C:\USERS\B4044959\DOCUMENTS\STAGE4\GRAPHICS FOR GAMES\COURSEWORK\GRAPHICSCOURSEWORK\SOIL\SIMPLE OPENGL IMAGE LIBRARY\SRC\STB_IMAGE_AUG.C
/c /ZI /nologo /W3 /WX- /diagnostics:classic /Od /Oy- /D WIN32 /D _DEBUG /D _LIB /D _UNICODE /D UNICODE /Gm /EHsc /RTC1 /MDd /GS /fp:precise /Zc:wchar_t /Zc:forScope /Zc:inline /Fo"DEBUG\\" /Fd"DEBUG\SOIL.PDB" /Gd /TC /analyze- C:\USERS\B4044959\DOCUMENTS\STAGE4\GRAPHICS FOR GAMES\COURSEWORK\GRAPHICSCOURSEWORK\SOIL\SIMPLE OPENGL IMAGE LIBRARY\SRC\STB_IMAGE_AUG.C
