^C:\USERS\B4044959\DOCUMENTS\STAGE4\GAME TECHNOLOGIES\FRAMEWORK\CSC8503\GAMETECH\RELEASE\GAMETECHRENDERER.OBJ|C:\USERS\B4044959\DOCUMENTS\STAGE4\GAME TECHNOLOGIES\FRAMEWORK\CSC8503\GAMETECH\RELEASE\GOLFGAME.OBJ|C:\USERS\B4044959\DOCUMENTS\STAGE4\GAME TECHNOLOGIES\FRAMEWORK\CSC8503\GAMETECH\RELEASE\MAIN.OBJ|C:\USERS\B4044959\DOCUMENTS\STAGE4\GAME TECHNOLOGIES\FRAMEWORK\CSC8503\GAMETECH\RELEASE\MENU.OBJ|C:\USERS\B4044959\DOCUMENTS\STAGE4\GAME TECHNOLOGIES\FRAMEWORK\CSC8503\GAMETECH\RELEASE\PAUSEMENU.OBJ|C:\USERS\B4044959\DOCUMENTS\STAGE4\GAME TECHNOLOGIES\FRAMEWORK\CSC8503\GAMETECH\RELEASE\TUTORIALGAME.OBJ
C:\USERS\B4044959\DOCUMENTS\STAGE4\GAME TECHNOLOGIES\FRAMEWORK\WIN32\RELEASE\GAMETECH.EXE
C:\USERS\B4044959\DOCUMENTS\STAGE4\GAME TECHNOLOGIES\FRAMEWORK\WIN32\RELEASE\GAMETECH.PDB
