^H:\AGAMEDEV\ENGINE\DRAGONGAME\BOOTMANAGER\RELEASE\BOOTMANAGER.OBJ
H:\AGAMEDEV\ENGINE\DRAGONGAME\RELEASE\BOOTMANAGER.LIB
^C:\USERS\B4044959\DOCUMENTS\PORTFOLIO\PORTFOLIO\GAME ENGINE\DRAGONGAME\BOOTMANAGER\RELEASE\BOOTMANAGER.OBJ
C:\USERS\B4044959\DOCUMENTS\PORTFOLIO\PORTFOLIO\GAME ENGINE\DRAGONGAME\RELEASE\BOOTMANAGER.LIB
