^H:\AGAMEDEV\ENGINE\DRAGONGAME\COMMON\DEBUG\CUBE.OBJ|H:\AGAMEDEV\ENGINE\DRAGONGAME\COMMON\DEBUG\FLATGROUND.OBJ|H:\AGAMEDEV\ENGINE\DRAGONGAME\COMMON\DEBUG\GAMEOBJECT.OBJ|H:\AGAMEDEV\ENGINE\DRAGONGAME\COMMON\DEBUG\GAMETIMER.OBJ|H:\AGAMEDEV\ENGINE\DRAGONGAME\COMMON\DEBUG\GAMEVARIABLES.OBJ|H:\AGAMEDEV\ENGINE\DRAGONGAME\COMMON\DEBUG\MATRIX3.OBJ|H:\AGAMEDEV\ENGINE\DRAGONGAME\COMMON\DEBUG\MATRIX4.OBJ|H:\AGAMEDEV\ENGINE\DRAGONGAME\COMMON\DEBUG\PLAYER.OBJ|H:\AGAMEDEV\ENGINE\DRAGONGAME\COMMON\DEBUG\QUAD.OBJ|H:\AGAMEDEV\ENGINE\DRAGONGAME\COMMON\DEBUG\QUATERNION.OBJ|H:\AGAMEDEV\ENGINE\DRAGONGAME\COMMON\DEBUG\RING.OBJ|H:\AGAMEDEV\ENGINE\DRAGONGAME\COMMON\DEBUG\STARSHIP.OBJ|H:\AGAMEDEV\ENGINE\DRAGONGAME\COMMON\DEBUG\TERRAIN.OBJ|H:\AGAMEDEV\ENGINE\DRAGONGAME\COMMON\DEBUG\WORLDBOUND.OBJ
C:\WINDOWS\GLOBALIZATION\SORTING\SORTDEFAULT.NLS
H:\AGAMEDEV\ENGINE\DRAGONGAME\COMMON\DEBUG\CUBE.OBJ
C:\WINDOWS\SYSTEM32\TZRES.DLL
H:\AGAMEDEV\ENGINE\DRAGONGAME\COMMON\DEBUG\FLATGROUND.OBJ
H:\AGAMEDEV\ENGINE\DRAGONGAME\COMMON\DEBUG\GAMEOBJECT.OBJ
H:\AGAMEDEV\ENGINE\DRAGONGAME\COMMON\DEBUG\GAMETIMER.OBJ
H:\AGAMEDEV\ENGINE\DRAGONGAME\COMMON\DEBUG\GAMEVARIABLES.OBJ
H:\AGAMEDEV\ENGINE\DRAGONGAME\COMMON\DEBUG\MATRIX3.OBJ
H:\AGAMEDEV\ENGINE\DRAGONGAME\COMMON\DEBUG\MATRIX4.OBJ
H:\AGAMEDEV\ENGINE\DRAGONGAME\COMMON\DEBUG\PLAYER.OBJ
H:\AGAMEDEV\ENGINE\DRAGONGAME\COMMON\DEBUG\QUAD.OBJ
H:\AGAMEDEV\ENGINE\DRAGONGAME\COMMON\DEBUG\QUATERNION.OBJ
H:\AGAMEDEV\ENGINE\DRAGONGAME\COMMON\DEBUG\RING.OBJ
H:\AGAMEDEV\ENGINE\DRAGONGAME\COMMON\DEBUG\STARSHIP.OBJ
H:\AGAMEDEV\ENGINE\DRAGONGAME\COMMON\DEBUG\TERRAIN.OBJ
H:\AGAMEDEV\ENGINE\DRAGONGAME\COMMON\DEBUG\WORLDBOUND.OBJ
