^H:\AGAMEDEV\ENGINE\DRAGONGAME\DRAGONGAME\DRAGONENGINE.CPP
/c /I..\DEBUG /ZI /nologo /W3 /WX- /diagnostics:classic /sdl /Od /Oy- /D _MBCS /Gm /EHsc /RTC1 /MDd /GS /fp:precise /Zc:wchar_t /Zc:forScope /Zc:inline /Fo"DEBUG\\" /Fd"DEBUG\VC141.PDB" /Gd /TP /analyze- H:\AGAMEDEV\ENGINE\DRAGONGAME\DRAGONGAME\DRAGONENGINE.CPP
^H:\AGAMEDEV\ENGINE\DRAGONGAME\DRAGONGAME\GAMELOOP.CPP
/c /I..\DEBUG /ZI /nologo /W3 /WX- /diagnostics:classic /sdl /Od /Oy- /D _MBCS /Gm /EHsc /RTC1 /MDd /GS /fp:precise /Zc:wchar_t /Zc:forScope /Zc:inline /Fo"DEBUG\\" /Fd"DEBUG\VC141.PDB" /Gd /TP /analyze- H:\AGAMEDEV\ENGINE\DRAGONGAME\DRAGONGAME\GAMELOOP.CPP
