^H:\AGAMEDEV\ENGINE\DRAGONGAME\FILEIO\FILEIO.CPP
H:\AGAMEDEV\ENGINE\DRAGONGAME\FILEIO\DEBUG\FILEIO.PDB
H:\AGAMEDEV\ENGINE\DRAGONGAME\FILEIO\DEBUG\FILEIO.IDB
H:\AGAMEDEV\ENGINE\DRAGONGAME\FILEIO\DEBUG\FILEIO.OBJ
