^H:\AGAMEDEV\ENGINE\DRAGONGAME\RESOURCEMANAGER\RESOURCEMANAGER.CPP|H:\AGAMEDEV\ENGINE\DRAGONGAME\RESOURCEMANAGER\STORAGE.CPP
H:\AGAMEDEV\ENGINE\DRAGONGAME\RESOURCEMANAGER\X64\DEBUG\RESOURCEMANAGER.PDB
H:\AGAMEDEV\ENGINE\DRAGONGAME\RESOURCEMANAGER\X64\DEBUG\RESOURCEMANAGER.IDB
H:\AGAMEDEV\ENGINE\DRAGONGAME\RESOURCEMANAGER\X64\DEBUG\STORAGE.OBJ
^H:\AGAMEDEV\ENGINE\DRAGONGAME\RESOURCEMANAGER\RESOURCEMANAGER.CPP
H:\AGAMEDEV\ENGINE\DRAGONGAME\RESOURCEMANAGER\X64\DEBUG\RESOURCEMANAGER.PDB
^H:\AGAMEDEV\ENGINE\DRAGONGAME\RESOURCEMANAGER\STORAGE.CPP
H:\AGAMEDEV\ENGINE\DRAGONGAME\RESOURCEMANAGER\X64\DEBUG\RESOURCEMANAGER.PDB
