^D:\USERS\JUSTA\DOCUMENTS\PORTFOLIO\OPENGL_RASTERISER\OPENGL RASTERISER\OPENGLGRAPHICS\DEBUG\MAIN.OBJ|D:\USERS\JUSTA\DOCUMENTS\PORTFOLIO\OPENGL_RASTERISER\OPENGL RASTERISER\OPENGLGRAPHICS\DEBUG\MESH.OBJ|D:\USERS\JUSTA\DOCUMENTS\PORTFOLIO\OPENGL_RASTERISER\OPENGL RASTERISER\OPENGLGRAPHICS\DEBUG\RENDERER.OBJ|D:\USERS\JUSTA\DOCUMENTS\PORTFOLIO\OPENGL_RASTERISER\OPENGL RASTERISER\OPENGLGRAPHICS\DEBUG\RENDEROBJECT.OBJ|D:\USERS\JUSTA\DOCUMENTS\PORTFOLIO\OPENGL_RASTERISER\OPENGL RASTERISER\OPENGLGRAPHICS\DEBUG\SHADER.OBJ
/OUT:"D:\USERS\JUSTA\DOCUMENTS\PORTFOLIO\OPENGL_RASTERISER\OPENGL RASTERISER\OPENGLGRAPHICS\DEBUG\OPENGLGRAPHICS.EXE" /INCREMENTAL /NOLOGO KERNEL32.LIB USER32.LIB GDI32.LIB WINSPOOL.LIB COMDLG32.LIB ADVAPI32.LIB SHELL32.LIB OLE32.LIB OLEAUT32.LIB UUID.LIB ODBC32.LIB ODBCCP32.LIB /MANIFEST /MANIFESTUAC:"level='asInvoker' uiAccess='false'" /manifest:embed /DEBUG:FASTLINK /PDB:"D:\USERS\JUSTA\DOCUMENTS\PORTFOLIO\OPENGL_RASTERISER\OPENGL RASTERISER\OPENGLGRAPHICS\DEBUG\OPENGLGRAPHICS.PDB" /TLBID:1 /DYNAMICBASE /NXCOMPAT /IMPLIB:"D:\USERS\JUSTA\DOCUMENTS\PORTFOLIO\OPENGL_RASTERISER\OPENGL RASTERISER\OPENGLGRAPHICS\DEBUG\OPENGLGRAPHICS.LIB" /MACHINE:X86 DEBUG\MAIN.OBJDEBUG\MESH.OBJDEBUG\RENDERER.OBJDEBUG\RENDEROBJECT.OBJDEBUG\SHADER.OBJ
^D:\USERS\JUSTA\DOCUMENTS\PORTFOLIO\SHADERS\OPENGLGRAPHICS\DEBUG\MAIN.OBJ|D:\USERS\JUSTA\DOCUMENTS\PORTFOLIO\SHADERS\OPENGLGRAPHICS\DEBUG\MESH.OBJ|D:\USERS\JUSTA\DOCUMENTS\PORTFOLIO\SHADERS\OPENGLGRAPHICS\DEBUG\RENDERER.OBJ|D:\USERS\JUSTA\DOCUMENTS\PORTFOLIO\SHADERS\OPENGLGRAPHICS\DEBUG\RENDEROBJECT.OBJ|D:\USERS\JUSTA\DOCUMENTS\PORTFOLIO\SHADERS\OPENGLGRAPHICS\DEBUG\SHADER.OBJ
/OUT:"D:\USERS\JUSTA\DOCUMENTS\PORTFOLIO\SHADERS\OPENGLGRAPHICS\DEBUG\OPENGLGRAPHICS.EXE" /INCREMENTAL /NOLOGO KERNEL32.LIB USER32.LIB GDI32.LIB WINSPOOL.LIB COMDLG32.LIB ADVAPI32.LIB SHELL32.LIB OLE32.LIB OLEAUT32.LIB UUID.LIB ODBC32.LIB ODBCCP32.LIB /MANIFEST /MANIFESTUAC:"level='asInvoker' uiAccess='false'" /manifest:embed /DEBUG:FASTLINK /PDB:"D:\USERS\JUSTA\DOCUMENTS\PORTFOLIO\SHADERS\OPENGLGRAPHICS\DEBUG\OPENGLGRAPHICS.PDB" /TLBID:1 /DYNAMICBASE /NXCOMPAT /IMPLIB:"D:\USERS\JUSTA\DOCUMENTS\PORTFOLIO\SHADERS\OPENGLGRAPHICS\DEBUG\OPENGLGRAPHICS.LIB" /MACHINE:X86 DEBUG\MAIN.OBJDEBUG\MESH.OBJDEBUG\RENDERER.OBJDEBUG\RENDEROBJECT.OBJDEBUG\SHADER.OBJ
