^H:\AGAMEDEV\ENGINE\DRAGONGAME\MIDDLEWARE\BULLET3-MASTER\SRC\BULLET3COMMON\B3ALIGNEDALLOCATOR.CPP
/c /Zi /nologo /W3 /WX- /diagnostics:classic /sdl /O2 /Oi /Oy- /GL /D _MBCS /Gm- /EHsc /MD /GS /Gy /fp:precise /Zc:wchar_t /Zc:forScope /Zc:inline /Fo"RELEASE\\" /Fd"RELEASE\BULLET3COMMON.PDB" /Gd /TP /analyze- H:\AGAMEDEV\ENGINE\DRAGONGAME\MIDDLEWARE\BULLET3-MASTER\SRC\BULLET3COMMON\B3ALIGNEDALLOCATOR.CPP
^H:\AGAMEDEV\ENGINE\DRAGONGAME\MIDDLEWARE\BULLET3-MASTER\SRC\BULLET3COMMON\B3LOGGING.CPP
/c /Zi /nologo /W3 /WX- /diagnostics:classic /sdl /O2 /Oi /Oy- /GL /D _MBCS /Gm- /EHsc /MD /GS /Gy /fp:precise /Zc:wchar_t /Zc:forScope /Zc:inline /Fo"RELEASE\\" /Fd"RELEASE\BULLET3COMMON.PDB" /Gd /TP /analyze- H:\AGAMEDEV\ENGINE\DRAGONGAME\MIDDLEWARE\BULLET3-MASTER\SRC\BULLET3COMMON\B3LOGGING.CPP
^H:\AGAMEDEV\ENGINE\DRAGONGAME\MIDDLEWARE\BULLET3-MASTER\SRC\BULLET3COMMON\B3VECTOR3.CPP
/c /Zi /nologo /W3 /WX- /diagnostics:classic /sdl /O2 /Oi /Oy- /GL /D _MBCS /Gm- /EHsc /MD /GS /Gy /fp:precise /Zc:wchar_t /Zc:forScope /Zc:inline /Fo"RELEASE\\" /Fd"RELEASE\BULLET3COMMON.PDB" /Gd /TP /analyze- H:\AGAMEDEV\ENGINE\DRAGONGAME\MIDDLEWARE\BULLET3-MASTER\SRC\BULLET3COMMON\B3VECTOR3.CPP
^C:\USERS\B4044959\DOCUMENTS\PORTFOLIO\PORTFOLIO\GAME ENGINE\DRAGONGAME\MIDDLEWARE\BULLET3-MASTER\SRC\BULLET3COMMON\B3ALIGNEDALLOCATOR.CPP
/c /Zi /nologo /W3 /WX- /diagnostics:classic /sdl /O2 /Oi /Oy- /GL /D _MBCS /Gm- /EHsc /MD /GS /Gy /fp:precise /Zc:wchar_t /Zc:forScope /Zc:inline /Fo"RELEASE\\" /Fd"RELEASE\BULLET3COMMON.PDB" /Gd /TP /analyze- C:\USERS\B4044959\DOCUMENTS\PORTFOLIO\PORTFOLIO\GAME ENGINE\DRAGONGAME\MIDDLEWARE\BULLET3-MASTER\SRC\BULLET3COMMON\B3ALIGNEDALLOCATOR.CPP
^C:\USERS\B4044959\DOCUMENTS\PORTFOLIO\PORTFOLIO\GAME ENGINE\DRAGONGAME\MIDDLEWARE\BULLET3-MASTER\SRC\BULLET3COMMON\B3LOGGING.CPP
/c /Zi /nologo /W3 /WX- /diagnostics:classic /sdl /O2 /Oi /Oy- /GL /D _MBCS /Gm- /EHsc /MD /GS /Gy /fp:precise /Zc:wchar_t /Zc:forScope /Zc:inline /Fo"RELEASE\\" /Fd"RELEASE\BULLET3COMMON.PDB" /Gd /TP /analyze- C:\USERS\B4044959\DOCUMENTS\PORTFOLIO\PORTFOLIO\GAME ENGINE\DRAGONGAME\MIDDLEWARE\BULLET3-MASTER\SRC\BULLET3COMMON\B3LOGGING.CPP
^C:\USERS\B4044959\DOCUMENTS\PORTFOLIO\PORTFOLIO\GAME ENGINE\DRAGONGAME\MIDDLEWARE\BULLET3-MASTER\SRC\BULLET3COMMON\B3VECTOR3.CPP
/c /Zi /nologo /W3 /WX- /diagnostics:classic /sdl /O2 /Oi /Oy- /GL /D _MBCS /Gm- /EHsc /MD /GS /Gy /fp:precise /Zc:wchar_t /Zc:forScope /Zc:inline /Fo"RELEASE\\" /Fd"RELEASE\BULLET3COMMON.PDB" /Gd /TP /analyze- C:\USERS\B4044959\DOCUMENTS\PORTFOLIO\PORTFOLIO\GAME ENGINE\DRAGONGAME\MIDDLEWARE\BULLET3-MASTER\SRC\BULLET3COMMON\B3VECTOR3.CPP
