^H:\AGAMEDEV\ENGINE\DRAGONGAME\HUMANINTERFACE\CONTROLLER.CPP|H:\AGAMEDEV\ENGINE\DRAGONGAME\HUMANINTERFACE\GAMEPADCONTROLLER.CPP|H:\AGAMEDEV\ENGINE\DRAGONGAME\HUMANINTERFACE\KEYBOARDCONTROLLER.CPP
H:\AGAMEDEV\ENGINE\DRAGONGAME\HUMANINTERFACE\DEBUG\HUMANINTERFACE.PDB
H:\AGAMEDEV\ENGINE\DRAGONGAME\HUMANINTERFACE\DEBUG\HUMANINTERFACE.IDB
H:\AGAMEDEV\ENGINE\DRAGONGAME\HUMANINTERFACE\DEBUG\CONTROLLER.OBJ
H:\AGAMEDEV\ENGINE\DRAGONGAME\HUMANINTERFACE\DEBUG\GAMEPADCONTROLLER.OBJ
H:\AGAMEDEV\ENGINE\DRAGONGAME\HUMANINTERFACE\DEBUG\KEYBOARDCONTROLLER.OBJ
^H:\AGAMEDEV\ENGINE\DRAGONGAME\HUMANINTERFACE\CONTROLLER.CPP
H:\AGAMEDEV\ENGINE\DRAGONGAME\HUMANINTERFACE\DEBUG\HUMANINTERFACE.PDB
^H:\AGAMEDEV\ENGINE\DRAGONGAME\HUMANINTERFACE\GAMEPADCONTROLLER.CPP
H:\AGAMEDEV\ENGINE\DRAGONGAME\HUMANINTERFACE\DEBUG\HUMANINTERFACE.PDB
^H:\AGAMEDEV\ENGINE\DRAGONGAME\HUMANINTERFACE\KEYBOARDCONTROLLER.CPP
H:\AGAMEDEV\ENGINE\DRAGONGAME\HUMANINTERFACE\DEBUG\HUMANINTERFACE.PDB
H:\AGAMEDEV\ENGINE\DRAGONGAME\HUMANINTERFACE\DEBUG\KEYBOARDCONTROLLER.OBJ
^H:\AGAMEDEV\ENGINE\DRAGONGAME\HUMANINTERFACE\GAMEPADCONTROLLER.CPP|H:\AGAMEDEV\ENGINE\DRAGONGAME\HUMANINTERFACE\KEYBOARDCONTROLLER.CPP
H:\AGAMEDEV\ENGINE\DRAGONGAME\HUMANINTERFACE\DEBUG\GAMEPADCONTROLLER.OBJ
H:\AGAMEDEV\ENGINE\DRAGONGAME\HUMANINTERFACE\DEBUG\KEYBOARDCONTROLLER.OBJ
