^D:\USERS\JUSTA\DOCUMENTS\PORTFOLIO\OPENGL_RASTERISER\OPENGL RASTERISER\NCLGL\GAMETIMER.CPP
/c /Zi /nologo /W3 /WX- /diagnostics:classic /O2 /Oi /Oy- /GL /D _MBCS /Gm- /EHsc /MD /GS /Gy /fp:precise /Zc:wchar_t /Zc:forScope /Zc:inline /Fo"RELEASE\\" /Fd"RELEASE\NCLGL.PDB" /Gd /TP /analyze- /FC D:\USERS\JUSTA\DOCUMENTS\PORTFOLIO\OPENGL_RASTERISER\OPENGL RASTERISER\NCLGL\GAMETIMER.CPP
^D:\USERS\JUSTA\DOCUMENTS\PORTFOLIO\OPENGL_RASTERISER\OPENGL RASTERISER\NCLGL\KEYBOARD.CPP
/c /Zi /nologo /W3 /WX- /diagnostics:classic /O2 /Oi /Oy- /GL /D _MBCS /Gm- /EHsc /MD /GS /Gy /fp:precise /Zc:wchar_t /Zc:forScope /Zc:inline /Fo"RELEASE\\" /Fd"RELEASE\NCLGL.PDB" /Gd /TP /analyze- /FC D:\USERS\JUSTA\DOCUMENTS\PORTFOLIO\OPENGL_RASTERISER\OPENGL RASTERISER\NCLGL\KEYBOARD.CPP
^D:\USERS\JUSTA\DOCUMENTS\PORTFOLIO\OPENGL_RASTERISER\OPENGL RASTERISER\NCLGL\MATRIX3.CPP
/c /Zi /nologo /W3 /WX- /diagnostics:classic /O2 /Oi /Oy- /GL /D _MBCS /Gm- /EHsc /MD /GS /Gy /fp:precise /Zc:wchar_t /Zc:forScope /Zc:inline /Fo"RELEASE\\" /Fd"RELEASE\NCLGL.PDB" /Gd /TP /analyze- /FC D:\USERS\JUSTA\DOCUMENTS\PORTFOLIO\OPENGL_RASTERISER\OPENGL RASTERISER\NCLGL\MATRIX3.CPP
^D:\USERS\JUSTA\DOCUMENTS\PORTFOLIO\OPENGL_RASTERISER\OPENGL RASTERISER\NCLGL\MATRIX4.CPP
/c /Zi /nologo /W3 /WX- /diagnostics:classic /O2 /Oi /Oy- /GL /D _MBCS /Gm- /EHsc /MD /GS /Gy /fp:precise /Zc:wchar_t /Zc:forScope /Zc:inline /Fo"RELEASE\\" /Fd"RELEASE\NCLGL.PDB" /Gd /TP /analyze- /FC D:\USERS\JUSTA\DOCUMENTS\PORTFOLIO\OPENGL_RASTERISER\OPENGL RASTERISER\NCLGL\MATRIX4.CPP
^D:\USERS\JUSTA\DOCUMENTS\PORTFOLIO\OPENGL_RASTERISER\OPENGL RASTERISER\NCLGL\MOUSE.CPP
/c /Zi /nologo /W3 /WX- /diagnostics:classic /O2 /Oi /Oy- /GL /D _MBCS /Gm- /EHsc /MD /GS /Gy /fp:precise /Zc:wchar_t /Zc:forScope /Zc:inline /Fo"RELEASE\\" /Fd"RELEASE\NCLGL.PDB" /Gd /TP /analyze- /FC D:\USERS\JUSTA\DOCUMENTS\PORTFOLIO\OPENGL_RASTERISER\OPENGL RASTERISER\NCLGL\MOUSE.CPP
^D:\USERS\JUSTA\DOCUMENTS\PORTFOLIO\OPENGL_RASTERISER\OPENGL RASTERISER\NCLGL\OGLRENDERER.CPP
/c /Zi /nologo /W3 /WX- /diagnostics:classic /O2 /Oi /Oy- /GL /D _MBCS /Gm- /EHsc /MD /GS /Gy /fp:precise /Zc:wchar_t /Zc:forScope /Zc:inline /Fo"RELEASE\\" /Fd"RELEASE\NCLGL.PDB" /Gd /TP /analyze- /FC D:\USERS\JUSTA\DOCUMENTS\PORTFOLIO\OPENGL_RASTERISER\OPENGL RASTERISER\NCLGL\OGLRENDERER.CPP
^D:\USERS\JUSTA\DOCUMENTS\PORTFOLIO\OPENGL_RASTERISER\OPENGL RASTERISER\NCLGL\QUATERNION.CPP
/c /Zi /nologo /W3 /WX- /diagnostics:classic /O2 /Oi /Oy- /GL /D _MBCS /Gm- /EHsc /MD /GS /Gy /fp:precise /Zc:wchar_t /Zc:forScope /Zc:inline /Fo"RELEASE\\" /Fd"RELEASE\NCLGL.PDB" /Gd /TP /analyze- /FC D:\USERS\JUSTA\DOCUMENTS\PORTFOLIO\OPENGL_RASTERISER\OPENGL RASTERISER\NCLGL\QUATERNION.CPP
^D:\USERS\JUSTA\DOCUMENTS\PORTFOLIO\OPENGL_RASTERISER\OPENGL RASTERISER\NCLGL\WINDOW.CPP
/c /Zi /nologo /W3 /WX- /diagnostics:classic /O2 /Oi /Oy- /GL /D _MBCS /Gm- /EHsc /MD /GS /Gy /fp:precise /Zc:wchar_t /Zc:forScope /Zc:inline /Fo"RELEASE\\" /Fd"RELEASE\NCLGL.PDB" /Gd /TP /analyze- /FC D:\USERS\JUSTA\DOCUMENTS\PORTFOLIO\OPENGL_RASTERISER\OPENGL RASTERISER\NCLGL\WINDOW.CPP
