^D:\USERS\JUSTA\DOCUMENTS\PORTFOLIO\OPENGL_RASTERISER\OPENGL RASTERISER\NCLGL\RELEASE\GAMETIMER.OBJ|D:\USERS\JUSTA\DOCUMENTS\PORTFOLIO\OPENGL_RASTERISER\OPENGL RASTERISER\NCLGL\RELEASE\KEYBOARD.OBJ|D:\USERS\JUSTA\DOCUMENTS\PORTFOLIO\OPENGL_RASTERISER\OPENGL RASTERISER\NCLGL\RELEASE\MATRIX3.OBJ|D:\USERS\JUSTA\DOCUMENTS\PORTFOLIO\OPENGL_RASTERISER\OPENGL RASTERISER\NCLGL\RELEASE\MATRIX4.OBJ|D:\USERS\JUSTA\DOCUMENTS\PORTFOLIO\OPENGL_RASTERISER\OPENGL RASTERISER\NCLGL\RELEASE\MOUSE.OBJ|D:\USERS\JUSTA\DOCUMENTS\PORTFOLIO\OPENGL_RASTERISER\OPENGL RASTERISER\NCLGL\RELEASE\OGLRENDERER.OBJ|D:\USERS\JUSTA\DOCUMENTS\PORTFOLIO\OPENGL_RASTERISER\OPENGL RASTERISER\NCLGL\RELEASE\QUATERNION.OBJ|D:\USERS\JUSTA\DOCUMENTS\PORTFOLIO\OPENGL_RASTERISER\OPENGL RASTERISER\NCLGL\RELEASE\WINDOW.OBJ
C:\PROGRAM FILES (X86)\MICROSOFT VISUAL STUDIO\2017\COMMUNITY\VC\TOOLS\MSVC\14.15.26726\BIN\HOSTX86\X86\LINK.EXE
D:\USERS\JUSTA\DOCUMENTS\PORTFOLIO\OPENGL_RASTERISER\OPENGL RASTERISER\NCLGL\RELEASE\GAMETIMER.OBJ
C:\WINDOWS\SYSTEM32\TZRES.DLL
D:\USERS\JUSTA\DOCUMENTS\PORTFOLIO\OPENGL_RASTERISER\OPENGL RASTERISER\NCLGL\RELEASE\KEYBOARD.OBJ
D:\USERS\JUSTA\DOCUMENTS\PORTFOLIO\OPENGL_RASTERISER\OPENGL RASTERISER\NCLGL\RELEASE\MATRIX3.OBJ
D:\USERS\JUSTA\DOCUMENTS\PORTFOLIO\OPENGL_RASTERISER\OPENGL RASTERISER\NCLGL\RELEASE\MATRIX4.OBJ
D:\USERS\JUSTA\DOCUMENTS\PORTFOLIO\OPENGL_RASTERISER\OPENGL RASTERISER\NCLGL\RELEASE\MOUSE.OBJ
D:\USERS\JUSTA\DOCUMENTS\PORTFOLIO\OPENGL_RASTERISER\OPENGL RASTERISER\NCLGL\RELEASE\OGLRENDERER.OBJ
D:\USERS\JUSTA\DOCUMENTS\PORTFOLIO\OPENGL_RASTERISER\OPENGL RASTERISER\NCLGL\RELEASE\QUATERNION.OBJ
D:\USERS\JUSTA\DOCUMENTS\PORTFOLIO\OPENGL_RASTERISER\OPENGL RASTERISER\NCLGL\RELEASE\WINDOW.OBJ
C:\WINDOWS\GLOBALIZATION\SORTING\SORTDEFAULT.NLS
