^D:\USERS\JUSTA\DOCUMENTS\CSC STAGE 4\STAGE4\GAME TECHNOLOGIES\FRAMEWORK\COMMON\RELEASE\ASSETS.OBJ|D:\USERS\JUSTA\DOCUMENTS\CSC STAGE 4\STAGE4\GAME TECHNOLOGIES\FRAMEWORK\COMMON\RELEASE\CAMERA.OBJ|D:\USERS\JUSTA\DOCUMENTS\CSC STAGE 4\STAGE4\GAME TECHNOLOGIES\FRAMEWORK\COMMON\RELEASE\GAMETIMER.OBJ|D:\USERS\JUSTA\DOCUMENTS\CSC STAGE 4\STAGE4\GAME TECHNOLOGIES\FRAMEWORK\COMMON\RELEASE\KEYBOARD.OBJ|D:\USERS\JUSTA\DOCUMENTS\CSC STAGE 4\STAGE4\GAME TECHNOLOGIES\FRAMEWORK\COMMON\RELEASE\MATHS.OBJ|D:\USERS\JUSTA\DOCUMENTS\CSC STAGE 4\STAGE4\GAME TECHNOLOGIES\FRAMEWORK\COMMON\RELEASE\MATRIX2.OBJ|D:\USERS\JUSTA\DOCUMENTS\CSC STAGE 4\STAGE4\GAME TECHNOLOGIES\FRAMEWORK\COMMON\RELEASE\MATRIX3.OBJ|D:\USERS\JUSTA\DOCUMENTS\CSC STAGE 4\STAGE4\GAME TECHNOLOGIES\FRAMEWORK\COMMON\RELEASE\MATRIX4.OBJ|D:\USERS\JUSTA\DOCUMENTS\CSC STAGE 4\STAGE4\GAME TECHNOLOGIES\FRAMEWORK\COMMON\RELEASE\MESHGEOMETRY.OBJ|D:\USERS\JUSTA\DOCUMENTS\CSC STAGE 4\STAGE4\GAME TECHNOLOGIES\FRAMEWORK\COMMON\RELEASE\MOUSE.OBJ|D:\USERS\JUSTA\DOCUMENTS\CSC STAGE 4\STAGE4\GAME TECHNOLOGIES\FRAMEWORK\COMMON\RELEASE\PLANE.OBJ|D:\USERS\JUSTA\DOCUMENTS\CSC STAGE 4\STAGE4\GAME TECHNOLOGIES\FRAMEWORK\COMMON\RELEASE\QUATERNION.OBJ|D:\USERS\JUSTA\DOCUMENTS\CSC STAGE 4\STAGE4\GAME TECHNOLOGIES\FRAMEWORK\COMMON\RELEASE\RENDERERBASE.OBJ|D:\USERS\JUSTA\DOCUMENTS\CSC STAGE 4\STAGE4\GAME TECHNOLOGIES\FRAMEWORK\COMMON\RELEASE\SHADERBASE.OBJ|D:\USERS\JUSTA\DOCUMENTS\CSC STAGE 4\STAGE4\GAME TECHNOLOGIES\FRAMEWORK\COMMON\RELEASE\SIMPLEFONT.OBJ|D:\USERS\JUSTA\DOCUMENTS\CSC STAGE 4\STAGE4\GAME TECHNOLOGIES\FRAMEWORK\COMMON\RELEASE\TEXTUREBASE.OBJ|D:\USERS\JUSTA\DOCUMENTS\CSC STAGE 4\STAGE4\GAME TECHNOLOGIES\FRAMEWORK\COMMON\RELEASE\TEXTURELOADER.OBJ|D:\USERS\JUSTA\DOCUMENTS\CSC STAGE 4\STAGE4\GAME TECHNOLOGIES\FRAMEWORK\COMMON\RELEASE\TEXTUREWRITER.OBJ|D:\USERS\JUSTA\DOCUMENTS\CSC STAGE 4\STAGE4\GAME TECHNOLOGIES\FRAMEWORK\COMMON\RELEASE\WIN32KEYBOARD.OBJ|D:\USERS\JUSTA\DOCUMENTS\CSC STAGE 4\STAGE4\GAME TECHNOLOGIES\FRAMEWORK\COMMON\RELEASE\WIN32MOUSE.OBJ|D:\USERS\JUSTA\DOCUMENTS\CSC STAGE 4\STAGE4\GAME TECHNOLOGIES\FRAMEWORK\COMMON\RELEASE\WIN32WINDOW.OBJ|D:\USERS\JUSTA\DOCUMENTS\CSC STAGE 4\STAGE4\GAME TECHNOLOGIES\FRAMEWORK\COMMON\RELEASE\WINDOW.OBJ
/OUT:"D:\USERS\JUSTA\DOCUMENTS\CSC STAGE 4\STAGE4\GAME TECHNOLOGIES\FRAMEWORK\WIN32\RELEASE\COMMON.LIB" /NOLOGO /LTCG RELEASE\ASSETS.OBJRELEASE\CAMERA.OBJRELEASE\GAMETIMER.OBJRELEASE\KEYBOARD.OBJRELEASE\MATHS.OBJRELEASE\MATRIX2.OBJRELEASE\MATRIX3.OBJRELEASE\MATRIX4.OBJRELEASE\MESHGEOMETRY.OBJRELEASE\MOUSE.OBJRELEASE\PLANE.OBJRELEASE\QUATERNION.OBJRELEASE\RENDERERBASE.OBJRELEASE\SHADERBASE.OBJRELEASE\SIMPLEFONT.OBJRELEASE\TEXTUREBASE.OBJRELEASE\TEXTURELOADER.OBJRELEASE\TEXTUREWRITER.OBJRELEASE\WIN32KEYBOARD.OBJRELEASE\WIN32MOUSE.OBJRELEASE\WIN32WINDOW.OBJRELEASE\WINDOW.OBJ
^F:\JUSTYNA\FRAMEWORK\COMMON\RELEASE\ASSETS.OBJ|F:\JUSTYNA\FRAMEWORK\COMMON\RELEASE\CAMERA.OBJ|F:\JUSTYNA\FRAMEWORK\COMMON\RELEASE\GAMETIMER.OBJ|F:\JUSTYNA\FRAMEWORK\COMMON\RELEASE\KEYBOARD.OBJ|F:\JUSTYNA\FRAMEWORK\COMMON\RELEASE\MATHS.OBJ|F:\JUSTYNA\FRAMEWORK\COMMON\RELEASE\MATRIX2.OBJ|F:\JUSTYNA\FRAMEWORK\COMMON\RELEASE\MATRIX3.OBJ|F:\JUSTYNA\FRAMEWORK\COMMON\RELEASE\MATRIX4.OBJ|F:\JUSTYNA\FRAMEWORK\COMMON\RELEASE\MESHGEOMETRY.OBJ|F:\JUSTYNA\FRAMEWORK\COMMON\RELEASE\MOUSE.OBJ|F:\JUSTYNA\FRAMEWORK\COMMON\RELEASE\PLANE.OBJ|F:\JUSTYNA\FRAMEWORK\COMMON\RELEASE\QUATERNION.OBJ|F:\JUSTYNA\FRAMEWORK\COMMON\RELEASE\RENDERERBASE.OBJ|F:\JUSTYNA\FRAMEWORK\COMMON\RELEASE\SHADERBASE.OBJ|F:\JUSTYNA\FRAMEWORK\COMMON\RELEASE\SIMPLEFONT.OBJ|F:\JUSTYNA\FRAMEWORK\COMMON\RELEASE\TEXTUREBASE.OBJ|F:\JUSTYNA\FRAMEWORK\COMMON\RELEASE\TEXTURELOADER.OBJ|F:\JUSTYNA\FRAMEWORK\COMMON\RELEASE\TEXTUREWRITER.OBJ|F:\JUSTYNA\FRAMEWORK\COMMON\RELEASE\WIN32KEYBOARD.OBJ|F:\JUSTYNA\FRAMEWORK\COMMON\RELEASE\WIN32MOUSE.OBJ|F:\JUSTYNA\FRAMEWORK\COMMON\RELEASE\WIN32WINDOW.OBJ|F:\JUSTYNA\FRAMEWORK\COMMON\RELEASE\WINDOW.OBJ
/OUT:"F:\JUSTYNA\FRAMEWORK\WIN32\RELEASE\COMMON.LIB" /NOLOGO /LTCG RELEASE\ASSETS.OBJRELEASE\CAMERA.OBJRELEASE\GAMETIMER.OBJRELEASE\KEYBOARD.OBJRELEASE\MATHS.OBJRELEASE\MATRIX2.OBJRELEASE\MATRIX3.OBJRELEASE\MATRIX4.OBJRELEASE\MESHGEOMETRY.OBJRELEASE\MOUSE.OBJRELEASE\PLANE.OBJRELEASE\QUATERNION.OBJRELEASE\RENDERERBASE.OBJRELEASE\SHADERBASE.OBJRELEASE\SIMPLEFONT.OBJRELEASE\TEXTUREBASE.OBJRELEASE\TEXTURELOADER.OBJRELEASE\TEXTUREWRITER.OBJRELEASE\WIN32KEYBOARD.OBJRELEASE\WIN32MOUSE.OBJRELEASE\WIN32WINDOW.OBJRELEASE\WINDOW.OBJ
^C:\USERS\B4044959\DOCUMENTS\STAGE4\GAME TECHNOLOGIES\FRAMEWORK\COMMON\RELEASE\ASSETS.OBJ|C:\USERS\B4044959\DOCUMENTS\STAGE4\GAME TECHNOLOGIES\FRAMEWORK\COMMON\RELEASE\CAMERA.OBJ|C:\USERS\B4044959\DOCUMENTS\STAGE4\GAME TECHNOLOGIES\FRAMEWORK\COMMON\RELEASE\GAMETIMER.OBJ|C:\USERS\B4044959\DOCUMENTS\STAGE4\GAME TECHNOLOGIES\FRAMEWORK\COMMON\RELEASE\KEYBOARD.OBJ|C:\USERS\B4044959\DOCUMENTS\STAGE4\GAME TECHNOLOGIES\FRAMEWORK\COMMON\RELEASE\MATHS.OBJ|C:\USERS\B4044959\DOCUMENTS\STAGE4\GAME TECHNOLOGIES\FRAMEWORK\COMMON\RELEASE\MATRIX2.OBJ|C:\USERS\B4044959\DOCUMENTS\STAGE4\GAME TECHNOLOGIES\FRAMEWORK\COMMON\RELEASE\MATRIX3.OBJ|C:\USERS\B4044959\DOCUMENTS\STAGE4\GAME TECHNOLOGIES\FRAMEWORK\COMMON\RELEASE\MATRIX4.OBJ|C:\USERS\B4044959\DOCUMENTS\STAGE4\GAME TECHNOLOGIES\FRAMEWORK\COMMON\RELEASE\MESHGEOMETRY.OBJ|C:\USERS\B4044959\DOCUMENTS\STAGE4\GAME TECHNOLOGIES\FRAMEWORK\COMMON\RELEASE\MOUSE.OBJ|C:\USERS\B4044959\DOCUMENTS\STAGE4\GAME TECHNOLOGIES\FRAMEWORK\COMMON\RELEASE\PLANE.OBJ|C:\USERS\B4044959\DOCUMENTS\STAGE4\GAME TECHNOLOGIES\FRAMEWORK\COMMON\RELEASE\QUATERNION.OBJ|C:\USERS\B4044959\DOCUMENTS\STAGE4\GAME TECHNOLOGIES\FRAMEWORK\COMMON\RELEASE\RENDERERBASE.OBJ|C:\USERS\B4044959\DOCUMENTS\STAGE4\GAME TECHNOLOGIES\FRAMEWORK\COMMON\RELEASE\SHADERBASE.OBJ|C:\USERS\B4044959\DOCUMENTS\STAGE4\GAME TECHNOLOGIES\FRAMEWORK\COMMON\RELEASE\SIMPLEFONT.OBJ|C:\USERS\B4044959\DOCUMENTS\STAGE4\GAME TECHNOLOGIES\FRAMEWORK\COMMON\RELEASE\TEXTUREBASE.OBJ|C:\USERS\B4044959\DOCUMENTS\STAGE4\GAME TECHNOLOGIES\FRAMEWORK\COMMON\RELEASE\TEXTURELOADER.OBJ|C:\USERS\B4044959\DOCUMENTS\STAGE4\GAME TECHNOLOGIES\FRAMEWORK\COMMON\RELEASE\TEXTUREWRITER.OBJ|C:\USERS\B4044959\DOCUMENTS\STAGE4\GAME TECHNOLOGIES\FRAMEWORK\COMMON\RELEASE\WIN32KEYBOARD.OBJ|C:\USERS\B4044959\DOCUMENTS\STAGE4\GAME TECHNOLOGIES\FRAMEWORK\COMMON\RELEASE\WIN32MOUSE.OBJ|C:\USERS\B4044959\DOCUMENTS\STAGE4\GAME TECHNOLOGIES\FRAMEWORK\COMMON\RELEASE\WIN32WINDOW.OBJ|C:\USERS\B4044959\DOCUMENTS\STAGE4\GAME TECHNOLOGIES\FRAMEWORK\COMMON\RELEASE\WINDOW.OBJ
/OUT:"C:\USERS\B4044959\DOCUMENTS\STAGE4\GAME TECHNOLOGIES\FRAMEWORK\WIN32\RELEASE\COMMON.LIB" /NOLOGO /LTCG RELEASE\ASSETS.OBJRELEASE\CAMERA.OBJRELEASE\GAMETIMER.OBJRELEASE\KEYBOARD.OBJRELEASE\MATHS.OBJRELEASE\MATRIX2.OBJRELEASE\MATRIX3.OBJRELEASE\MATRIX4.OBJRELEASE\MESHGEOMETRY.OBJRELEASE\MOUSE.OBJRELEASE\PLANE.OBJRELEASE\QUATERNION.OBJRELEASE\RENDERERBASE.OBJRELEASE\SHADERBASE.OBJRELEASE\SIMPLEFONT.OBJRELEASE\TEXTUREBASE.OBJRELEASE\TEXTURELOADER.OBJRELEASE\TEXTUREWRITER.OBJRELEASE\WIN32KEYBOARD.OBJRELEASE\WIN32MOUSE.OBJRELEASE\WIN32WINDOW.OBJRELEASE\WINDOW.OBJ
